Run, Good, Bad, LDelivered, LRecorded, LAr Corrected, Prescale Corrected, Live Fraction, LAr Fraction, Prescale Fraction
365502, 160, 0, 0.621043, 0.615852, 0.615852, 0.615852, 99.16, 100.00, 100.00
365512, 160, 0, 0.920490, 0.910942, 0.910942, 0.910942, 98.96, 100.00, 100.00
365573, 255, 0, 7.913800, 7.786214, 7.786214, 7.786214, 98.39, 100.00, 100.00
365602, 291, 0, 9.826059, 9.642169, 9.642168, 9.642168, 98.13, 100.00, 100.00
365627, 320, 0, 23.439271, 23.022436, 23.022436, 23.022436, 98.22, 100.00, 100.00
365678, 177, 0, 16.710900, 16.335600, 16.335600, 16.335600, 97.75, 100.00, 100.00
365681, 400, 0, 25.223055, 24.759119, 24.759119, 24.759119, 98.16, 100.00, 100.00
365709, 432, 0, 36.256660, 35.446300, 35.446300, 35.446300, 97.76, 100.00, 100.00
365752, 477, 0, 37.681800, 36.875600, 36.875500, 36.875500, 97.86, 100.00, 100.00
365834, 230, 0, 5.760210, 5.609680, 5.609680, 5.609680, 97.39, 100.00, 100.00
365914, 360, 0, 6.667470, 6.519730, 6.519730, 6.519730, 97.78, 100.00, 100.00
365932, 446, 0, 42.765585, 41.757878, 41.757878, 41.757878, 97.64, 100.00, 100.00
366011, 451, 0, 44.735000, 43.986500, 43.986500, 43.986500, 98.33, 100.00, 100.00
366029, 418, 0, 43.249844, 42.580272, 42.580272, 42.580272, 98.45, 100.00, 100.00
366092, 445, 0, 46.008300, 45.512000, 45.512000, 45.512000, 98.92, 100.00, 100.00
366142, 442, 0, 42.459174, 41.942620, 41.942620, 41.942620, 98.78, 100.00, 100.00
366268, 666, 0, 55.039985, 54.381819, 54.381819, 54.381819, 98.80, 100.00, 100.00
366337, 631, 0, 44.867550, 44.324310, 44.324310, 44.324310, 98.79, 100.00, 100.00
366383, 30, 0, 0.169083, 0.156066, 0.156065, 0.156065, 92.30, 100.00, 100.00
366413, 417, 0, 41.449000, 40.914500, 40.914500, 40.914500, 98.71, 100.00, 100.00
366476, 434, 0, 42.906900, 42.362307, 42.362307, 42.362307, 98.73, 100.00, 100.00
366526, 0, 9, 1.076970, 1.046440, 1.046440, 0.000000, 97.17, 100.00, 
366528, 277, 11, 32.329900, 31.735400, 31.735400, 30.437390, 98.16, 100.00, 104.26
366627, 388, 6, 37.673268, 36.861975, 36.861975, 35.961375, 97.85, 100.00, 102.50
366691, 518, 2, 56.473500, 55.499700, 55.499700, 55.116800, 98.28, 100.00, 100.69
366754, 474, 4, 63.070859, 61.923661, 61.923561, 60.410861, 98.18, 100.00, 102.50
366805, 601, 3, 74.479600, 73.173900, 73.173800, 72.583600, 98.25, 100.00, 100.81
366860, 485, 5, 66.444817, 65.399060, 65.398860, 64.685460, 98.43, 100.00, 101.10
366878, 479, 1, 65.519200, 64.330200, 64.330100, 64.180000, 98.19, 100.00, 100.23
366919, 549, 51, 75.613748, 73.951277, 73.951077, 59.830577, 97.80, 100.00, 123.60
366931, 324, 35, 59.025600, 58.059300, 58.059200, 48.053400, 98.36, 100.00, 120.82
366994, 0, 34, 9.896390, 9.614200, 9.614030, 0.000000, 97.15, 100.00, 
367023, 509, 27, 66.747900, 64.952067, 64.951967, 57.395567, 97.31, 100.00, 113.17
367099, 451, 39, 68.150500, 66.362800, 66.362700, 55.044600, 97.38, 100.00, 120.56
367134, 452, 55, 73.806591, 72.757005, 72.756705, 55.650305, 98.58, 100.00, 130.74
367165, 4, 26, 8.890460, 8.741060, 8.740900, 0.873209, 98.32, 100.00, 1001.01
367170, 792, 5, 48.428728, 47.745991, 47.745991, 46.937091, 98.59, 100.00, 101.72
367233, 464, 12, 56.706149, 55.006696, 55.006596, 52.147496, 97.00, 100.00, 105.48
367273, 436, 7, 51.101388, 49.804980, 49.804950, 48.258250, 97.46, 100.00, 103.21
367318, 448, 61, 66.313610, 65.375390, 65.375290, 48.316690, 98.59, 100.00, 135.31
367321, 421, 70, 67.776600, 66.926500, 66.926300, 47.024900, 98.75, 100.00, 142.32
367363, 0, 45, 13.604800, 13.417100, 13.416900, 0.000000, 98.62, 100.00, 
367364, 445, 72, 68.781151, 67.849093, 67.848793, 47.858893, 98.64, 100.00, 141.77
367365, 227, 30, 41.782600, 41.220700, 41.220700, 33.381000, 98.66, 100.00, 123.49
367384, 69, 7, 8.063393, 7.791298, 7.785838, 7.170788, 96.63, 99.93, 108.58
Total, 16455, 617, 1756.430000, 1724.990000, 1724.980000, 1556.760000, 98.21, 100.00, 110.81
