/pnfs/usatlas.bnl.gov/LOCALGROUPDISK/rucio/data18_hi/ae/2f/AOD.16161753._000001.pool.root.1
/pnfs/usatlas.bnl.gov/LOCALGROUPDISK/rucio/data18_hi/13/85/AOD.16161753._000003.pool.root.1
/pnfs/usatlas.bnl.gov/LOCALGROUPDISK/rucio/data18_hi/ee/35/AOD.16161753._000004.pool.root.1
/pnfs/usatlas.bnl.gov/LOCALGROUPDISK/rucio/data18_hi/f6/a5/AOD.16161753._000005.pool.root.1
/pnfs/usatlas.bnl.gov/LOCALGROUPDISK/rucio/data18_hi/08/29/AOD.16161753._000006.pool.root.1
/pnfs/usatlas.bnl.gov/LOCALGROUPDISK/rucio/data18_hi/92/3e/AOD.16161753._000007.pool.root.1
/pnfs/usatlas.bnl.gov/LOCALGROUPDISK/rucio/data18_hi/00/fc/AOD.16161753._000008.pool.root.1
/pnfs/usatlas.bnl.gov/LOCALGROUPDISK/rucio/data18_hi/66/61/AOD.16161753._000009.pool.root.1
/pnfs/usatlas.bnl.gov/LOCALGROUPDISK/rucio/data18_hi/55/01/AOD.16161753._000010.pool.root.1
/pnfs/usatlas.bnl.gov/LOCALGROUPDISK/rucio/data18_hi/30/0b/AOD.16161753._000011.pool.root.1
/pnfs/usatlas.bnl.gov/LOCALGROUPDISK/rucio/data18_hi/2e/64/AOD.16161753._000012.pool.root.1
/pnfs/usatlas.bnl.gov/LOCALGROUPDISK/rucio/data18_hi/6c/68/AOD.16161753._000013.pool.root.1
/pnfs/usatlas.bnl.gov/LOCALGROUPDISK/rucio/data18_hi/d0/96/AOD.16161753._000014.pool.root.1
/pnfs/usatlas.bnl.gov/LOCALGROUPDISK/rucio/data18_hi/48/4e/AOD.16161753._000015.pool.root.1
/pnfs/usatlas.bnl.gov/LOCALGROUPDISK/rucio/data18_hi/51/e7/AOD.16161753._000016.pool.root.1
/pnfs/usatlas.bnl.gov/LOCALGROUPDISK/rucio/data18_hi/ce/39/AOD.16161753._000017.pool.root.1
/pnfs/usatlas.bnl.gov/LOCALGROUPDISK/rucio/data18_hi/0b/fe/AOD.16161753._000018.pool.root.1
/pnfs/usatlas.bnl.gov/LOCALGROUPDISK/rucio/data18_hi/5b/42/AOD.16161753._000019.pool.root.1
/pnfs/usatlas.bnl.gov/LOCALGROUPDISK/rucio/data18_hi/97/32/AOD.16161753._000020.pool.root.1
/pnfs/usatlas.bnl.gov/LOCALGROUPDISK/rucio/data18_hi/92/d8/AOD.16161753._000021.pool.root.1
/pnfs/usatlas.bnl.gov/LOCALGROUPDISK/rucio/data18_hi/c9/a9/AOD.16161753._000022.pool.root.1
/pnfs/usatlas.bnl.gov/LOCALGROUPDISK/rucio/data18_hi/f4/8f/AOD.16161753._000023.pool.root.1
/pnfs/usatlas.bnl.gov/LOCALGROUPDISK/rucio/data18_hi/12/89/AOD.16161753._000025.pool.root.1
/pnfs/usatlas.bnl.gov/LOCALGROUPDISK/rucio/data18_hi/8b/43/AOD.16161753._000026.pool.root.1
/pnfs/usatlas.bnl.gov/LOCALGROUPDISK/rucio/data18_hi/1e/dd/AOD.16161753._000027.pool.root.1
/pnfs/usatlas.bnl.gov/LOCALGROUPDISK/rucio/data18_hi/d3/b3/AOD.16161753._000028.pool.root.1
/pnfs/usatlas.bnl.gov/LOCALGROUPDISK/rucio/data18_hi/c8/32/AOD.16161753._000029.pool.root.1
/pnfs/usatlas.bnl.gov/LOCALGROUPDISK/rucio/data18_hi/8e/16/AOD.16161753._000030.pool.root.1
/pnfs/usatlas.bnl.gov/LOCALGROUPDISK/rucio/data18_hi/9f/bc/AOD.16161753._000031.pool.root.1
/pnfs/usatlas.bnl.gov/LOCALGROUPDISK/rucio/data18_hi/8e/b7/AOD.16161753._000033.pool.root.1
/pnfs/usatlas.bnl.gov/LOCALGROUPDISK/rucio/data18_hi/92/33/AOD.16161753._000035.pool.root.1
/pnfs/usatlas.bnl.gov/LOCALGROUPDISK/rucio/data18_hi/7b/7b/AOD.16161753._000038.pool.root.1
/pnfs/usatlas.bnl.gov/LOCALGROUPDISK/rucio/data18_hi/81/ff/AOD.16161753._000039.pool.root.1
/pnfs/usatlas.bnl.gov/LOCALGROUPDISK/rucio/data18_hi/d6/28/AOD.16161753._000040.pool.root.1
/pnfs/usatlas.bnl.gov/LOCALGROUPDISK/rucio/data18_hi/82/08/AOD.16161753._000041.pool.root.1
/pnfs/usatlas.bnl.gov/LOCALGROUPDISK/rucio/data18_hi/77/fd/AOD.16161753._000043.pool.root.1
/pnfs/usatlas.bnl.gov/LOCALGROUPDISK/rucio/data18_hi/8a/c2/AOD.16161753._000044.pool.root.1
/pnfs/usatlas.bnl.gov/LOCALGROUPDISK/rucio/data18_hi/2a/83/AOD.16161753._000045.pool.root.1
/pnfs/usatlas.bnl.gov/LOCALGROUPDISK/rucio/data18_hi/81/f4/AOD.16161753._000046.pool.root.1
/pnfs/usatlas.bnl.gov/LOCALGROUPDISK/rucio/data18_hi/56/20/AOD.16161753._000047.pool.root.1
/pnfs/usatlas.bnl.gov/LOCALGROUPDISK/rucio/data18_hi/19/f1/AOD.16161753._000048.pool.root.1
/pnfs/usatlas.bnl.gov/LOCALGROUPDISK/rucio/data18_hi/40/60/AOD.16161753._000049.pool.root.1
/pnfs/usatlas.bnl.gov/LOCALGROUPDISK/rucio/data18_hi/8a/54/AOD.16161753._000050.pool.root.1
/pnfs/usatlas.bnl.gov/LOCALGROUPDISK/rucio/data18_hi/fd/a1/AOD.16161753._000051.pool.root.1
/pnfs/usatlas.bnl.gov/LOCALGROUPDISK/rucio/data18_hi/65/6a/AOD.16161753._000052.pool.root.1
/pnfs/usatlas.bnl.gov/LOCALGROUPDISK/rucio/data18_hi/d5/f2/AOD.16161753._000053.pool.root.1
/pnfs/usatlas.bnl.gov/LOCALGROUPDISK/rucio/data18_hi/33/cf/AOD.16161753._000054.pool.root.1
/pnfs/usatlas.bnl.gov/LOCALGROUPDISK/rucio/data18_hi/d3/66/AOD.16161753._000055.pool.root.1
/pnfs/usatlas.bnl.gov/LOCALGROUPDISK/rucio/data18_hi/12/33/AOD.16161753._000056.pool.root.1
/pnfs/usatlas.bnl.gov/LOCALGROUPDISK/rucio/data18_hi/a7/a6/AOD.16161753._000057.pool.root.1
/pnfs/usatlas.bnl.gov/LOCALGROUPDISK/rucio/data18_hi/b9/c8/AOD.16161753._000058.pool.root.1
/pnfs/usatlas.bnl.gov/LOCALGROUPDISK/rucio/data18_hi/5d/65/AOD.16161753._000059.pool.root.1
/pnfs/usatlas.bnl.gov/LOCALGROUPDISK/rucio/data18_hi/4e/9c/AOD.16161753._000060.pool.root.1
/pnfs/usatlas.bnl.gov/LOCALGROUPDISK/rucio/data18_hi/da/61/AOD.16161753._000061.pool.root.1
/pnfs/usatlas.bnl.gov/LOCALGROUPDISK/rucio/data18_hi/04/c0/AOD.16161753._000062.pool.root.1
/pnfs/usatlas.bnl.gov/LOCALGROUPDISK/rucio/data18_hi/cd/57/AOD.16161753._000063.pool.root.1
/pnfs/usatlas.bnl.gov/LOCALGROUPDISK/rucio/data18_hi/33/46/AOD.16161753._000064.pool.root.1
/pnfs/usatlas.bnl.gov/LOCALGROUPDISK/rucio/data18_hi/5f/dc/AOD.16161753._000065.pool.root.1
/pnfs/usatlas.bnl.gov/LOCALGROUPDISK/rucio/data18_hi/04/cc/AOD.16161753._000066.pool.root.1
/pnfs/usatlas.bnl.gov/LOCALGROUPDISK/rucio/data18_hi/68/23/AOD.16161753._000067.pool.root.1
/pnfs/usatlas.bnl.gov/LOCALGROUPDISK/rucio/data18_hi/ce/5c/AOD.16161753._000068.pool.root.1
/pnfs/usatlas.bnl.gov/LOCALGROUPDISK/rucio/data18_hi/05/c0/AOD.16161753._000069.pool.root.1
/pnfs/usatlas.bnl.gov/LOCALGROUPDISK/rucio/data18_hi/e7/78/AOD.16161753._000070.pool.root.1
/pnfs/usatlas.bnl.gov/LOCALGROUPDISK/rucio/data18_hi/56/b9/AOD.16161753._000071.pool.root.1
/pnfs/usatlas.bnl.gov/LOCALGROUPDISK/rucio/data18_hi/4b/2c/AOD.16161753._000072.pool.root.1
/pnfs/usatlas.bnl.gov/LOCALGROUPDISK/rucio/data18_hi/43/64/AOD.16161753._000073.pool.root.1
/pnfs/usatlas.bnl.gov/LOCALGROUPDISK/rucio/data18_hi/fe/6a/AOD.16160600._000011.pool.root.1
/pnfs/usatlas.bnl.gov/LOCALGROUPDISK/rucio/data18_hi/06/5c/AOD.16160600._000012.pool.root.1
/pnfs/usatlas.bnl.gov/LOCALGROUPDISK/rucio/data18_hi/68/d8/AOD.16160600._000013.pool.root.1
/pnfs/usatlas.bnl.gov/LOCALGROUPDISK/rucio/data18_hi/3d/14/AOD.16160600._000014.pool.root.1
/pnfs/usatlas.bnl.gov/LOCALGROUPDISK/rucio/data18_hi/89/a0/AOD.16160600._000015.pool.root.1
/pnfs/usatlas.bnl.gov/LOCALGROUPDISK/rucio/data18_hi/15/88/AOD.16160600._000016.pool.root.1
/pnfs/usatlas.bnl.gov/LOCALGROUPDISK/rucio/data18_hi/09/fb/AOD.16160600._000017.pool.root.1
/pnfs/usatlas.bnl.gov/LOCALGROUPDISK/rucio/data18_hi/9d/07/AOD.16160600._000018.pool.root.1
/pnfs/usatlas.bnl.gov/LOCALGROUPDISK/rucio/data18_hi/67/14/AOD.16160600._000019.pool.root.1
/pnfs/usatlas.bnl.gov/LOCALGROUPDISK/rucio/data18_hi/59/3d/AOD.16160600._000020.pool.root.1
/pnfs/usatlas.bnl.gov/LOCALGROUPDISK/rucio/data18_hi/9c/c6/AOD.16160600._000072.pool.root.1
/pnfs/usatlas.bnl.gov/LOCALGROUPDISK/rucio/data18_hi/a7/45/AOD.16160600._000074.pool.root.1
/pnfs/usatlas.bnl.gov/LOCALGROUPDISK/rucio/data18_hi/70/08/AOD.16160600._000075.pool.root.1
/pnfs/usatlas.bnl.gov/LOCALGROUPDISK/rucio/data18_hi/6a/97/AOD.16160600._000076.pool.root.1
/pnfs/usatlas.bnl.gov/LOCALGROUPDISK/rucio/data18_hi/de/19/AOD.16160600._000077.pool.root.1
/pnfs/usatlas.bnl.gov/LOCALGROUPDISK/rucio/data18_hi/b8/14/AOD.16160600._000078.pool.root.1
/pnfs/usatlas.bnl.gov/LOCALGROUPDISK/rucio/data18_hi/47/58/AOD.16160600._000079.pool.root.1
/pnfs/usatlas.bnl.gov/LOCALGROUPDISK/rucio/data18_hi/c7/99/AOD.16160600._000080.pool.root.1
/pnfs/usatlas.bnl.gov/LOCALGROUPDISK/rucio/data18_hi/7e/d6/AOD.16160600._000081.pool.root.1
/pnfs/usatlas.bnl.gov/LOCALGROUPDISK/rucio/data18_hi/b6/b8/AOD.16160600._000082.pool.root.1
/pnfs/usatlas.bnl.gov/LOCALGROUPDISK/rucio/data18_hi/60/be/AOD.16160600._000083.pool.root.1
/pnfs/usatlas.bnl.gov/LOCALGROUPDISK/rucio/data18_hi/44/69/AOD.16160600._000084.pool.root.1
/pnfs/usatlas.bnl.gov/LOCALGROUPDISK/rucio/data18_hi/2f/91/AOD.16160600._000085.pool.root.1
/pnfs/usatlas.bnl.gov/LOCALGROUPDISK/rucio/data18_hi/ea/da/AOD.16160600._000086.pool.root.1
/pnfs/usatlas.bnl.gov/LOCALGROUPDISK/rucio/data18_hi/50/da/AOD.16160600._000087.pool.root.1
/pnfs/usatlas.bnl.gov/LOCALGROUPDISK/rucio/data18_hi/91/d1/AOD.16160600._000088.pool.root.1
/pnfs/usatlas.bnl.gov/LOCALGROUPDISK/rucio/data18_hi/8a/56/AOD.16160600._000089.pool.root.1
/pnfs/usatlas.bnl.gov/LOCALGROUPDISK/rucio/data18_hi/8e/fe/AOD.16160600._000090.pool.root.1
/pnfs/usatlas.bnl.gov/LOCALGROUPDISK/rucio/data18_hi/b3/5b/AOD.16160600._000091.pool.root.1
/pnfs/usatlas.bnl.gov/LOCALGROUPDISK/rucio/data18_hi/e8/8e/AOD.16160600._000092.pool.root.1
/pnfs/usatlas.bnl.gov/LOCALGROUPDISK/rucio/data18_hi/ee/ba/AOD.16160600._000093.pool.root.1
/pnfs/usatlas.bnl.gov/LOCALGROUPDISK/rucio/data18_hi/46/e7/AOD.16160600._000094.pool.root.1
/pnfs/usatlas.bnl.gov/LOCALGROUPDISK/rucio/data18_hi/60/b0/AOD.16160600._000095.pool.root.1
/pnfs/usatlas.bnl.gov/LOCALGROUPDISK/rucio/data18_hi/1f/30/AOD.16160600._000096.pool.root.1
/pnfs/usatlas.bnl.gov/LOCALGROUPDISK/rucio/data18_hi/a2/42/AOD.16160600._000097.pool.root.1
/pnfs/usatlas.bnl.gov/LOCALGROUPDISK/rucio/data18_hi/8f/c4/AOD.16160600._000098.pool.root.1
/pnfs/usatlas.bnl.gov/LOCALGROUPDISK/rucio/data18_hi/11/04/AOD.16160600._000099.pool.root.1
/pnfs/usatlas.bnl.gov/LOCALGROUPDISK/rucio/data18_hi/1a/37/AOD.16160600._000100.pool.root.1
/pnfs/usatlas.bnl.gov/LOCALGROUPDISK/rucio/data18_hi/9a/ea/AOD.16160600._000101.pool.root.1
/pnfs/usatlas.bnl.gov/LOCALGROUPDISK/rucio/data18_hi/be/c1/AOD.16160600._000102.pool.root.1
/pnfs/usatlas.bnl.gov/LOCALGROUPDISK/rucio/data18_hi/4e/ba/AOD.16160600._000103.pool.root.1
/pnfs/usatlas.bnl.gov/LOCALGROUPDISK/rucio/data18_hi/77/25/AOD.16160600._000104.pool.root.1
/pnfs/usatlas.bnl.gov/LOCALGROUPDISK/rucio/data18_hi/c5/dc/AOD.16160600._000105.pool.root.1
/pnfs/usatlas.bnl.gov/LOCALGROUPDISK/rucio/data18_hi/e3/12/AOD.16160600._000106.pool.root.1
/pnfs/usatlas.bnl.gov/LOCALGROUPDISK/rucio/data18_hi/b9/ad/AOD.16160600._000107.pool.root.1
/pnfs/usatlas.bnl.gov/LOCALGROUPDISK/rucio/data18_hi/68/f7/AOD.16160600._000108.pool.root.1
/pnfs/usatlas.bnl.gov/LOCALGROUPDISK/rucio/data18_hi/fe/b6/AOD.16160600._000109.pool.root.1
/pnfs/usatlas.bnl.gov/LOCALGROUPDISK/rucio/data18_hi/58/c9/AOD.16160600._000110.pool.root.1
/pnfs/usatlas.bnl.gov/LOCALGROUPDISK/rucio/data18_hi/fc/14/AOD.16160600._000111.pool.root.1
/pnfs/usatlas.bnl.gov/LOCALGROUPDISK/rucio/data18_hi/8a/b3/AOD.16160600._000112.pool.root.1
/pnfs/usatlas.bnl.gov/LOCALGROUPDISK/rucio/data18_hi/fe/de/AOD.16160600._000113.pool.root.1
/pnfs/usatlas.bnl.gov/LOCALGROUPDISK/rucio/data18_hi/6e/2d/AOD.16160600._000114.pool.root.1
/pnfs/usatlas.bnl.gov/LOCALGROUPDISK/rucio/data18_hi/9a/a1/AOD.16160600._000115.pool.root.1
/pnfs/usatlas.bnl.gov/LOCALGROUPDISK/rucio/data18_hi/3f/a5/AOD.16160600._000116.pool.root.1
/pnfs/usatlas.bnl.gov/LOCALGROUPDISK/rucio/data18_hi/97/6c/AOD.16160600._000117.pool.root.1
/pnfs/usatlas.bnl.gov/LOCALGROUPDISK/rucio/data18_hi/3c/0a/AOD.16160600._000118.pool.root.1
/pnfs/usatlas.bnl.gov/LOCALGROUPDISK/rucio/data18_hi/19/4d/AOD.16160600._000119.pool.root.1
/pnfs/usatlas.bnl.gov/LOCALGROUPDISK/rucio/data18_hi/78/71/AOD.16160600._000120.pool.root.1
/pnfs/usatlas.bnl.gov/LOCALGROUPDISK/rucio/data18_hi/13/57/AOD.16160600._000121.pool.root.1
/pnfs/usatlas.bnl.gov/LOCALGROUPDISK/rucio/data18_hi/57/14/AOD.16160600._000122.pool.root.1
/pnfs/usatlas.bnl.gov/LOCALGROUPDISK/rucio/data18_hi/a0/3f/AOD.16160600._000123.pool.root.1
/pnfs/usatlas.bnl.gov/LOCALGROUPDISK/rucio/data18_hi/08/19/AOD.16160600._000124.pool.root.1
/pnfs/usatlas.bnl.gov/LOCALGROUPDISK/rucio/data18_hi/e4/58/AOD.16160600._000125.pool.root.1
/pnfs/usatlas.bnl.gov/LOCALGROUPDISK/rucio/data18_hi/f9/3c/AOD.16160600._000126.pool.root.1
/pnfs/usatlas.bnl.gov/LOCALGROUPDISK/rucio/data18_hi/98/76/AOD.16160600._000127.pool.root.1
/pnfs/usatlas.bnl.gov/LOCALGROUPDISK/rucio/data18_hi/98/c1/AOD.16160600._000128.pool.root.1
/pnfs/usatlas.bnl.gov/LOCALGROUPDISK/rucio/data18_hi/87/b1/AOD.16160600._000129.pool.root.1
/pnfs/usatlas.bnl.gov/LOCALGROUPDISK/rucio/data18_hi/39/60/AOD.16160600._000130.pool.root.1
/pnfs/usatlas.bnl.gov/LOCALGROUPDISK/rucio/data18_hi/ee/09/AOD.16160600._000131.pool.root.1
/pnfs/usatlas.bnl.gov/LOCALGROUPDISK/rucio/data18_hi/f1/b0/AOD.16160600._000132.pool.root.1
/pnfs/usatlas.bnl.gov/LOCALGROUPDISK/rucio/data18_hi/0d/8f/AOD.16160600._000133.pool.root.1
/pnfs/usatlas.bnl.gov/LOCALGROUPDISK/rucio/data18_hi/d0/98/AOD.16160600._000134.pool.root.1
/pnfs/usatlas.bnl.gov/LOCALGROUPDISK/rucio/data18_hi/3c/07/AOD.16160600._000135.pool.root.1
/pnfs/usatlas.bnl.gov/LOCALGROUPDISK/rucio/data18_hi/d6/0c/AOD.16160600._000136.pool.root.1
/pnfs/usatlas.bnl.gov/LOCALGROUPDISK/rucio/data18_hi/a8/8f/AOD.16160600._000137.pool.root.1
/pnfs/usatlas.bnl.gov/LOCALGROUPDISK/rucio/data18_hi/84/a9/AOD.16160600._000138.pool.root.1
/pnfs/usatlas.bnl.gov/LOCALGROUPDISK/rucio/data18_hi/b1/29/AOD.16160600._000139.pool.root.1
/pnfs/usatlas.bnl.gov/LOCALGROUPDISK/rucio/data18_hi/a8/0f/AOD.16160600._000140.pool.root.1
/pnfs/usatlas.bnl.gov/LOCALGROUPDISK/rucio/data18_hi/8e/20/AOD.16160600._000141.pool.root.1
/pnfs/usatlas.bnl.gov/LOCALGROUPDISK/rucio/data18_hi/7d/de/AOD.16160600._000142.pool.root.1
/pnfs/usatlas.bnl.gov/LOCALGROUPDISK/rucio/data18_hi/63/7a/AOD.16160600._000143.pool.root.1
/pnfs/usatlas.bnl.gov/LOCALGROUPDISK/rucio/data18_hi/cb/0e/AOD.16160600._000144.pool.root.1
/pnfs/usatlas.bnl.gov/LOCALGROUPDISK/rucio/data18_hi/76/02/AOD.16160600._000145.pool.root.1
/pnfs/usatlas.bnl.gov/LOCALGROUPDISK/rucio/data18_hi/e9/9c/AOD.16160600._000146.pool.root.1
/pnfs/usatlas.bnl.gov/LOCALGROUPDISK/rucio/data18_hi/03/86/AOD.16160600._000147.pool.root.1
/pnfs/usatlas.bnl.gov/LOCALGROUPDISK/rucio/data18_hi/6c/57/AOD.16160600._000148.pool.root.1
/pnfs/usatlas.bnl.gov/LOCALGROUPDISK/rucio/data18_hi/c3/b2/AOD.16160600._000149.pool.root.1
/pnfs/usatlas.bnl.gov/LOCALGROUPDISK/rucio/data18_hi/73/11/AOD.16160600._000150.pool.root.1
/pnfs/usatlas.bnl.gov/LOCALGROUPDISK/rucio/data18_hi/72/fa/AOD.16160600._000151.pool.root.1
/pnfs/usatlas.bnl.gov/LOCALGROUPDISK/rucio/data18_hi/39/bf/AOD.16160600._000152.pool.root.1
/pnfs/usatlas.bnl.gov/LOCALGROUPDISK/rucio/data18_hi/fa/b7/AOD.16160600._000153.pool.root.1
/pnfs/usatlas.bnl.gov/LOCALGROUPDISK/rucio/data18_hi/0f/f9/AOD.16160600._000154.pool.root.1
/pnfs/usatlas.bnl.gov/LOCALGROUPDISK/rucio/data18_hi/1a/38/AOD.16160600._000155.pool.root.1
/pnfs/usatlas.bnl.gov/LOCALGROUPDISK/rucio/data18_hi/c9/dd/AOD.16160600._000156.pool.root.1
/pnfs/usatlas.bnl.gov/LOCALGROUPDISK/rucio/data18_hi/70/d7/AOD.16160600._000157.pool.root.1
/pnfs/usatlas.bnl.gov/LOCALGROUPDISK/rucio/data18_hi/49/d5/AOD.16160600._000158.pool.root.1
/pnfs/usatlas.bnl.gov/LOCALGROUPDISK/rucio/data18_hi/2d/bc/AOD.16160600._000159.pool.root.1
/pnfs/usatlas.bnl.gov/LOCALGROUPDISK/rucio/data18_hi/6a/88/AOD.16160600._000160.pool.root.1
/pnfs/usatlas.bnl.gov/LOCALGROUPDISK/rucio/data18_hi/2c/ce/AOD.16160600._000161.pool.root.1
/pnfs/usatlas.bnl.gov/LOCALGROUPDISK/rucio/data18_hi/b1/52/AOD.16160600._000162.pool.root.1
/pnfs/usatlas.bnl.gov/LOCALGROUPDISK/rucio/data18_hi/c6/87/AOD.16160600._000163.pool.root.1
/pnfs/usatlas.bnl.gov/LOCALGROUPDISK/rucio/data18_hi/99/e9/AOD.16160600._000164.pool.root.1
/pnfs/usatlas.bnl.gov/LOCALGROUPDISK/rucio/data18_hi/b6/7a/AOD.16160600._000165.pool.root.1
/pnfs/usatlas.bnl.gov/LOCALGROUPDISK/rucio/data18_hi/af/d8/AOD.16160600._000166.pool.root.1
/pnfs/usatlas.bnl.gov/LOCALGROUPDISK/rucio/data18_hi/70/a1/AOD.16160600._000167.pool.root.1
/pnfs/usatlas.bnl.gov/LOCALGROUPDISK/rucio/data18_hi/bb/4e/AOD.16160600._000168.pool.root.1
/pnfs/usatlas.bnl.gov/LOCALGROUPDISK/rucio/data18_hi/a4/94/AOD.16160600._000169.pool.root.1
/pnfs/usatlas.bnl.gov/LOCALGROUPDISK/rucio/data18_hi/3e/b4/AOD.16160600._000170.pool.root.1
/pnfs/usatlas.bnl.gov/LOCALGROUPDISK/rucio/data18_hi/a2/54/AOD.16160600._000171.pool.root.1
/pnfs/usatlas.bnl.gov/LOCALGROUPDISK/rucio/data18_hi/5c/b5/AOD.16160600._000172.pool.root.1
/pnfs/usatlas.bnl.gov/LOCALGROUPDISK/rucio/data18_hi/8e/ef/AOD.16160600._000173.pool.root.1
/pnfs/usatlas.bnl.gov/LOCALGROUPDISK/rucio/data18_hi/61/f0/AOD.16160600._000174.pool.root.1
/pnfs/usatlas.bnl.gov/LOCALGROUPDISK/rucio/data18_hi/c7/42/AOD.16160600._000175.pool.root.1
/pnfs/usatlas.bnl.gov/LOCALGROUPDISK/rucio/data18_hi/bc/17/AOD.16160600._000176.pool.root.1
/pnfs/usatlas.bnl.gov/LOCALGROUPDISK/rucio/data18_hi/04/fe/AOD.16160600._000177.pool.root.1
/pnfs/usatlas.bnl.gov/LOCALGROUPDISK/rucio/data18_hi/5a/b2/AOD.16160600._000178.pool.root.1
/pnfs/usatlas.bnl.gov/LOCALGROUPDISK/rucio/data18_hi/7a/93/AOD.16160600._000179.pool.root.1
/pnfs/usatlas.bnl.gov/LOCALGROUPDISK/rucio/data18_hi/a9/e2/AOD.16160600._000180.pool.root.1
/pnfs/usatlas.bnl.gov/LOCALGROUPDISK/rucio/data18_hi/90/79/AOD.16160600._000181.pool.root.1
/pnfs/usatlas.bnl.gov/LOCALGROUPDISK/rucio/data18_hi/e3/7b/AOD.16160600._000182.pool.root.1
/pnfs/usatlas.bnl.gov/LOCALGROUPDISK/rucio/data18_hi/ce/c4/AOD.16160600._000183.pool.root.1
/pnfs/usatlas.bnl.gov/LOCALGROUPDISK/rucio/data18_hi/5c/1d/AOD.16160600._000184.pool.root.1
/pnfs/usatlas.bnl.gov/LOCALGROUPDISK/rucio/data18_hi/44/76/AOD.16160600._000185.pool.root.1
/pnfs/usatlas.bnl.gov/LOCALGROUPDISK/rucio/data18_hi/55/5a/AOD.16160600._000186.pool.root.1
/pnfs/usatlas.bnl.gov/LOCALGROUPDISK/rucio/data18_hi/79/2e/AOD.16160600._000187.pool.root.1
/pnfs/usatlas.bnl.gov/LOCALGROUPDISK/rucio/data18_hi/98/22/AOD.16160600._000188.pool.root.1
/pnfs/usatlas.bnl.gov/LOCALGROUPDISK/rucio/data18_hi/b1/ee/AOD.16160600._000189.pool.root.1
/pnfs/usatlas.bnl.gov/LOCALGROUPDISK/rucio/data18_hi/f4/b1/AOD.16160600._000190.pool.root.1
/pnfs/usatlas.bnl.gov/LOCALGROUPDISK/rucio/data18_hi/15/1d/AOD.16160600._000191.pool.root.1
/pnfs/usatlas.bnl.gov/LOCALGROUPDISK/rucio/data18_hi/41/4f/AOD.16160600._000192.pool.root.1
/pnfs/usatlas.bnl.gov/LOCALGROUPDISK/rucio/data18_hi/4b/4d/AOD.16160600._000193.pool.root.1
/pnfs/usatlas.bnl.gov/LOCALGROUPDISK/rucio/data18_hi/7a/49/AOD.16160600._000194.pool.root.1
/pnfs/usatlas.bnl.gov/LOCALGROUPDISK/rucio/data18_hi/cb/5b/AOD.16160600._000195.pool.root.1
/pnfs/usatlas.bnl.gov/LOCALGROUPDISK/rucio/data18_hi/74/a5/AOD.16160600._000196.pool.root.1
/pnfs/usatlas.bnl.gov/LOCALGROUPDISK/rucio/data18_hi/a4/d1/AOD.16160600._000197.pool.root.1
/pnfs/usatlas.bnl.gov/LOCALGROUPDISK/rucio/data18_hi/06/33/AOD.16160600._000198.pool.root.1
/pnfs/usatlas.bnl.gov/LOCALGROUPDISK/rucio/data18_hi/43/44/AOD.16160600._000199.pool.root.1
/pnfs/usatlas.bnl.gov/LOCALGROUPDISK/rucio/data18_hi/b7/47/AOD.16160600._000200.pool.root.1
/pnfs/usatlas.bnl.gov/LOCALGROUPDISK/rucio/data18_hi/e2/fd/AOD.16160600._000201.pool.root.1
/pnfs/usatlas.bnl.gov/LOCALGROUPDISK/rucio/data18_hi/f1/f6/AOD.16160600._000202.pool.root.1
/pnfs/usatlas.bnl.gov/LOCALGROUPDISK/rucio/data18_hi/fb/25/AOD.16160600._000203.pool.root.1
/pnfs/usatlas.bnl.gov/LOCALGROUPDISK/rucio/data18_hi/f4/3f/AOD.16160600._000204.pool.root.1
/pnfs/usatlas.bnl.gov/LOCALGROUPDISK/rucio/data18_hi/9d/6b/AOD.16160600._000205.pool.root.1
/pnfs/usatlas.bnl.gov/LOCALGROUPDISK/rucio/data18_hi/da/22/AOD.16160600._000206.pool.root.1
/pnfs/usatlas.bnl.gov/LOCALGROUPDISK/rucio/data18_hi/bc/c5/AOD.16160600._000207.pool.root.1
/pnfs/usatlas.bnl.gov/LOCALGROUPDISK/rucio/data18_hi/a4/d7/AOD.16160600._000208.pool.root.1
/pnfs/usatlas.bnl.gov/LOCALGROUPDISK/rucio/data18_hi/e2/e3/AOD.16160600._000209.pool.root.1
/pnfs/usatlas.bnl.gov/LOCALGROUPDISK/rucio/data18_hi/52/c6/AOD.16160600._000210.pool.root.1
/pnfs/usatlas.bnl.gov/LOCALGROUPDISK/rucio/data18_hi/18/9c/AOD.16160600._000211.pool.root.1
/pnfs/usatlas.bnl.gov/LOCALGROUPDISK/rucio/data18_hi/19/81/AOD.16160600._000212.pool.root.1
/pnfs/usatlas.bnl.gov/LOCALGROUPDISK/rucio/data18_hi/1b/69/AOD.16160600._000213.pool.root.1
/pnfs/usatlas.bnl.gov/LOCALGROUPDISK/rucio/data18_hi/ca/37/AOD.16160600._000214.pool.root.1
/pnfs/usatlas.bnl.gov/LOCALGROUPDISK/rucio/data18_hi/99/21/AOD.16160600._000215.pool.root.1
/pnfs/usatlas.bnl.gov/LOCALGROUPDISK/rucio/data18_hi/4a/2d/AOD.16160600._000216.pool.root.1
/pnfs/usatlas.bnl.gov/LOCALGROUPDISK/rucio/data18_hi/c4/47/AOD.16160600._000217.pool.root.1
/pnfs/usatlas.bnl.gov/LOCALGROUPDISK/rucio/data18_hi/b6/a8/AOD.16160600._000218.pool.root.1
/pnfs/usatlas.bnl.gov/LOCALGROUPDISK/rucio/data18_hi/9f/c1/AOD.16160600._000219.pool.root.1
/pnfs/usatlas.bnl.gov/LOCALGROUPDISK/rucio/data18_hi/82/3c/AOD.16160600._000220.pool.root.1
/pnfs/usatlas.bnl.gov/LOCALGROUPDISK/rucio/data18_hi/8d/42/AOD.16160600._000221.pool.root.1
/pnfs/usatlas.bnl.gov/LOCALGROUPDISK/rucio/data18_hi/7b/f6/AOD.16160600._000222.pool.root.1
/pnfs/usatlas.bnl.gov/LOCALGROUPDISK/rucio/data18_hi/4f/26/AOD.16160600._000223.pool.root.1
/pnfs/usatlas.bnl.gov/LOCALGROUPDISK/rucio/data18_hi/a9/cb/AOD.16160600._000224.pool.root.1
/pnfs/usatlas.bnl.gov/LOCALGROUPDISK/rucio/data18_hi/35/cb/AOD.16160600._000225.pool.root.1
/pnfs/usatlas.bnl.gov/LOCALGROUPDISK/rucio/data18_hi/f6/1d/AOD.16160600._000226.pool.root.1
/pnfs/usatlas.bnl.gov/LOCALGROUPDISK/rucio/data18_hi/fe/da/AOD.16160600._000227.pool.root.1
/pnfs/usatlas.bnl.gov/LOCALGROUPDISK/rucio/data18_hi/5a/db/AOD.16160600._000228.pool.root.1
/pnfs/usatlas.bnl.gov/LOCALGROUPDISK/rucio/data18_hi/5a/38/AOD.16160600._000229.pool.root.1
/pnfs/usatlas.bnl.gov/LOCALGROUPDISK/rucio/data18_hi/51/c9/AOD.16160600._000230.pool.root.1
/pnfs/usatlas.bnl.gov/LOCALGROUPDISK/rucio/data18_hi/3b/5c/AOD.16160600._000231.pool.root.1
/pnfs/usatlas.bnl.gov/LOCALGROUPDISK/rucio/data18_hi/20/71/AOD.16160600._000232.pool.root.1
/pnfs/usatlas.bnl.gov/LOCALGROUPDISK/rucio/data18_hi/8c/ce/AOD.16160600._000233.pool.root.1
/pnfs/usatlas.bnl.gov/LOCALGROUPDISK/rucio/data18_hi/6e/43/AOD.16160600._000234.pool.root.1
/pnfs/usatlas.bnl.gov/LOCALGROUPDISK/rucio/data18_hi/ea/94/AOD.16160600._000235.pool.root.1
/pnfs/usatlas.bnl.gov/LOCALGROUPDISK/rucio/data18_hi/19/36/AOD.16160600._000236.pool.root.1
/pnfs/usatlas.bnl.gov/LOCALGROUPDISK/rucio/data18_hi/d1/8d/AOD.16160600._000237.pool.root.1
/pnfs/usatlas.bnl.gov/LOCALGROUPDISK/rucio/data18_hi/3d/93/AOD.16160600._000238.pool.root.1
/pnfs/usatlas.bnl.gov/LOCALGROUPDISK/rucio/data18_hi/b9/d8/AOD.16160600._000239.pool.root.1
/pnfs/usatlas.bnl.gov/LOCALGROUPDISK/rucio/data18_hi/26/06/AOD.16160600._000240.pool.root.1
/pnfs/usatlas.bnl.gov/LOCALGROUPDISK/rucio/data18_hi/e6/53/AOD.16160600._000241.pool.root.1
/pnfs/usatlas.bnl.gov/LOCALGROUPDISK/rucio/data18_hi/f5/5f/AOD.16160600._000242.pool.root.1
/pnfs/usatlas.bnl.gov/LOCALGROUPDISK/rucio/data18_hi/24/df/AOD.16160600._000243.pool.root.1
/pnfs/usatlas.bnl.gov/LOCALGROUPDISK/rucio/data18_hi/6f/06/AOD.16160600._000244.pool.root.1
/pnfs/usatlas.bnl.gov/LOCALGROUPDISK/rucio/data18_hi/63/6d/AOD.16160600._000245.pool.root.1
/pnfs/usatlas.bnl.gov/LOCALGROUPDISK/rucio/data18_hi/1b/b3/AOD.16160600._000246.pool.root.1
/pnfs/usatlas.bnl.gov/LOCALGROUPDISK/rucio/data18_hi/aa/f1/AOD.16160600._000247.pool.root.1
/pnfs/usatlas.bnl.gov/LOCALGROUPDISK/rucio/data18_hi/b9/80/AOD.16160600._000248.pool.root.1
/pnfs/usatlas.bnl.gov/LOCALGROUPDISK/rucio/data18_hi/f7/7e/AOD.16160600._000249.pool.root.1
/pnfs/usatlas.bnl.gov/LOCALGROUPDISK/rucio/data18_hi/85/38/AOD.16160600._000250.pool.root.1
/pnfs/usatlas.bnl.gov/LOCALGROUPDISK/rucio/data18_hi/87/81/AOD.16160600._000251.pool.root.1
/pnfs/usatlas.bnl.gov/LOCALGROUPDISK/rucio/data18_hi/bd/02/AOD.16160600._000252.pool.root.1
/pnfs/usatlas.bnl.gov/LOCALGROUPDISK/rucio/data18_hi/63/d7/AOD.16160600._000253.pool.root.1
/pnfs/usatlas.bnl.gov/LOCALGROUPDISK/rucio/data18_hi/4f/0e/AOD.16160600._000254.pool.root.1
/pnfs/usatlas.bnl.gov/LOCALGROUPDISK/rucio/data18_hi/2b/60/AOD.16160600._000255.pool.root.1
/pnfs/usatlas.bnl.gov/LOCALGROUPDISK/rucio/data18_hi/8a/eb/AOD.16160600._000256.pool.root.1
/pnfs/usatlas.bnl.gov/LOCALGROUPDISK/rucio/data18_hi/dd/89/AOD.16160600._000257.pool.root.1
/pnfs/usatlas.bnl.gov/LOCALGROUPDISK/rucio/data18_hi/50/b4/AOD.16160600._000258.pool.root.1
/pnfs/usatlas.bnl.gov/LOCALGROUPDISK/rucio/data18_hi/23/68/AOD.16160600._000259.pool.root.1
/pnfs/usatlas.bnl.gov/LOCALGROUPDISK/rucio/data18_hi/ef/ed/AOD.16160600._000260.pool.root.1
/pnfs/usatlas.bnl.gov/LOCALGROUPDISK/rucio/data18_hi/42/73/AOD.16160600._000261.pool.root.1
/pnfs/usatlas.bnl.gov/LOCALGROUPDISK/rucio/data18_hi/8c/c8/AOD.16160600._000262.pool.root.1
/pnfs/usatlas.bnl.gov/LOCALGROUPDISK/rucio/data18_hi/a9/5d/AOD.16160600._000263.pool.root.1
/pnfs/usatlas.bnl.gov/LOCALGROUPDISK/rucio/data18_hi/3b/9d/AOD.16160600._000264.pool.root.1
/pnfs/usatlas.bnl.gov/LOCALGROUPDISK/rucio/data18_hi/07/ac/AOD.16160600._000265.pool.root.1
/pnfs/usatlas.bnl.gov/LOCALGROUPDISK/rucio/data18_hi/28/83/AOD.16160600._000266.pool.root.1
/pnfs/usatlas.bnl.gov/LOCALGROUPDISK/rucio/data18_hi/ae/6e/AOD.16160600._000267.pool.root.1
/pnfs/usatlas.bnl.gov/LOCALGROUPDISK/rucio/data18_hi/7d/bb/AOD.16160600._000268.pool.root.1
/pnfs/usatlas.bnl.gov/LOCALGROUPDISK/rucio/data18_hi/5e/bd/AOD.16160600._000269.pool.root.1
/pnfs/usatlas.bnl.gov/LOCALGROUPDISK/rucio/data18_hi/be/8e/AOD.16160600._000270.pool.root.1
/pnfs/usatlas.bnl.gov/LOCALGROUPDISK/rucio/data18_hi/d8/e3/AOD.16160600._000271.pool.root.1
/pnfs/usatlas.bnl.gov/LOCALGROUPDISK/rucio/data18_hi/4d/74/AOD.16160600._000272.pool.root.1
/pnfs/usatlas.bnl.gov/LOCALGROUPDISK/rucio/data18_hi/de/03/AOD.16160600._000273.pool.root.1
/pnfs/usatlas.bnl.gov/LOCALGROUPDISK/rucio/data18_hi/93/f1/AOD.16160600._000274.pool.root.1
/pnfs/usatlas.bnl.gov/LOCALGROUPDISK/rucio/data18_hi/fd/35/AOD.16160600._000275.pool.root.1
/pnfs/usatlas.bnl.gov/LOCALGROUPDISK/rucio/data18_hi/48/e4/AOD.16160600._000276.pool.root.1
/pnfs/usatlas.bnl.gov/LOCALGROUPDISK/rucio/data18_hi/80/1a/AOD.16160600._000277.pool.root.1
/pnfs/usatlas.bnl.gov/LOCALGROUPDISK/rucio/data18_hi/0c/02/AOD.16160600._000278.pool.root.1
/pnfs/usatlas.bnl.gov/LOCALGROUPDISK/rucio/data18_hi/0b/9e/AOD.16160600._000279.pool.root.1
/pnfs/usatlas.bnl.gov/LOCALGROUPDISK/rucio/data18_hi/f6/98/AOD.16160600._000280.pool.root.1
/pnfs/usatlas.bnl.gov/LOCALGROUPDISK/rucio/data18_hi/92/63/AOD.16160600._000281.pool.root.1
/pnfs/usatlas.bnl.gov/LOCALGROUPDISK/rucio/data18_hi/f3/fd/AOD.16160600._000282.pool.root.1
/pnfs/usatlas.bnl.gov/LOCALGROUPDISK/rucio/data18_hi/27/ca/AOD.16160600._000283.pool.root.1
/pnfs/usatlas.bnl.gov/LOCALGROUPDISK/rucio/data18_hi/b6/eb/AOD.16160600._000284.pool.root.1
/pnfs/usatlas.bnl.gov/LOCALGROUPDISK/rucio/data18_hi/30/2e/AOD.16160600._000285.pool.root.1
/pnfs/usatlas.bnl.gov/LOCALGROUPDISK/rucio/data18_hi/2d/b6/AOD.16160600._000286.pool.root.1
/pnfs/usatlas.bnl.gov/LOCALGROUPDISK/rucio/data18_hi/6c/32/AOD.16160600._000287.pool.root.1
/pnfs/usatlas.bnl.gov/LOCALGROUPDISK/rucio/data18_hi/e5/bc/AOD.16160600._000288.pool.root.1
/pnfs/usatlas.bnl.gov/LOCALGROUPDISK/rucio/data18_hi/0b/d7/AOD.16160600._000289.pool.root.1
/pnfs/usatlas.bnl.gov/LOCALGROUPDISK/rucio/data18_hi/f5/74/AOD.16160600._000290.pool.root.1
/pnfs/usatlas.bnl.gov/LOCALGROUPDISK/rucio/data18_hi/16/30/AOD.16160600._000291.pool.root.1
/pnfs/usatlas.bnl.gov/LOCALGROUPDISK/rucio/data18_hi/fb/a5/AOD.16160600._000292.pool.root.1
/pnfs/usatlas.bnl.gov/LOCALGROUPDISK/rucio/data18_hi/95/36/AOD.16160600._000293.pool.root.1
/pnfs/usatlas.bnl.gov/LOCALGROUPDISK/rucio/data18_hi/56/e8/AOD.16160600._000294.pool.root.1
/pnfs/usatlas.bnl.gov/LOCALGROUPDISK/rucio/data18_hi/9a/cb/AOD.16160600._000295.pool.root.1
/pnfs/usatlas.bnl.gov/LOCALGROUPDISK/rucio/data18_hi/0d/ac/AOD.16160600._000296.pool.root.1
/pnfs/usatlas.bnl.gov/LOCALGROUPDISK/rucio/data18_hi/df/f7/AOD.16160600._000297.pool.root.1
/pnfs/usatlas.bnl.gov/LOCALGROUPDISK/rucio/data18_hi/97/32/AOD.16160600._000298.pool.root.1
/pnfs/usatlas.bnl.gov/LOCALGROUPDISK/rucio/data18_hi/38/bb/AOD.16160600._000299.pool.root.1
/pnfs/usatlas.bnl.gov/LOCALGROUPDISK/rucio/data18_hi/7a/95/AOD.16160600._000300.pool.root.1
/pnfs/usatlas.bnl.gov/LOCALGROUPDISK/rucio/data18_hi/64/7f/AOD.16160600._000301.pool.root.1
/pnfs/usatlas.bnl.gov/LOCALGROUPDISK/rucio/data18_hi/d7/c4/AOD.16160600._000302.pool.root.1
/pnfs/usatlas.bnl.gov/LOCALGROUPDISK/rucio/data18_hi/24/3f/AOD.16160600._000303.pool.root.1
/pnfs/usatlas.bnl.gov/LOCALGROUPDISK/rucio/data18_hi/12/73/AOD.16160600._000304.pool.root.1
/pnfs/usatlas.bnl.gov/LOCALGROUPDISK/rucio/data18_hi/b0/f1/AOD.16160600._000305.pool.root.1
/pnfs/usatlas.bnl.gov/LOCALGROUPDISK/rucio/data18_hi/13/87/AOD.16160600._000306.pool.root.1
/pnfs/usatlas.bnl.gov/LOCALGROUPDISK/rucio/data18_hi/20/c3/AOD.16160600._000307.pool.root.1
/pnfs/usatlas.bnl.gov/LOCALGROUPDISK/rucio/data18_hi/0f/61/AOD.16160600._000308.pool.root.1
/pnfs/usatlas.bnl.gov/LOCALGROUPDISK/rucio/data18_hi/b4/f3/AOD.16160600._000309.pool.root.1
/pnfs/usatlas.bnl.gov/LOCALGROUPDISK/rucio/data18_hi/3d/b9/AOD.16160600._000310.pool.root.1
/pnfs/usatlas.bnl.gov/LOCALGROUPDISK/rucio/data18_hi/93/b8/AOD.16160600._000311.pool.root.1
/pnfs/usatlas.bnl.gov/LOCALGROUPDISK/rucio/data18_hi/ef/2d/AOD.16160600._000312.pool.root.1
/pnfs/usatlas.bnl.gov/LOCALGROUPDISK/rucio/data18_hi/9a/fe/AOD.16160600._000313.pool.root.1
/pnfs/usatlas.bnl.gov/LOCALGROUPDISK/rucio/data18_hi/c6/3d/AOD.16160600._000314.pool.root.1
/pnfs/usatlas.bnl.gov/LOCALGROUPDISK/rucio/data18_hi/10/41/AOD.16160600._000315.pool.root.1
/pnfs/usatlas.bnl.gov/LOCALGROUPDISK/rucio/data18_hi/55/61/AOD.16160600._000316.pool.root.1
/pnfs/usatlas.bnl.gov/LOCALGROUPDISK/rucio/data18_hi/43/ef/AOD.16160600._000317.pool.root.1
/pnfs/usatlas.bnl.gov/LOCALGROUPDISK/rucio/data18_hi/69/b3/AOD.16160600._000318.pool.root.1
/pnfs/usatlas.bnl.gov/LOCALGROUPDISK/rucio/data18_hi/8e/dd/AOD.16160600._000319.pool.root.1
/pnfs/usatlas.bnl.gov/LOCALGROUPDISK/rucio/data18_hi/a1/92/AOD.16160600._000320.pool.root.1
/pnfs/usatlas.bnl.gov/LOCALGROUPDISK/rucio/data18_hi/86/e5/AOD.16160600._000321.pool.root.1
/pnfs/usatlas.bnl.gov/LOCALGROUPDISK/rucio/data18_hi/68/e7/AOD.16160600._000322.pool.root.1
/pnfs/usatlas.bnl.gov/LOCALGROUPDISK/rucio/data18_hi/93/db/AOD.16160600._000323.pool.root.1
/pnfs/usatlas.bnl.gov/LOCALGROUPDISK/rucio/data18_hi/d7/16/AOD.16160600._000324.pool.root.1
/pnfs/usatlas.bnl.gov/LOCALGROUPDISK/rucio/data18_hi/b8/58/AOD.16160600._000325.pool.root.1
/pnfs/usatlas.bnl.gov/LOCALGROUPDISK/rucio/data18_hi/2d/c9/AOD.16160600._000326.pool.root.1
/pnfs/usatlas.bnl.gov/LOCALGROUPDISK/rucio/data18_hi/6c/78/AOD.16160600._000327.pool.root.1
/pnfs/usatlas.bnl.gov/LOCALGROUPDISK/rucio/data18_hi/8d/40/AOD.16160600._000328.pool.root.1
/pnfs/usatlas.bnl.gov/LOCALGROUPDISK/rucio/data18_hi/bc/3c/AOD.16160600._000329.pool.root.1
/pnfs/usatlas.bnl.gov/LOCALGROUPDISK/rucio/data18_hi/0a/c6/AOD.16160600._000330.pool.root.1
/pnfs/usatlas.bnl.gov/LOCALGROUPDISK/rucio/data18_hi/a7/e0/AOD.16160600._000331.pool.root.1
/pnfs/usatlas.bnl.gov/LOCALGROUPDISK/rucio/data18_hi/1d/56/AOD.16160600._000332.pool.root.1
/pnfs/usatlas.bnl.gov/LOCALGROUPDISK/rucio/data18_hi/f2/32/AOD.16160600._000333.pool.root.1
/pnfs/usatlas.bnl.gov/LOCALGROUPDISK/rucio/data18_hi/cd/51/AOD.16160600._000334.pool.root.1
/pnfs/usatlas.bnl.gov/LOCALGROUPDISK/rucio/data18_hi/ac/20/AOD.16160600._000335.pool.root.1
/pnfs/usatlas.bnl.gov/LOCALGROUPDISK/rucio/data18_hi/d6/37/AOD.16160600._000336.pool.root.1
/pnfs/usatlas.bnl.gov/LOCALGROUPDISK/rucio/data18_hi/80/db/AOD.16160600._000337.pool.root.1
/pnfs/usatlas.bnl.gov/LOCALGROUPDISK/rucio/data18_hi/6c/1e/AOD.16160600._000338.pool.root.1
/pnfs/usatlas.bnl.gov/LOCALGROUPDISK/rucio/data18_hi/39/6b/AOD.16160600._000339.pool.root.1
/pnfs/usatlas.bnl.gov/LOCALGROUPDISK/rucio/data18_hi/db/e6/AOD.16160600._000340.pool.root.1
/pnfs/usatlas.bnl.gov/LOCALGROUPDISK/rucio/data18_hi/93/a3/AOD.16160600._000341.pool.root.1
/pnfs/usatlas.bnl.gov/LOCALGROUPDISK/rucio/data18_hi/9c/b4/AOD.16160600._000342.pool.root.1
/pnfs/usatlas.bnl.gov/LOCALGROUPDISK/rucio/data18_hi/fc/ad/AOD.16160600._000343.pool.root.1
/pnfs/usatlas.bnl.gov/LOCALGROUPDISK/rucio/data18_hi/45/7f/AOD.16160600._000344.pool.root.1
/pnfs/usatlas.bnl.gov/LOCALGROUPDISK/rucio/data18_hi/dd/00/AOD.16160600._000345.pool.root.1
/pnfs/usatlas.bnl.gov/LOCALGROUPDISK/rucio/data18_hi/44/b4/AOD.16160600._000346.pool.root.1
/pnfs/usatlas.bnl.gov/LOCALGROUPDISK/rucio/data18_hi/eb/a9/AOD.16160600._000347.pool.root.1
/pnfs/usatlas.bnl.gov/LOCALGROUPDISK/rucio/data18_hi/fb/e7/AOD.16160600._000348.pool.root.1
/pnfs/usatlas.bnl.gov/LOCALGROUPDISK/rucio/data18_hi/94/02/AOD.16160600._000349.pool.root.1
/pnfs/usatlas.bnl.gov/LOCALGROUPDISK/rucio/data18_hi/01/de/AOD.16160600._000350.pool.root.1
/pnfs/usatlas.bnl.gov/LOCALGROUPDISK/rucio/data18_hi/65/82/AOD.16160600._000351.pool.root.1
/pnfs/usatlas.bnl.gov/LOCALGROUPDISK/rucio/data18_hi/61/cb/AOD.16160600._000352.pool.root.1
/pnfs/usatlas.bnl.gov/LOCALGROUPDISK/rucio/data18_hi/01/53/AOD.16160600._000353.pool.root.1
/pnfs/usatlas.bnl.gov/LOCALGROUPDISK/rucio/data18_hi/20/ea/AOD.16160600._000355.pool.root.1
/pnfs/usatlas.bnl.gov/LOCALGROUPDISK/rucio/data18_hi/dc/c1/AOD.16160600._000356.pool.root.1
/pnfs/usatlas.bnl.gov/LOCALGROUPDISK/rucio/data18_hi/49/34/AOD.16160600._000357.pool.root.1
/pnfs/usatlas.bnl.gov/LOCALGROUPDISK/rucio/data18_hi/cf/9f/AOD.16160600._000358.pool.root.1
/pnfs/usatlas.bnl.gov/LOCALGROUPDISK/rucio/data18_hi/70/4e/AOD.16160600._000359.pool.root.1
/pnfs/usatlas.bnl.gov/LOCALGROUPDISK/rucio/data18_hi/1f/59/AOD.16160600._000360.pool.root.1
/pnfs/usatlas.bnl.gov/LOCALGROUPDISK/rucio/data18_hi/e4/a7/AOD.16160600._000361.pool.root.1
/pnfs/usatlas.bnl.gov/LOCALGROUPDISK/rucio/data18_hi/c3/29/AOD.16160600._000362.pool.root.1
/pnfs/usatlas.bnl.gov/LOCALGROUPDISK/rucio/data18_hi/da/59/AOD.16160600._000363.pool.root.1
/pnfs/usatlas.bnl.gov/LOCALGROUPDISK/rucio/data18_hi/bb/5b/AOD.16160600._000364.pool.root.1
/pnfs/usatlas.bnl.gov/LOCALGROUPDISK/rucio/data18_hi/55/3d/AOD.16160600._000365.pool.root.1
/pnfs/usatlas.bnl.gov/LOCALGROUPDISK/rucio/data18_hi/35/30/AOD.16160600._000366.pool.root.1
/pnfs/usatlas.bnl.gov/LOCALGROUPDISK/rucio/data18_hi/1a/32/AOD.16160600._000367.pool.root.1
/pnfs/usatlas.bnl.gov/LOCALGROUPDISK/rucio/data18_hi/cb/a8/AOD.16160600._000368.pool.root.1
/pnfs/usatlas.bnl.gov/LOCALGROUPDISK/rucio/data18_hi/91/5c/AOD.16160600._000369.pool.root.1
/pnfs/usatlas.bnl.gov/LOCALGROUPDISK/rucio/data18_hi/e5/76/AOD.16160600._000370.pool.root.1
/pnfs/usatlas.bnl.gov/LOCALGROUPDISK/rucio/data18_hi/0d/fe/AOD.16160600._000371.pool.root.1
/pnfs/usatlas.bnl.gov/LOCALGROUPDISK/rucio/data18_hi/65/28/AOD.16160600._000372.pool.root.1
/pnfs/usatlas.bnl.gov/LOCALGROUPDISK/rucio/data18_hi/49/2e/AOD.16160600._000373.pool.root.1
/pnfs/usatlas.bnl.gov/LOCALGROUPDISK/rucio/data18_hi/65/30/AOD.16160600._000374.pool.root.1
/pnfs/usatlas.bnl.gov/LOCALGROUPDISK/rucio/data18_hi/b8/e0/AOD.16160600._000375.pool.root.1
/pnfs/usatlas.bnl.gov/LOCALGROUPDISK/rucio/data18_hi/61/17/AOD.16160600._000376.pool.root.1
/pnfs/usatlas.bnl.gov/LOCALGROUPDISK/rucio/data18_hi/61/09/AOD.16160600._000377.pool.root.1
/pnfs/usatlas.bnl.gov/LOCALGROUPDISK/rucio/data18_hi/e5/5c/AOD.16160600._000429.pool.root.1
/pnfs/usatlas.bnl.gov/LOCALGROUPDISK/rucio/data18_hi/cd/4b/AOD.16160600._000432.pool.root.1
/pnfs/usatlas.bnl.gov/LOCALGROUPDISK/rucio/data18_hi/cf/17/AOD.16160600._000433.pool.root.1
/pnfs/usatlas.bnl.gov/LOCALGROUPDISK/rucio/data18_hi/fe/32/AOD.16160600._000434.pool.root.1
/pnfs/usatlas.bnl.gov/LOCALGROUPDISK/rucio/data18_hi/6f/c8/AOD.16160600._000436.pool.root.1
/pnfs/usatlas.bnl.gov/LOCALGROUPDISK/rucio/data18_hi/29/da/AOD.16160600._000437.pool.root.1
/pnfs/usatlas.bnl.gov/LOCALGROUPDISK/rucio/data18_hi/1b/0f/AOD.16160600._000439.pool.root.1
/pnfs/usatlas.bnl.gov/LOCALGROUPDISK/rucio/data18_hi/12/b5/AOD.16160600._000444.pool.root.1
/pnfs/usatlas.bnl.gov/LOCALGROUPDISK/rucio/data18_hi/b0/b5/AOD.16160600._000452.pool.root.1
/pnfs/usatlas.bnl.gov/LOCALGROUPDISK/rucio/data18_hi/42/d0/AOD.16160600._000454.pool.root.1
/pnfs/usatlas.bnl.gov/LOCALGROUPDISK/rucio/data18_hi/58/a9/AOD.16160600._000459.pool.root.1
/pnfs/usatlas.bnl.gov/LOCALGROUPDISK/rucio/data18_hi/e0/fe/AOD.16160600._000462.pool.root.1
/pnfs/usatlas.bnl.gov/LOCALGROUPDISK/rucio/data18_hi/8b/07/AOD.16160600._000485.pool.root.1
/pnfs/usatlas.bnl.gov/LOCALGROUPDISK/rucio/data18_hi/b5/d1/AOD.16160600._000486.pool.root.1
/pnfs/usatlas.bnl.gov/LOCALGROUPDISK/rucio/data18_hi/aa/1a/AOD.16160600._000487.pool.root.1
/pnfs/usatlas.bnl.gov/LOCALGROUPDISK/rucio/data18_hi/b3/c5/AOD.16160600._000488.pool.root.1
/pnfs/usatlas.bnl.gov/LOCALGROUPDISK/rucio/data18_hi/e3/f4/AOD.16160600._000489.pool.root.1
/pnfs/usatlas.bnl.gov/LOCALGROUPDISK/rucio/data18_hi/25/b3/AOD.16160600._000490.pool.root.1
/pnfs/usatlas.bnl.gov/LOCALGROUPDISK/rucio/data18_hi/9d/62/AOD.16160600._000491.pool.root.1
/pnfs/usatlas.bnl.gov/LOCALGROUPDISK/rucio/data18_hi/1d/f8/AOD.16160600._000492.pool.root.1
/pnfs/usatlas.bnl.gov/LOCALGROUPDISK/rucio/data18_hi/41/4f/AOD.16160600._000493.pool.root.1
/pnfs/usatlas.bnl.gov/LOCALGROUPDISK/rucio/data18_hi/a3/e4/AOD.16160600._000494.pool.root.1
/pnfs/usatlas.bnl.gov/LOCALGROUPDISK/rucio/data18_hi/d2/43/AOD.16160600._000495.pool.root.1
/pnfs/usatlas.bnl.gov/LOCALGROUPDISK/rucio/data18_hi/33/da/AOD.16160600._000496.pool.root.1
/pnfs/usatlas.bnl.gov/LOCALGROUPDISK/rucio/data18_hi/a8/cc/AOD.16160600._000497.pool.root.1
/pnfs/usatlas.bnl.gov/LOCALGROUPDISK/rucio/data18_hi/40/03/AOD.16160600._000498.pool.root.1
/pnfs/usatlas.bnl.gov/LOCALGROUPDISK/rucio/data18_hi/a2/81/AOD.16160600._000499.pool.root.1
/pnfs/usatlas.bnl.gov/LOCALGROUPDISK/rucio/data18_hi/80/eb/AOD.16160600._000500.pool.root.1
/pnfs/usatlas.bnl.gov/LOCALGROUPDISK/rucio/data18_hi/a7/46/AOD.16160600._000501.pool.root.1
/pnfs/usatlas.bnl.gov/LOCALGROUPDISK/rucio/data18_hi/3e/c0/AOD.16160600._000502.pool.root.1
/pnfs/usatlas.bnl.gov/LOCALGROUPDISK/rucio/data18_hi/4b/46/AOD.16160600._000503.pool.root.1
/pnfs/usatlas.bnl.gov/LOCALGROUPDISK/rucio/data18_hi/b4/e3/AOD.16160600._000504.pool.root.1
/pnfs/usatlas.bnl.gov/LOCALGROUPDISK/rucio/data18_hi/0e/3f/AOD.16160600._000505.pool.root.1
/pnfs/usatlas.bnl.gov/LOCALGROUPDISK/rucio/data18_hi/01/38/AOD.16160600._000506.pool.root.1
/pnfs/usatlas.bnl.gov/LOCALGROUPDISK/rucio/data18_hi/77/cb/AOD.16160600._000507.pool.root.1
/pnfs/usatlas.bnl.gov/LOCALGROUPDISK/rucio/data18_hi/0b/b1/AOD.16160600._000508.pool.root.1
/pnfs/usatlas.bnl.gov/LOCALGROUPDISK/rucio/data18_hi/5f/3f/AOD.16160600._000509.pool.root.1
/pnfs/usatlas.bnl.gov/LOCALGROUPDISK/rucio/data18_hi/15/69/AOD.16160600._000510.pool.root.1
/pnfs/usatlas.bnl.gov/LOCALGROUPDISK/rucio/data18_hi/6e/eb/AOD.16160600._000511.pool.root.1
/pnfs/usatlas.bnl.gov/LOCALGROUPDISK/rucio/data18_hi/78/e1/AOD.16160600._000512.pool.root.1
/pnfs/usatlas.bnl.gov/LOCALGROUPDISK/rucio/data18_hi/bf/af/AOD.16160600._000513.pool.root.1
/pnfs/usatlas.bnl.gov/LOCALGROUPDISK/rucio/data18_hi/5b/03/AOD.16160600._000514.pool.root.1
/pnfs/usatlas.bnl.gov/LOCALGROUPDISK/rucio/data18_hi/69/38/AOD.16160600._000515.pool.root.1
/pnfs/usatlas.bnl.gov/LOCALGROUPDISK/rucio/data18_hi/cf/8b/AOD.16160600._000516.pool.root.1
/pnfs/usatlas.bnl.gov/LOCALGROUPDISK/rucio/data18_hi/dd/51/AOD.16160600._000517.pool.root.1
/pnfs/usatlas.bnl.gov/LOCALGROUPDISK/rucio/data18_hi/62/30/AOD.16160600._000518.pool.root.1
/pnfs/usatlas.bnl.gov/LOCALGROUPDISK/rucio/data18_hi/a0/27/AOD.16160600._000519.pool.root.1
/pnfs/usatlas.bnl.gov/LOCALGROUPDISK/rucio/data18_hi/ae/00/AOD.16160600._000520.pool.root.1
/pnfs/usatlas.bnl.gov/LOCALGROUPDISK/rucio/data18_hi/2c/e7/AOD.16160600._000521.pool.root.1
/pnfs/usatlas.bnl.gov/LOCALGROUPDISK/rucio/data18_hi/b8/91/AOD.16160600._000522.pool.root.1
/pnfs/usatlas.bnl.gov/LOCALGROUPDISK/rucio/data18_hi/59/ca/AOD.16160600._000523.pool.root.1
/pnfs/usatlas.bnl.gov/LOCALGROUPDISK/rucio/data18_hi/61/7b/AOD.16160600._000524.pool.root.1
/pnfs/usatlas.bnl.gov/LOCALGROUPDISK/rucio/data18_hi/da/3f/AOD.16160600._000525.pool.root.1
