+-----------+-----------------------------------------+------------+-----------+--------------------------------------------------------------------------------------------------------------------------------------------------------------+
| SCOPE     | NAME                                    | FILESIZE   | ADLER32   | RSE: REPLICA                                                                                                                                                 |
|-----------+-----------------------------------------+------------+-----------+--------------------------------------------------------------------------------------------------------------------------------------------------------------|
| data18_hi | DAOD_HION7.26257451._000003.pool.root.1 | 6.561 GB   | bf7609a0  | BNL-OSG2_LOCALGROUPDISK: davs://dcgftp.usatlas.bnl.gov:443/pnfs/usatlas.bnl.gov/LOCALGROUPDISK/rucio/data18_hi/8c/a3/DAOD_HION7.26257451._000003.pool.root.1 |
| data18_hi | DAOD_HION7.26257451._000004.pool.root.1 | 6.522 GB   | 806813ac  | BNL-OSG2_LOCALGROUPDISK: davs://dcgftp.usatlas.bnl.gov:443/pnfs/usatlas.bnl.gov/LOCALGROUPDISK/rucio/data18_hi/eb/a2/DAOD_HION7.26257451._000004.pool.root.1 |
| data18_hi | DAOD_HION7.26257451._000005.pool.root.1 | 5.929 GB   | c6a20a7a  | BNL-OSG2_LOCALGROUPDISK: davs://dcgftp.usatlas.bnl.gov:443/pnfs/usatlas.bnl.gov/LOCALGROUPDISK/rucio/data18_hi/11/0f/DAOD_HION7.26257451._000005.pool.root.1 |
| data18_hi | DAOD_HION7.26257451._000006.pool.root.1 | 5.901 GB   | e70be270  | BNL-OSG2_LOCALGROUPDISK: davs://dcgftp.usatlas.bnl.gov:443/pnfs/usatlas.bnl.gov/LOCALGROUPDISK/rucio/data18_hi/2c/12/DAOD_HION7.26257451._000006.pool.root.1 |
| data18_hi | DAOD_HION7.26257451._000009.pool.root.1 | 5.948 GB   | 8a56d801  | BNL-OSG2_LOCALGROUPDISK: davs://dcgftp.usatlas.bnl.gov:443/pnfs/usatlas.bnl.gov/LOCALGROUPDISK/rucio/data18_hi/b6/d7/DAOD_HION7.26257451._000009.pool.root.1 |
| data18_hi | DAOD_HION7.26257451._000010.pool.root.1 | 5.929 GB   | 67a25a5b  | BNL-OSG2_LOCALGROUPDISK: davs://dcgftp.usatlas.bnl.gov:443/pnfs/usatlas.bnl.gov/LOCALGROUPDISK/rucio/data18_hi/02/18/DAOD_HION7.26257451._000010.pool.root.1 |
| data18_hi | DAOD_HION7.26257451._000011.pool.root.1 | 6.482 GB   | 34e31c74  | BNL-OSG2_LOCALGROUPDISK: davs://dcgftp.usatlas.bnl.gov:443/pnfs/usatlas.bnl.gov/LOCALGROUPDISK/rucio/data18_hi/d9/b0/DAOD_HION7.26257451._000011.pool.root.1 |
| data18_hi | DAOD_HION7.26257451._000012.pool.root.1 | 6.612 GB   | 3ba802b6  | BNL-OSG2_LOCALGROUPDISK: davs://dcgftp.usatlas.bnl.gov:443/pnfs/usatlas.bnl.gov/LOCALGROUPDISK/rucio/data18_hi/b1/33/DAOD_HION7.26257451._000012.pool.root.1 |
| data18_hi | DAOD_HION7.26257451._000013.pool.root.1 | 6.679 GB   | da45797a  | BNL-OSG2_LOCALGROUPDISK: davs://dcgftp.usatlas.bnl.gov:443/pnfs/usatlas.bnl.gov/LOCALGROUPDISK/rucio/data18_hi/ea/b7/DAOD_HION7.26257451._000013.pool.root.1 |
| data18_hi | DAOD_HION7.26257451._000014.pool.root.1 | 5.862 GB   | 82e3f913  | BNL-OSG2_LOCALGROUPDISK: davs://dcgftp.usatlas.bnl.gov:443/pnfs/usatlas.bnl.gov/LOCALGROUPDISK/rucio/data18_hi/75/ed/DAOD_HION7.26257451._000014.pool.root.1 |
| data18_hi | DAOD_HION7.26257451._000015.pool.root.1 | 9.596 GB   | c325a009  | BNL-OSG2_LOCALGROUPDISK: davs://dcgftp.usatlas.bnl.gov:443/pnfs/usatlas.bnl.gov/LOCALGROUPDISK/rucio/data18_hi/2b/55/DAOD_HION7.26257451._000015.pool.root.1 |
| data18_hi | DAOD_HION7.26257451._000016.pool.root.1 | 9.504 GB   | 90b70e80  | BNL-OSG2_LOCALGROUPDISK: davs://dcgftp.usatlas.bnl.gov:443/pnfs/usatlas.bnl.gov/LOCALGROUPDISK/rucio/data18_hi/b7/e6/DAOD_HION7.26257451._000016.pool.root.1 |
| data18_hi | DAOD_HION7.26257451._000017.pool.root.1 | 9.848 GB   | 91d772e2  | BNL-OSG2_LOCALGROUPDISK: davs://dcgftp.usatlas.bnl.gov:443/pnfs/usatlas.bnl.gov/LOCALGROUPDISK/rucio/data18_hi/b2/b0/DAOD_HION7.26257451._000017.pool.root.1 |
| data18_hi | DAOD_HION7.26257451._000018.pool.root.1 | 9.563 GB   | 6b020d62  | BNL-OSG2_LOCALGROUPDISK: davs://dcgftp.usatlas.bnl.gov:443/pnfs/usatlas.bnl.gov/LOCALGROUPDISK/rucio/data18_hi/a5/e3/DAOD_HION7.26257451._000018.pool.root.1 |
| data18_hi | DAOD_HION7.26257451._000019.pool.root.1 | 9.559 GB   | 15c5c8d4  | BNL-OSG2_LOCALGROUPDISK: davs://dcgftp.usatlas.bnl.gov:443/pnfs/usatlas.bnl.gov/LOCALGROUPDISK/rucio/data18_hi/57/42/DAOD_HION7.26257451._000019.pool.root.1 |
| data18_hi | DAOD_HION7.26257451._000020.pool.root.1 | 9.405 GB   | d6bc8d8b  | BNL-OSG2_LOCALGROUPDISK: davs://dcgftp.usatlas.bnl.gov:443/pnfs/usatlas.bnl.gov/LOCALGROUPDISK/rucio/data18_hi/19/6d/DAOD_HION7.26257451._000020.pool.root.1 |
| data18_hi | DAOD_HION7.26257451._000021.pool.root.1 | 9.323 GB   | df7f4025  | BNL-OSG2_LOCALGROUPDISK: davs://dcgftp.usatlas.bnl.gov:443/pnfs/usatlas.bnl.gov/LOCALGROUPDISK/rucio/data18_hi/cc/57/DAOD_HION7.26257451._000021.pool.root.1 |
| data18_hi | DAOD_HION7.26257451._000022.pool.root.1 | 9.788 GB   | 01dcebe2  | BNL-OSG2_LOCALGROUPDISK: davs://dcgftp.usatlas.bnl.gov:443/pnfs/usatlas.bnl.gov/LOCALGROUPDISK/rucio/data18_hi/91/73/DAOD_HION7.26257451._000022.pool.root.1 |
| data18_hi | DAOD_HION7.26257451._000023.pool.root.1 | 9.482 GB   | 544a7c79  | BNL-OSG2_LOCALGROUPDISK: davs://dcgftp.usatlas.bnl.gov:443/pnfs/usatlas.bnl.gov/LOCALGROUPDISK/rucio/data18_hi/67/92/DAOD_HION7.26257451._000023.pool.root.1 |
| data18_hi | DAOD_HION7.26257451._000024.pool.root.1 | 9.251 GB   | 56b1a9db  | BNL-OSG2_LOCALGROUPDISK: davs://dcgftp.usatlas.bnl.gov:443/pnfs/usatlas.bnl.gov/LOCALGROUPDISK/rucio/data18_hi/0f/71/DAOD_HION7.26257451._000024.pool.root.1 |
| data18_hi | DAOD_HION7.26257451._000025.pool.root.1 | 9.205 GB   | 0f136a6b  | BNL-OSG2_LOCALGROUPDISK: davs://dcgftp.usatlas.bnl.gov:443/pnfs/usatlas.bnl.gov/LOCALGROUPDISK/rucio/data18_hi/f9/4a/DAOD_HION7.26257451._000025.pool.root.1 |
| data18_hi | DAOD_HION7.26257451._000026.pool.root.1 | 8.889 GB   | 89858666  | BNL-OSG2_LOCALGROUPDISK: davs://dcgftp.usatlas.bnl.gov:443/pnfs/usatlas.bnl.gov/LOCALGROUPDISK/rucio/data18_hi/a4/fd/DAOD_HION7.26257451._000026.pool.root.1 |
| data18_hi | DAOD_HION7.26257451._000027.pool.root.1 | 8.448 GB   | 2239de9f  | BNL-OSG2_LOCALGROUPDISK: davs://dcgftp.usatlas.bnl.gov:443/pnfs/usatlas.bnl.gov/LOCALGROUPDISK/rucio/data18_hi/31/97/DAOD_HION7.26257451._000027.pool.root.1 |
| data18_hi | DAOD_HION7.26257451._000028.pool.root.1 | 8.630 GB   | db17ec1b  | BNL-OSG2_LOCALGROUPDISK: davs://dcgftp.usatlas.bnl.gov:443/pnfs/usatlas.bnl.gov/LOCALGROUPDISK/rucio/data18_hi/1b/3d/DAOD_HION7.26257451._000028.pool.root.1 |
| data18_hi | DAOD_HION7.26257451._000029.pool.root.1 | 8.644 GB   | 8a3669b5  | BNL-OSG2_LOCALGROUPDISK: davs://dcgftp.usatlas.bnl.gov:443/pnfs/usatlas.bnl.gov/LOCALGROUPDISK/rucio/data18_hi/29/54/DAOD_HION7.26257451._000029.pool.root.1 |
| data18_hi | DAOD_HION7.26257451._000030.pool.root.1 | 9.586 GB   | 096b9d5b  | BNL-OSG2_LOCALGROUPDISK: davs://dcgftp.usatlas.bnl.gov:443/pnfs/usatlas.bnl.gov/LOCALGROUPDISK/rucio/data18_hi/cc/ee/DAOD_HION7.26257451._000030.pool.root.1 |
| data18_hi | DAOD_HION7.26257451._000031.pool.root.1 | 9.518 GB   | c9493ce1  | BNL-OSG2_LOCALGROUPDISK: davs://dcgftp.usatlas.bnl.gov:443/pnfs/usatlas.bnl.gov/LOCALGROUPDISK/rucio/data18_hi/b0/8c/DAOD_HION7.26257451._000031.pool.root.1 |
| data18_hi | DAOD_HION7.26257451._000032.pool.root.1 | 9.356 GB   | 55042f35  | BNL-OSG2_LOCALGROUPDISK: davs://dcgftp.usatlas.bnl.gov:443/pnfs/usatlas.bnl.gov/LOCALGROUPDISK/rucio/data18_hi/7d/73/DAOD_HION7.26257451._000032.pool.root.1 |
| data18_hi | DAOD_HION7.26257451._000033.pool.root.1 | 9.875 GB   | efaafa8f  | BNL-OSG2_LOCALGROUPDISK: davs://dcgftp.usatlas.bnl.gov:443/pnfs/usatlas.bnl.gov/LOCALGROUPDISK/rucio/data18_hi/f2/d6/DAOD_HION7.26257451._000033.pool.root.1 |
| data18_hi | DAOD_HION7.26257451._000034.pool.root.1 | 8.382 GB   | ba7f3746  | BNL-OSG2_LOCALGROUPDISK: davs://dcgftp.usatlas.bnl.gov:443/pnfs/usatlas.bnl.gov/LOCALGROUPDISK/rucio/data18_hi/17/28/DAOD_HION7.26257451._000034.pool.root.1 |
| data18_hi | DAOD_HION7.26257451._000035.pool.root.1 | 9.924 GB   | f153a97a  | BNL-OSG2_LOCALGROUPDISK: davs://dcgftp.usatlas.bnl.gov:443/pnfs/usatlas.bnl.gov/LOCALGROUPDISK/rucio/data18_hi/c2/19/DAOD_HION7.26257451._000035.pool.root.1 |
| data18_hi | DAOD_HION7.26257451._000036.pool.root.1 | 9.677 GB   | 4c122daa  | BNL-OSG2_LOCALGROUPDISK: davs://dcgftp.usatlas.bnl.gov:443/pnfs/usatlas.bnl.gov/LOCALGROUPDISK/rucio/data18_hi/68/f2/DAOD_HION7.26257451._000036.pool.root.1 |
| data18_hi | DAOD_HION7.26257451._000037.pool.root.1 | 9.492 GB   | 01a79ec3  | BNL-OSG2_LOCALGROUPDISK: davs://dcgftp.usatlas.bnl.gov:443/pnfs/usatlas.bnl.gov/LOCALGROUPDISK/rucio/data18_hi/38/ca/DAOD_HION7.26257451._000037.pool.root.1 |
| data18_hi | DAOD_HION7.26257451._000038.pool.root.1 | 9.259 GB   | 54929b04  | BNL-OSG2_LOCALGROUPDISK: davs://dcgftp.usatlas.bnl.gov:443/pnfs/usatlas.bnl.gov/LOCALGROUPDISK/rucio/data18_hi/cc/8a/DAOD_HION7.26257451._000038.pool.root.1 |
| data18_hi | DAOD_HION7.26257451._000039.pool.root.1 | 8.263 GB   | 32dd5eb0  | BNL-OSG2_LOCALGROUPDISK: davs://dcgftp.usatlas.bnl.gov:443/pnfs/usatlas.bnl.gov/LOCALGROUPDISK/rucio/data18_hi/90/cf/DAOD_HION7.26257451._000039.pool.root.1 |
| data18_hi | DAOD_HION7.26257451._000040.pool.root.1 | 8.434 GB   | 70f7ae93  | BNL-OSG2_LOCALGROUPDISK: davs://dcgftp.usatlas.bnl.gov:443/pnfs/usatlas.bnl.gov/LOCALGROUPDISK/rucio/data18_hi/b0/16/DAOD_HION7.26257451._000040.pool.root.1 |
| data18_hi | DAOD_HION7.26257451._000041.pool.root.1 | 8.375 GB   | cfc97f47  | BNL-OSG2_LOCALGROUPDISK: davs://dcgftp.usatlas.bnl.gov:443/pnfs/usatlas.bnl.gov/LOCALGROUPDISK/rucio/data18_hi/5f/fe/DAOD_HION7.26257451._000041.pool.root.1 |
| data18_hi | DAOD_HION7.26257451._000042.pool.root.1 | 8.511 GB   | 79ee455b  | BNL-OSG2_LOCALGROUPDISK: davs://dcgftp.usatlas.bnl.gov:443/pnfs/usatlas.bnl.gov/LOCALGROUPDISK/rucio/data18_hi/ea/99/DAOD_HION7.26257451._000042.pool.root.1 |
| data18_hi | DAOD_HION7.26257451._000043.pool.root.1 | 9.697 GB   | 15662fce  | BNL-OSG2_LOCALGROUPDISK: davs://dcgftp.usatlas.bnl.gov:443/pnfs/usatlas.bnl.gov/LOCALGROUPDISK/rucio/data18_hi/d8/37/DAOD_HION7.26257451._000043.pool.root.1 |
| data18_hi | DAOD_HION7.26257451._000044.pool.root.1 | 8.340 GB   | fe5993a6  | BNL-OSG2_LOCALGROUPDISK: davs://dcgftp.usatlas.bnl.gov:443/pnfs/usatlas.bnl.gov/LOCALGROUPDISK/rucio/data18_hi/f9/08/DAOD_HION7.26257451._000044.pool.root.1 |
| data18_hi | DAOD_HION7.26257451._000045.pool.root.1 | 8.317 GB   | 92eeab25  | BNL-OSG2_LOCALGROUPDISK: davs://dcgftp.usatlas.bnl.gov:443/pnfs/usatlas.bnl.gov/LOCALGROUPDISK/rucio/data18_hi/2f/1b/DAOD_HION7.26257451._000045.pool.root.1 |
| data18_hi | DAOD_HION7.26257451._000046.pool.root.1 | 9.774 GB   | 331128b7  | BNL-OSG2_LOCALGROUPDISK: davs://dcgftp.usatlas.bnl.gov:443/pnfs/usatlas.bnl.gov/LOCALGROUPDISK/rucio/data18_hi/8b/19/DAOD_HION7.26257451._000046.pool.root.1 |
| data18_hi | DAOD_HION7.26257451._000047.pool.root.1 | 9.636 GB   | db404f33  | BNL-OSG2_LOCALGROUPDISK: davs://dcgftp.usatlas.bnl.gov:443/pnfs/usatlas.bnl.gov/LOCALGROUPDISK/rucio/data18_hi/a0/cc/DAOD_HION7.26257451._000047.pool.root.1 |
| data18_hi | DAOD_HION7.26257451._000048.pool.root.1 | 9.343 GB   | efb81621  | BNL-OSG2_LOCALGROUPDISK: davs://dcgftp.usatlas.bnl.gov:443/pnfs/usatlas.bnl.gov/LOCALGROUPDISK/rucio/data18_hi/c1/82/DAOD_HION7.26257451._000048.pool.root.1 |
| data18_hi | DAOD_HION7.26257451._000049.pool.root.1 | 9.181 GB   | 1e6610e7  | BNL-OSG2_LOCALGROUPDISK: davs://dcgftp.usatlas.bnl.gov:443/pnfs/usatlas.bnl.gov/LOCALGROUPDISK/rucio/data18_hi/6e/da/DAOD_HION7.26257451._000049.pool.root.1 |
| data18_hi | DAOD_HION7.26257451._000050.pool.root.1 | 8.941 GB   | 4d5b2354  | BNL-OSG2_LOCALGROUPDISK: davs://dcgftp.usatlas.bnl.gov:443/pnfs/usatlas.bnl.gov/LOCALGROUPDISK/rucio/data18_hi/55/17/DAOD_HION7.26257451._000050.pool.root.1 |
| data18_hi | DAOD_HION7.26257451._000051.pool.root.1 | 8.787 GB   | 110141e5  | BNL-OSG2_LOCALGROUPDISK: davs://dcgftp.usatlas.bnl.gov:443/pnfs/usatlas.bnl.gov/LOCALGROUPDISK/rucio/data18_hi/77/cc/DAOD_HION7.26257451._000051.pool.root.1 |
| data18_hi | DAOD_HION7.26257451._000052.pool.root.1 | 8.641 GB   | a62f2f1a  | BNL-OSG2_LOCALGROUPDISK: davs://dcgftp.usatlas.bnl.gov:443/pnfs/usatlas.bnl.gov/LOCALGROUPDISK/rucio/data18_hi/b9/ce/DAOD_HION7.26257451._000052.pool.root.1 |
| data18_hi | DAOD_HION7.26257451._000053.pool.root.1 | 8.647 GB   | baf4d1c1  | BNL-OSG2_LOCALGROUPDISK: davs://dcgftp.usatlas.bnl.gov:443/pnfs/usatlas.bnl.gov/LOCALGROUPDISK/rucio/data18_hi/3d/c9/DAOD_HION7.26257451._000053.pool.root.1 |
| data18_hi | DAOD_HION7.26257451._000054.pool.root.1 | 8.291 GB   | 1b64f280  | BNL-OSG2_LOCALGROUPDISK: davs://dcgftp.usatlas.bnl.gov:443/pnfs/usatlas.bnl.gov/LOCALGROUPDISK/rucio/data18_hi/b8/fa/DAOD_HION7.26257451._000054.pool.root.1 |
| data18_hi | DAOD_HION7.26257451._000055.pool.root.1 | 8.360 GB   | 0462cfae  | BNL-OSG2_LOCALGROUPDISK: davs://dcgftp.usatlas.bnl.gov:443/pnfs/usatlas.bnl.gov/LOCALGROUPDISK/rucio/data18_hi/65/d3/DAOD_HION7.26257451._000055.pool.root.1 |
| data18_hi | DAOD_HION7.26257451._000056.pool.root.1 | 9.828 GB   | 107eb26b  | BNL-OSG2_LOCALGROUPDISK: davs://dcgftp.usatlas.bnl.gov:443/pnfs/usatlas.bnl.gov/LOCALGROUPDISK/rucio/data18_hi/35/4e/DAOD_HION7.26257451._000056.pool.root.1 |
| data18_hi | DAOD_HION7.26257451._000057.pool.root.1 | 9.585 GB   | e14e8d3a  | BNL-OSG2_LOCALGROUPDISK: davs://dcgftp.usatlas.bnl.gov:443/pnfs/usatlas.bnl.gov/LOCALGROUPDISK/rucio/data18_hi/c1/07/DAOD_HION7.26257451._000057.pool.root.1 |
| data18_hi | DAOD_HION7.26257451._000058.pool.root.1 | 8.517 GB   | 53ecc013  | BNL-OSG2_LOCALGROUPDISK: davs://dcgftp.usatlas.bnl.gov:443/pnfs/usatlas.bnl.gov/LOCALGROUPDISK/rucio/data18_hi/a3/e1/DAOD_HION7.26257451._000058.pool.root.1 |
| data18_hi | DAOD_HION7.26257451._000059.pool.root.1 | 8.420 GB   | 4366861c  | BNL-OSG2_LOCALGROUPDISK: davs://dcgftp.usatlas.bnl.gov:443/pnfs/usatlas.bnl.gov/LOCALGROUPDISK/rucio/data18_hi/53/82/DAOD_HION7.26257451._000059.pool.root.1 |
| data18_hi | DAOD_HION7.26257451._000060.pool.root.1 | 8.303 GB   | 9123f987  | BNL-OSG2_LOCALGROUPDISK: davs://dcgftp.usatlas.bnl.gov:443/pnfs/usatlas.bnl.gov/LOCALGROUPDISK/rucio/data18_hi/0d/8a/DAOD_HION7.26257451._000060.pool.root.1 |
| data18_hi | DAOD_HION7.26257451._000061.pool.root.1 | 8.345 GB   | 461da154  | BNL-OSG2_LOCALGROUPDISK: davs://dcgftp.usatlas.bnl.gov:443/pnfs/usatlas.bnl.gov/LOCALGROUPDISK/rucio/data18_hi/fc/9b/DAOD_HION7.26257451._000061.pool.root.1 |
| data18_hi | DAOD_HION7.26257451._000062.pool.root.1 | 9.739 GB   | 90fa2676  | BNL-OSG2_LOCALGROUPDISK: davs://dcgftp.usatlas.bnl.gov:443/pnfs/usatlas.bnl.gov/LOCALGROUPDISK/rucio/data18_hi/e0/05/DAOD_HION7.26257451._000062.pool.root.1 |
| data18_hi | DAOD_HION7.26257451._000063.pool.root.1 | 693.195 MB | f9489da7  | BNL-OSG2_LOCALGROUPDISK: davs://dcgftp.usatlas.bnl.gov:443/pnfs/usatlas.bnl.gov/LOCALGROUPDISK/rucio/data18_hi/90/e2/DAOD_HION7.26257451._000063.pool.root.1 |
+-----------+-----------------------------------------+------------+-----------+--------------------------------------------------------------------------------------------------------------------------------------------------------------+
