+-----------+-----------------------------------------+------------+-----------+--------------------------------------------------------------------------------------------------------------------------------------------------------------+
| SCOPE     | NAME                                    | FILESIZE   | ADLER32   | RSE: REPLICA                                                                                                                                                 |
|-----------+-----------------------------------------+------------+-----------+--------------------------------------------------------------------------------------------------------------------------------------------------------------|
| data18_hi | DAOD_HION7.26257344._000001.pool.root.1 | 300.696 MB | bfce817c  | BNL-OSG2_LOCALGROUPDISK: davs://dcgftp.usatlas.bnl.gov:443/pnfs/usatlas.bnl.gov/LOCALGROUPDISK/rucio/data18_hi/03/0f/DAOD_HION7.26257344._000001.pool.root.1 |
| data18_hi | DAOD_HION7.26257344._000002.pool.root.1 | 298.806 MB | 39310285  | BNL-OSG2_LOCALGROUPDISK: davs://dcgftp.usatlas.bnl.gov:443/pnfs/usatlas.bnl.gov/LOCALGROUPDISK/rucio/data18_hi/8c/da/DAOD_HION7.26257344._000002.pool.root.1 |
| data18_hi | DAOD_HION7.26257344._000003.pool.root.1 | 250.896 MB | 5cfe7263  | BNL-OSG2_LOCALGROUPDISK: davs://dcgftp.usatlas.bnl.gov:443/pnfs/usatlas.bnl.gov/LOCALGROUPDISK/rucio/data18_hi/a1/07/DAOD_HION7.26257344._000003.pool.root.1 |
| data18_hi | DAOD_HION7.26257344._000004.pool.root.1 | 264.131 MB | bbd1f144  | BNL-OSG2_LOCALGROUPDISK: davs://dcgftp.usatlas.bnl.gov:443/pnfs/usatlas.bnl.gov/LOCALGROUPDISK/rucio/data18_hi/ed/58/DAOD_HION7.26257344._000004.pool.root.1 |
| data18_hi | DAOD_HION7.26257344._000005.pool.root.1 | 266.520 MB | f48a862e  | BNL-OSG2_LOCALGROUPDISK: davs://dcgftp.usatlas.bnl.gov:443/pnfs/usatlas.bnl.gov/LOCALGROUPDISK/rucio/data18_hi/b4/ef/DAOD_HION7.26257344._000005.pool.root.1 |
| data18_hi | DAOD_HION7.26257344._000006.pool.root.1 | 265.171 MB | 29413918  | BNL-OSG2_LOCALGROUPDISK: davs://dcgftp.usatlas.bnl.gov:443/pnfs/usatlas.bnl.gov/LOCALGROUPDISK/rucio/data18_hi/7d/a3/DAOD_HION7.26257344._000006.pool.root.1 |
| data18_hi | DAOD_HION7.26257344._000007.pool.root.1 | 257.974 MB | d120460a  | BNL-OSG2_LOCALGROUPDISK: davs://dcgftp.usatlas.bnl.gov:443/pnfs/usatlas.bnl.gov/LOCALGROUPDISK/rucio/data18_hi/83/b3/DAOD_HION7.26257344._000007.pool.root.1 |
| data18_hi | DAOD_HION7.26257344._000008.pool.root.1 | 308.135 MB | 9b41d931  | BNL-OSG2_LOCALGROUPDISK: davs://dcgftp.usatlas.bnl.gov:443/pnfs/usatlas.bnl.gov/LOCALGROUPDISK/rucio/data18_hi/c3/a5/DAOD_HION7.26257344._000008.pool.root.1 |
| data18_hi | DAOD_HION7.26257344._000009.pool.root.1 | 266.900 MB | 34cc9875  | BNL-OSG2_LOCALGROUPDISK: davs://dcgftp.usatlas.bnl.gov:443/pnfs/usatlas.bnl.gov/LOCALGROUPDISK/rucio/data18_hi/5f/03/DAOD_HION7.26257344._000009.pool.root.1 |
| data18_hi | DAOD_HION7.26257344._000010.pool.root.1 | 266.055 MB | c05b39de  | BNL-OSG2_LOCALGROUPDISK: davs://dcgftp.usatlas.bnl.gov:443/pnfs/usatlas.bnl.gov/LOCALGROUPDISK/rucio/data18_hi/9d/a4/DAOD_HION7.26257344._000010.pool.root.1 |
| data18_hi | DAOD_HION7.26257344._000011.pool.root.1 | 1.495 GB   | 1754d33d  | BNL-OSG2_LOCALGROUPDISK: davs://dcgftp.usatlas.bnl.gov:443/pnfs/usatlas.bnl.gov/LOCALGROUPDISK/rucio/data18_hi/c9/eb/DAOD_HION7.26257344._000011.pool.root.1 |
| data18_hi | DAOD_HION7.26257344._000012.pool.root.1 | 1.537 GB   | 5be12ca8  | BNL-OSG2_LOCALGROUPDISK: davs://dcgftp.usatlas.bnl.gov:443/pnfs/usatlas.bnl.gov/LOCALGROUPDISK/rucio/data18_hi/ba/f7/DAOD_HION7.26257344._000012.pool.root.1 |
| data18_hi | DAOD_HION7.26257344._000013.pool.root.1 | 1.477 GB   | d420f85b  | BNL-OSG2_LOCALGROUPDISK: davs://dcgftp.usatlas.bnl.gov:443/pnfs/usatlas.bnl.gov/LOCALGROUPDISK/rucio/data18_hi/d0/66/DAOD_HION7.26257344._000013.pool.root.1 |
| data18_hi | DAOD_HION7.26257344._000014.pool.root.1 | 1.511 GB   | cfcfab2c  | BNL-OSG2_LOCALGROUPDISK: davs://dcgftp.usatlas.bnl.gov:443/pnfs/usatlas.bnl.gov/LOCALGROUPDISK/rucio/data18_hi/0f/e0/DAOD_HION7.26257344._000014.pool.root.1 |
| data18_hi | DAOD_HION7.26257344._000015.pool.root.1 | 1.549 GB   | e7d8bb44  | BNL-OSG2_LOCALGROUPDISK: davs://dcgftp.usatlas.bnl.gov:443/pnfs/usatlas.bnl.gov/LOCALGROUPDISK/rucio/data18_hi/07/3d/DAOD_HION7.26257344._000015.pool.root.1 |
| data18_hi | DAOD_HION7.26257344._000016.pool.root.1 | 1.621 GB   | 28815ce1  | BNL-OSG2_LOCALGROUPDISK: davs://dcgftp.usatlas.bnl.gov:443/pnfs/usatlas.bnl.gov/LOCALGROUPDISK/rucio/data18_hi/67/70/DAOD_HION7.26257344._000016.pool.root.1 |
| data18_hi | DAOD_HION7.26257344._000017.pool.root.1 | 1.524 GB   | 17ef955b  | BNL-OSG2_LOCALGROUPDISK: davs://dcgftp.usatlas.bnl.gov:443/pnfs/usatlas.bnl.gov/LOCALGROUPDISK/rucio/data18_hi/16/cb/DAOD_HION7.26257344._000017.pool.root.1 |
| data18_hi | DAOD_HION7.26257344._000018.pool.root.1 | 1.543 GB   | b95a3137  | BNL-OSG2_LOCALGROUPDISK: davs://dcgftp.usatlas.bnl.gov:443/pnfs/usatlas.bnl.gov/LOCALGROUPDISK/rucio/data18_hi/1a/b7/DAOD_HION7.26257344._000018.pool.root.1 |
| data18_hi | DAOD_HION7.26257344._000019.pool.root.1 | 1.557 GB   | 40ef8a7d  | BNL-OSG2_LOCALGROUPDISK: davs://dcgftp.usatlas.bnl.gov:443/pnfs/usatlas.bnl.gov/LOCALGROUPDISK/rucio/data18_hi/a7/8b/DAOD_HION7.26257344._000019.pool.root.1 |
| data18_hi | DAOD_HION7.26257344._000020.pool.root.1 | 1.598 GB   | 326fce8f  | BNL-OSG2_LOCALGROUPDISK: davs://dcgftp.usatlas.bnl.gov:443/pnfs/usatlas.bnl.gov/LOCALGROUPDISK/rucio/data18_hi/08/e3/DAOD_HION7.26257344._000020.pool.root.1 |
| data18_hi | DAOD_HION7.26257344._000021.pool.root.1 | 1.574 GB   | 2172f5a0  | BNL-OSG2_LOCALGROUPDISK: davs://dcgftp.usatlas.bnl.gov:443/pnfs/usatlas.bnl.gov/LOCALGROUPDISK/rucio/data18_hi/69/93/DAOD_HION7.26257344._000021.pool.root.1 |
| data18_hi | DAOD_HION7.26257344._000022.pool.root.1 | 1.567 GB   | 3abd1ae2  | BNL-OSG2_LOCALGROUPDISK: davs://dcgftp.usatlas.bnl.gov:443/pnfs/usatlas.bnl.gov/LOCALGROUPDISK/rucio/data18_hi/e1/89/DAOD_HION7.26257344._000022.pool.root.1 |
| data18_hi | DAOD_HION7.26257344._000023.pool.root.1 | 1.555 GB   | eb9138e6  | BNL-OSG2_LOCALGROUPDISK: davs://dcgftp.usatlas.bnl.gov:443/pnfs/usatlas.bnl.gov/LOCALGROUPDISK/rucio/data18_hi/ce/4d/DAOD_HION7.26257344._000023.pool.root.1 |
| data18_hi | DAOD_HION7.26257344._000024.pool.root.1 | 1.585 GB   | 3885a98f  | BNL-OSG2_LOCALGROUPDISK: davs://dcgftp.usatlas.bnl.gov:443/pnfs/usatlas.bnl.gov/LOCALGROUPDISK/rucio/data18_hi/82/af/DAOD_HION7.26257344._000024.pool.root.1 |
+-----------+-----------------------------------------+------------+-----------+--------------------------------------------------------------------------------------------------------------------------------------------------------------+
