+-----------+-----------------------------------------+------------+-----------+--------------------------------------------------------------------------------------------------------------------------------------------------------------+
| SCOPE     | NAME                                    | FILESIZE   | ADLER32   | RSE: REPLICA                                                                                                                                                 |
|-----------+-----------------------------------------+------------+-----------+--------------------------------------------------------------------------------------------------------------------------------------------------------------|
| data18_hi | DAOD_HION7.26257436._000001.pool.root.1 | 6.243 GB   | f60c95f7  | BNL-OSG2_LOCALGROUPDISK: davs://dcgftp.usatlas.bnl.gov:443/pnfs/usatlas.bnl.gov/LOCALGROUPDISK/rucio/data18_hi/8d/b8/DAOD_HION7.26257436._000001.pool.root.1 |
| data18_hi | DAOD_HION7.26257436._000002.pool.root.1 | 6.594 GB   | a8bd1914  | BNL-OSG2_LOCALGROUPDISK: davs://dcgftp.usatlas.bnl.gov:443/pnfs/usatlas.bnl.gov/LOCALGROUPDISK/rucio/data18_hi/16/dc/DAOD_HION7.26257436._000002.pool.root.1 |
| data18_hi | DAOD_HION7.26257436._000003.pool.root.1 | 6.436 GB   | 38958117  | BNL-OSG2_LOCALGROUPDISK: davs://dcgftp.usatlas.bnl.gov:443/pnfs/usatlas.bnl.gov/LOCALGROUPDISK/rucio/data18_hi/e5/f2/DAOD_HION7.26257436._000003.pool.root.1 |
| data18_hi | DAOD_HION7.26257436._000004.pool.root.1 | 5.919 GB   | a009447d  | BNL-OSG2_LOCALGROUPDISK: davs://dcgftp.usatlas.bnl.gov:443/pnfs/usatlas.bnl.gov/LOCALGROUPDISK/rucio/data18_hi/70/ba/DAOD_HION7.26257436._000004.pool.root.1 |
| data18_hi | DAOD_HION7.26257436._000005.pool.root.1 | 6.508 GB   | dd542c90  | BNL-OSG2_LOCALGROUPDISK: davs://dcgftp.usatlas.bnl.gov:443/pnfs/usatlas.bnl.gov/LOCALGROUPDISK/rucio/data18_hi/82/6f/DAOD_HION7.26257436._000005.pool.root.1 |
| data18_hi | DAOD_HION7.26257436._000006.pool.root.1 | 6.585 GB   | aeb4a662  | BNL-OSG2_LOCALGROUPDISK: davs://dcgftp.usatlas.bnl.gov:443/pnfs/usatlas.bnl.gov/LOCALGROUPDISK/rucio/data18_hi/e8/49/DAOD_HION7.26257436._000006.pool.root.1 |
| data18_hi | DAOD_HION7.26257436._000007.pool.root.1 | 5.937 GB   | f7519df5  | BNL-OSG2_LOCALGROUPDISK: davs://dcgftp.usatlas.bnl.gov:443/pnfs/usatlas.bnl.gov/LOCALGROUPDISK/rucio/data18_hi/83/94/DAOD_HION7.26257436._000007.pool.root.1 |
| data18_hi | DAOD_HION7.26257436._000008.pool.root.1 | 6.596 GB   | 4092af0b  | BNL-OSG2_LOCALGROUPDISK: davs://dcgftp.usatlas.bnl.gov:443/pnfs/usatlas.bnl.gov/LOCALGROUPDISK/rucio/data18_hi/5d/48/DAOD_HION7.26257436._000008.pool.root.1 |
| data18_hi | DAOD_HION7.26257436._000009.pool.root.1 | 6.617 GB   | df63b3bf  | BNL-OSG2_LOCALGROUPDISK: davs://dcgftp.usatlas.bnl.gov:443/pnfs/usatlas.bnl.gov/LOCALGROUPDISK/rucio/data18_hi/a7/3e/DAOD_HION7.26257436._000009.pool.root.1 |
| data18_hi | DAOD_HION7.26257436._000010.pool.root.1 | 6.003 GB   | ee042854  | BNL-OSG2_LOCALGROUPDISK: davs://dcgftp.usatlas.bnl.gov:443/pnfs/usatlas.bnl.gov/LOCALGROUPDISK/rucio/data18_hi/19/65/DAOD_HION7.26257436._000010.pool.root.1 |
| data18_hi | DAOD_HION7.26257436._000011.pool.root.1 | 10.226 GB  | 5bb561b0  | BNL-OSG2_LOCALGROUPDISK: davs://dcgftp.usatlas.bnl.gov:443/pnfs/usatlas.bnl.gov/LOCALGROUPDISK/rucio/data18_hi/30/cb/DAOD_HION7.26257436._000011.pool.root.1 |
| data18_hi | DAOD_HION7.26257436._000012.pool.root.1 | 10.319 GB  | 31c0cbbf  | BNL-OSG2_LOCALGROUPDISK: davs://dcgftp.usatlas.bnl.gov:443/pnfs/usatlas.bnl.gov/LOCALGROUPDISK/rucio/data18_hi/ea/a5/DAOD_HION7.26257436._000012.pool.root.1 |
| data18_hi | DAOD_HION7.26257436._000013.pool.root.1 | 10.248 GB  | 5e996a19  | BNL-OSG2_LOCALGROUPDISK: davs://dcgftp.usatlas.bnl.gov:443/pnfs/usatlas.bnl.gov/LOCALGROUPDISK/rucio/data18_hi/8b/2f/DAOD_HION7.26257436._000013.pool.root.1 |
| data18_hi | DAOD_HION7.26257436._000014.pool.root.1 | 10.253 GB  | e55440b5  | BNL-OSG2_LOCALGROUPDISK: davs://dcgftp.usatlas.bnl.gov:443/pnfs/usatlas.bnl.gov/LOCALGROUPDISK/rucio/data18_hi/52/6f/DAOD_HION7.26257436._000014.pool.root.1 |
| data18_hi | DAOD_HION7.26257436._000015.pool.root.1 | 10.418 GB  | 2a525703  | BNL-OSG2_LOCALGROUPDISK: davs://dcgftp.usatlas.bnl.gov:443/pnfs/usatlas.bnl.gov/LOCALGROUPDISK/rucio/data18_hi/b2/b9/DAOD_HION7.26257436._000015.pool.root.1 |
| data18_hi | DAOD_HION7.26257436._000016.pool.root.1 | 10.229 GB  | 2012f9a8  | BNL-OSG2_LOCALGROUPDISK: davs://dcgftp.usatlas.bnl.gov:443/pnfs/usatlas.bnl.gov/LOCALGROUPDISK/rucio/data18_hi/49/b5/DAOD_HION7.26257436._000016.pool.root.1 |
| data18_hi | DAOD_HION7.26257436._000017.pool.root.1 | 10.302 GB  | b59e953f  | BNL-OSG2_LOCALGROUPDISK: davs://dcgftp.usatlas.bnl.gov:443/pnfs/usatlas.bnl.gov/LOCALGROUPDISK/rucio/data18_hi/5f/8e/DAOD_HION7.26257436._000017.pool.root.1 |
| data18_hi | DAOD_HION7.26257436._000018.pool.root.1 | 10.116 GB  | 648c16e3  | BNL-OSG2_LOCALGROUPDISK: davs://dcgftp.usatlas.bnl.gov:443/pnfs/usatlas.bnl.gov/LOCALGROUPDISK/rucio/data18_hi/56/2e/DAOD_HION7.26257436._000018.pool.root.1 |
| data18_hi | DAOD_HION7.26257436._000019.pool.root.1 | 9.487 GB   | 33c66b41  | BNL-OSG2_LOCALGROUPDISK: davs://dcgftp.usatlas.bnl.gov:443/pnfs/usatlas.bnl.gov/LOCALGROUPDISK/rucio/data18_hi/06/49/DAOD_HION7.26257436._000019.pool.root.1 |
| data18_hi | DAOD_HION7.26257436._000020.pool.root.1 | 9.276 GB   | 10daa87d  | BNL-OSG2_LOCALGROUPDISK: davs://dcgftp.usatlas.bnl.gov:443/pnfs/usatlas.bnl.gov/LOCALGROUPDISK/rucio/data18_hi/b3/fd/DAOD_HION7.26257436._000020.pool.root.1 |
| data18_hi | DAOD_HION7.26257436._000021.pool.root.1 | 10.522 GB  | cef36868  | BNL-OSG2_LOCALGROUPDISK: davs://dcgftp.usatlas.bnl.gov:443/pnfs/usatlas.bnl.gov/LOCALGROUPDISK/rucio/data18_hi/ce/cf/DAOD_HION7.26257436._000021.pool.root.1 |
| data18_hi | DAOD_HION7.26257436._000022.pool.root.1 | 10.210 GB  | 4a2f5909  | BNL-OSG2_LOCALGROUPDISK: davs://dcgftp.usatlas.bnl.gov:443/pnfs/usatlas.bnl.gov/LOCALGROUPDISK/rucio/data18_hi/bb/fc/DAOD_HION7.26257436._000022.pool.root.1 |
| data18_hi | DAOD_HION7.26257436._000023.pool.root.1 | 9.845 GB   | 947e8aa0  | BNL-OSG2_LOCALGROUPDISK: davs://dcgftp.usatlas.bnl.gov:443/pnfs/usatlas.bnl.gov/LOCALGROUPDISK/rucio/data18_hi/35/d2/DAOD_HION7.26257436._000023.pool.root.1 |
| data18_hi | DAOD_HION7.26257436._000024.pool.root.1 | 9.679 GB   | f48adcbe  | BNL-OSG2_LOCALGROUPDISK: davs://dcgftp.usatlas.bnl.gov:443/pnfs/usatlas.bnl.gov/LOCALGROUPDISK/rucio/data18_hi/7b/b4/DAOD_HION7.26257436._000024.pool.root.1 |
| data18_hi | DAOD_HION7.26257436._000025.pool.root.1 | 9.037 GB   | 7b5284e3  | BNL-OSG2_LOCALGROUPDISK: davs://dcgftp.usatlas.bnl.gov:443/pnfs/usatlas.bnl.gov/LOCALGROUPDISK/rucio/data18_hi/27/8c/DAOD_HION7.26257436._000025.pool.root.1 |
| data18_hi | DAOD_HION7.26257436._000026.pool.root.1 | 9.305 GB   | fa0fa4cd  | BNL-OSG2_LOCALGROUPDISK: davs://dcgftp.usatlas.bnl.gov:443/pnfs/usatlas.bnl.gov/LOCALGROUPDISK/rucio/data18_hi/18/0b/DAOD_HION7.26257436._000026.pool.root.1 |
| data18_hi | DAOD_HION7.26257436._000027.pool.root.1 | 9.190 GB   | c06be5c5  | BNL-OSG2_LOCALGROUPDISK: davs://dcgftp.usatlas.bnl.gov:443/pnfs/usatlas.bnl.gov/LOCALGROUPDISK/rucio/data18_hi/0a/64/DAOD_HION7.26257436._000027.pool.root.1 |
| data18_hi | DAOD_HION7.26257436._000028.pool.root.1 | 9.633 GB   | 47a3b84a  | BNL-OSG2_LOCALGROUPDISK: davs://dcgftp.usatlas.bnl.gov:443/pnfs/usatlas.bnl.gov/LOCALGROUPDISK/rucio/data18_hi/71/8a/DAOD_HION7.26257436._000028.pool.root.1 |
| data18_hi | DAOD_HION7.26257436._000029.pool.root.1 | 10.125 GB  | 4d7a4ec6  | BNL-OSG2_LOCALGROUPDISK: davs://dcgftp.usatlas.bnl.gov:443/pnfs/usatlas.bnl.gov/LOCALGROUPDISK/rucio/data18_hi/2e/a4/DAOD_HION7.26257436._000029.pool.root.1 |
| data18_hi | DAOD_HION7.26257436._000030.pool.root.1 | 9.797 GB   | a68b3166  | BNL-OSG2_LOCALGROUPDISK: davs://dcgftp.usatlas.bnl.gov:443/pnfs/usatlas.bnl.gov/LOCALGROUPDISK/rucio/data18_hi/78/f6/DAOD_HION7.26257436._000030.pool.root.1 |
| data18_hi | DAOD_HION7.26257436._000031.pool.root.1 | 9.520 GB   | a1f0bb36  | BNL-OSG2_LOCALGROUPDISK: davs://dcgftp.usatlas.bnl.gov:443/pnfs/usatlas.bnl.gov/LOCALGROUPDISK/rucio/data18_hi/51/58/DAOD_HION7.26257436._000031.pool.root.1 |
| data18_hi | DAOD_HION7.26257436._000032.pool.root.1 | 9.312 GB   | 0a0de9e9  | BNL-OSG2_LOCALGROUPDISK: davs://dcgftp.usatlas.bnl.gov:443/pnfs/usatlas.bnl.gov/LOCALGROUPDISK/rucio/data18_hi/00/cc/DAOD_HION7.26257436._000032.pool.root.1 |
| data18_hi | DAOD_HION7.26257436._000034.pool.root.1 | 9.872 GB   | f1ba9a0a  | BNL-OSG2_LOCALGROUPDISK: davs://dcgftp.usatlas.bnl.gov:443/pnfs/usatlas.bnl.gov/LOCALGROUPDISK/rucio/data18_hi/ac/4f/DAOD_HION7.26257436._000034.pool.root.1 |
| data18_hi | DAOD_HION7.26257436._000035.pool.root.1 | 10.027 GB  | 01f88079  | BNL-OSG2_LOCALGROUPDISK: davs://dcgftp.usatlas.bnl.gov:443/pnfs/usatlas.bnl.gov/LOCALGROUPDISK/rucio/data18_hi/6a/16/DAOD_HION7.26257436._000035.pool.root.1 |
| data18_hi | DAOD_HION7.26257436._000036.pool.root.1 | 9.733 GB   | a04fd4a3  | BNL-OSG2_LOCALGROUPDISK: davs://dcgftp.usatlas.bnl.gov:443/pnfs/usatlas.bnl.gov/LOCALGROUPDISK/rucio/data18_hi/12/d2/DAOD_HION7.26257436._000036.pool.root.1 |
| data18_hi | DAOD_HION7.26257436._000037.pool.root.1 | 9.232 GB   | f9cc7329  | BNL-OSG2_LOCALGROUPDISK: davs://dcgftp.usatlas.bnl.gov:443/pnfs/usatlas.bnl.gov/LOCALGROUPDISK/rucio/data18_hi/13/34/DAOD_HION7.26257436._000037.pool.root.1 |
| data18_hi | DAOD_HION7.26257436._000038.pool.root.1 | 9.483 GB   | f7d59e29  | BNL-OSG2_LOCALGROUPDISK: davs://dcgftp.usatlas.bnl.gov:443/pnfs/usatlas.bnl.gov/LOCALGROUPDISK/rucio/data18_hi/ba/92/DAOD_HION7.26257436._000038.pool.root.1 |
| data18_hi | DAOD_HION7.26257436._000039.pool.root.1 | 9.300 GB   | df12d690  | BNL-OSG2_LOCALGROUPDISK: davs://dcgftp.usatlas.bnl.gov:443/pnfs/usatlas.bnl.gov/LOCALGROUPDISK/rucio/data18_hi/c7/8c/DAOD_HION7.26257436._000039.pool.root.1 |
| data18_hi | DAOD_HION7.26257436._000040.pool.root.1 | 9.736 GB   | 7602a529  | BNL-OSG2_LOCALGROUPDISK: davs://dcgftp.usatlas.bnl.gov:443/pnfs/usatlas.bnl.gov/LOCALGROUPDISK/rucio/data18_hi/76/dc/DAOD_HION7.26257436._000040.pool.root.1 |
| data18_hi | DAOD_HION7.26257436._000041.pool.root.1 | 9.803 GB   | 87acaea0  | BNL-OSG2_LOCALGROUPDISK: davs://dcgftp.usatlas.bnl.gov:443/pnfs/usatlas.bnl.gov/LOCALGROUPDISK/rucio/data18_hi/53/48/DAOD_HION7.26257436._000041.pool.root.1 |
| data18_hi | DAOD_HION7.26257436._000042.pool.root.1 | 9.466 GB   | 50714950  | BNL-OSG2_LOCALGROUPDISK: davs://dcgftp.usatlas.bnl.gov:443/pnfs/usatlas.bnl.gov/LOCALGROUPDISK/rucio/data18_hi/a0/39/DAOD_HION7.26257436._000042.pool.root.1 |
| data18_hi | DAOD_HION7.26257436._000043.pool.root.1 | 9.158 GB   | b17a454d  | BNL-OSG2_LOCALGROUPDISK: davs://dcgftp.usatlas.bnl.gov:443/pnfs/usatlas.bnl.gov/LOCALGROUPDISK/rucio/data18_hi/e0/a9/DAOD_HION7.26257436._000043.pool.root.1 |
| data18_hi | DAOD_HION7.26257436._000044.pool.root.1 | 9.052 GB   | 8db8c8dc  | BNL-OSG2_LOCALGROUPDISK: davs://dcgftp.usatlas.bnl.gov:443/pnfs/usatlas.bnl.gov/LOCALGROUPDISK/rucio/data18_hi/d2/46/DAOD_HION7.26257436._000044.pool.root.1 |
| data18_hi | DAOD_HION7.26257436._000045.pool.root.1 | 10.375 GB  | 129d0863  | BNL-OSG2_LOCALGROUPDISK: davs://dcgftp.usatlas.bnl.gov:443/pnfs/usatlas.bnl.gov/LOCALGROUPDISK/rucio/data18_hi/9a/f3/DAOD_HION7.26257436._000045.pool.root.1 |
| data18_hi | DAOD_HION7.26257436._000046.pool.root.1 | 10.136 GB  | 181042cf  | BNL-OSG2_LOCALGROUPDISK: davs://dcgftp.usatlas.bnl.gov:443/pnfs/usatlas.bnl.gov/LOCALGROUPDISK/rucio/data18_hi/ac/47/DAOD_HION7.26257436._000046.pool.root.1 |
| data18_hi | DAOD_HION7.26257436._000047.pool.root.1 | 10.163 GB  | b14c8820  | BNL-OSG2_LOCALGROUPDISK: davs://dcgftp.usatlas.bnl.gov:443/pnfs/usatlas.bnl.gov/LOCALGROUPDISK/rucio/data18_hi/fa/f6/DAOD_HION7.26257436._000047.pool.root.1 |
| data18_hi | DAOD_HION7.26257436._000048.pool.root.1 | 9.270 GB   | 72cc3b2d  | BNL-OSG2_LOCALGROUPDISK: davs://dcgftp.usatlas.bnl.gov:443/pnfs/usatlas.bnl.gov/LOCALGROUPDISK/rucio/data18_hi/59/1f/DAOD_HION7.26257436._000048.pool.root.1 |
| data18_hi | DAOD_HION7.26257436._000049.pool.root.1 | 9.925 GB   | 5c73c288  | BNL-OSG2_LOCALGROUPDISK: davs://dcgftp.usatlas.bnl.gov:443/pnfs/usatlas.bnl.gov/LOCALGROUPDISK/rucio/data18_hi/92/c7/DAOD_HION7.26257436._000049.pool.root.1 |
| data18_hi | DAOD_HION7.26257436._000050.pool.root.1 | 9.841 GB   | d8fdf599  | BNL-OSG2_LOCALGROUPDISK: davs://dcgftp.usatlas.bnl.gov:443/pnfs/usatlas.bnl.gov/LOCALGROUPDISK/rucio/data18_hi/75/7c/DAOD_HION7.26257436._000050.pool.root.1 |
| data18_hi | DAOD_HION7.26257436._000051.pool.root.1 | 9.707 GB   | 7a23af1a  | BNL-OSG2_LOCALGROUPDISK: davs://dcgftp.usatlas.bnl.gov:443/pnfs/usatlas.bnl.gov/LOCALGROUPDISK/rucio/data18_hi/96/55/DAOD_HION7.26257436._000051.pool.root.1 |
| data18_hi | DAOD_HION7.26257436._000052.pool.root.1 | 9.497 GB   | d2e61218  | BNL-OSG2_LOCALGROUPDISK: davs://dcgftp.usatlas.bnl.gov:443/pnfs/usatlas.bnl.gov/LOCALGROUPDISK/rucio/data18_hi/17/fa/DAOD_HION7.26257436._000052.pool.root.1 |
| data18_hi | DAOD_HION7.26257436._000053.pool.root.1 | 9.354 GB   | ba77c2b5  | BNL-OSG2_LOCALGROUPDISK: davs://dcgftp.usatlas.bnl.gov:443/pnfs/usatlas.bnl.gov/LOCALGROUPDISK/rucio/data18_hi/5a/b4/DAOD_HION7.26257436._000053.pool.root.1 |
| data18_hi | DAOD_HION7.26257436._000054.pool.root.1 | 9.325 GB   | f555bf46  | BNL-OSG2_LOCALGROUPDISK: davs://dcgftp.usatlas.bnl.gov:443/pnfs/usatlas.bnl.gov/LOCALGROUPDISK/rucio/data18_hi/b5/44/DAOD_HION7.26257436._000054.pool.root.1 |
| data18_hi | DAOD_HION7.26257436._000055.pool.root.1 | 10.482 GB  | 2976a410  | BNL-OSG2_LOCALGROUPDISK: davs://dcgftp.usatlas.bnl.gov:443/pnfs/usatlas.bnl.gov/LOCALGROUPDISK/rucio/data18_hi/ca/02/DAOD_HION7.26257436._000055.pool.root.1 |
| data18_hi | DAOD_HION7.26257436._000056.pool.root.1 | 10.002 GB  | 9f660e44  | BNL-OSG2_LOCALGROUPDISK: davs://dcgftp.usatlas.bnl.gov:443/pnfs/usatlas.bnl.gov/LOCALGROUPDISK/rucio/data18_hi/17/a6/DAOD_HION7.26257436._000056.pool.root.1 |
| data18_hi | DAOD_HION7.26257436._000057.pool.root.1 | 5.956 GB   | 28f0bea0  | BNL-OSG2_LOCALGROUPDISK: davs://dcgftp.usatlas.bnl.gov:443/pnfs/usatlas.bnl.gov/LOCALGROUPDISK/rucio/data18_hi/a2/9a/DAOD_HION7.26257436._000057.pool.root.1 |
| data18_hi | DAOD_HION7.26257436._000058.pool.root.1 | 9.187 GB   | ece7809e  | BNL-OSG2_LOCALGROUPDISK: davs://dcgftp.usatlas.bnl.gov:443/pnfs/usatlas.bnl.gov/LOCALGROUPDISK/rucio/data18_hi/a0/7b/DAOD_HION7.26257436._000058.pool.root.1 |
+-----------+-----------------------------------------+------------+-----------+--------------------------------------------------------------------------------------------------------------------------------------------------------------+
