+---------+--------+------------+-----------+----------------+
| SCOPE   | NAME   | FILESIZE   | ADLER32   | RSE: REPLICA   |
|---------+--------+------------+-----------+----------------|
+---------+--------+------------+-----------+----------------+
