+-----------+-----------------------------------------+------------+-----------+--------------------------------------------------------------------------------------------------------------------------------------------------------------+
| SCOPE     | NAME                                    | FILESIZE   | ADLER32   | RSE: REPLICA                                                                                                                                                 |
|-----------+-----------------------------------------+------------+-----------+--------------------------------------------------------------------------------------------------------------------------------------------------------------|
| data18_hi | DAOD_HION7.26257401._000001.pool.root.1 | 328.926 MB | 7a9bf13d  | BNL-OSG2_LOCALGROUPDISK: davs://dcgftp.usatlas.bnl.gov:443/pnfs/usatlas.bnl.gov/LOCALGROUPDISK/rucio/data18_hi/fc/ba/DAOD_HION7.26257401._000001.pool.root.1 |
| data18_hi | DAOD_HION7.26257401._000002.pool.root.1 | 337.961 MB | 3f591d9f  | BNL-OSG2_LOCALGROUPDISK: davs://dcgftp.usatlas.bnl.gov:443/pnfs/usatlas.bnl.gov/LOCALGROUPDISK/rucio/data18_hi/32/02/DAOD_HION7.26257401._000002.pool.root.1 |
| data18_hi | DAOD_HION7.26257401._000003.pool.root.1 | 341.167 MB | 6097c44c  | BNL-OSG2_LOCALGROUPDISK: davs://dcgftp.usatlas.bnl.gov:443/pnfs/usatlas.bnl.gov/LOCALGROUPDISK/rucio/data18_hi/3e/b9/DAOD_HION7.26257401._000003.pool.root.1 |
| data18_hi | DAOD_HION7.26257401._000004.pool.root.1 | 341.319 MB | 9f1820be  | BNL-OSG2_LOCALGROUPDISK: davs://dcgftp.usatlas.bnl.gov:443/pnfs/usatlas.bnl.gov/LOCALGROUPDISK/rucio/data18_hi/49/73/DAOD_HION7.26257401._000004.pool.root.1 |
| data18_hi | DAOD_HION7.26257401._000005.pool.root.1 | 122.411 MB | 2ce0338b  | BNL-OSG2_LOCALGROUPDISK: davs://dcgftp.usatlas.bnl.gov:443/pnfs/usatlas.bnl.gov/LOCALGROUPDISK/rucio/data18_hi/de/79/DAOD_HION7.26257401._000005.pool.root.1 |
+-----------+-----------------------------------------+------------+-----------+--------------------------------------------------------------------------------------------------------------------------------------------------------------+
