/pnfs/usatlas.bnl.gov/LOCALGROUPDISK/rucio/data18_hi/5a/8b/DAOD_HION7.22699924._000001.pool.root.1
/pnfs/usatlas.bnl.gov/LOCALGROUPDISK/rucio/data18_hi/4b/a7/DAOD_HION7.22699924._000002.pool.root.1
/pnfs/usatlas.bnl.gov/LOCALGROUPDISK/rucio/data18_hi/b9/59/DAOD_HION7.22699924._000003.pool.root.1
/pnfs/usatlas.bnl.gov/LOCALGROUPDISK/rucio/data18_hi/bd/c6/DAOD_HION7.22699924._000004.pool.root.1
/pnfs/usatlas.bnl.gov/LOCALGROUPDISK/rucio/data18_hi/21/8f/DAOD_HION7.22699924._000005.pool.root.1
/pnfs/usatlas.bnl.gov/LOCALGROUPDISK/rucio/data18_hi/10/e4/DAOD_HION7.22699924._000006.pool.root.1
/pnfs/usatlas.bnl.gov/LOCALGROUPDISK/rucio/data18_hi/6c/47/DAOD_HION7.22699924._000007.pool.root.1
/pnfs/usatlas.bnl.gov/LOCALGROUPDISK/rucio/data18_hi/35/f5/DAOD_HION7.22699924._000008.pool.root.1
/pnfs/usatlas.bnl.gov/LOCALGROUPDISK/rucio/data18_hi/27/96/DAOD_HION7.22699924._000009.pool.root.1
/pnfs/usatlas.bnl.gov/LOCALGROUPDISK/rucio/data18_hi/5a/8b/DAOD_HION7.22699924._000001.pool.root.1
/pnfs/usatlas.bnl.gov/LOCALGROUPDISK/rucio/data18_hi/4b/a7/DAOD_HION7.22699924._000002.pool.root.1
/pnfs/usatlas.bnl.gov/LOCALGROUPDISK/rucio/data18_hi/b9/59/DAOD_HION7.22699924._000003.pool.root.1
/pnfs/usatlas.bnl.gov/LOCALGROUPDISK/rucio/data18_hi/bd/c6/DAOD_HION7.22699924._000004.pool.root.1
/pnfs/usatlas.bnl.gov/LOCALGROUPDISK/rucio/data18_hi/21/8f/DAOD_HION7.22699924._000005.pool.root.1
/pnfs/usatlas.bnl.gov/LOCALGROUPDISK/rucio/data18_hi/10/e4/DAOD_HION7.22699924._000006.pool.root.1
/pnfs/usatlas.bnl.gov/LOCALGROUPDISK/rucio/data18_hi/6c/47/DAOD_HION7.22699924._000007.pool.root.1
/pnfs/usatlas.bnl.gov/LOCALGROUPDISK/rucio/data18_hi/35/f5/DAOD_HION7.22699924._000008.pool.root.1
/pnfs/usatlas.bnl.gov/LOCALGROUPDISK/rucio/data18_hi/27/96/DAOD_HION7.22699924._000009.pool.root.1
/pnfs/usatlas.bnl.gov/LOCALGROUPDISK/rucio/data18_hi/5a/8b/DAOD_HION7.22699924._000001.pool.root.1
/pnfs/usatlas.bnl.gov/LOCALGROUPDISK/rucio/data18_hi/4b/a7/DAOD_HION7.22699924._000002.pool.root.1
/pnfs/usatlas.bnl.gov/LOCALGROUPDISK/rucio/data18_hi/b9/59/DAOD_HION7.22699924._000003.pool.root.1
/pnfs/usatlas.bnl.gov/LOCALGROUPDISK/rucio/data18_hi/bd/c6/DAOD_HION7.22699924._000004.pool.root.1
/pnfs/usatlas.bnl.gov/LOCALGROUPDISK/rucio/data18_hi/21/8f/DAOD_HION7.22699924._000005.pool.root.1
/pnfs/usatlas.bnl.gov/LOCALGROUPDISK/rucio/data18_hi/10/e4/DAOD_HION7.22699924._000006.pool.root.1
/pnfs/usatlas.bnl.gov/LOCALGROUPDISK/rucio/data18_hi/6c/47/DAOD_HION7.22699924._000007.pool.root.1
/pnfs/usatlas.bnl.gov/LOCALGROUPDISK/rucio/data18_hi/35/f5/DAOD_HION7.22699924._000008.pool.root.1
/pnfs/usatlas.bnl.gov/LOCALGROUPDISK/rucio/data18_hi/27/96/DAOD_HION7.22699924._000009.pool.root.1
