+-----------+-----------------------------------------+------------+-----------+--------------------------------------------------------------------------------------------------------------------------------------------------------------+
| SCOPE     | NAME                                    | FILESIZE   | ADLER32   | RSE: REPLICA                                                                                                                                                 |
|-----------+-----------------------------------------+------------+-----------+--------------------------------------------------------------------------------------------------------------------------------------------------------------|
| data18_hi | DAOD_HION7.26257428._000006.pool.root.1 | 5.977 GB   | b6632ff7  | BNL-OSG2_LOCALGROUPDISK: davs://dcgftp.usatlas.bnl.gov:443/pnfs/usatlas.bnl.gov/LOCALGROUPDISK/rucio/data18_hi/1d/15/DAOD_HION7.26257428._000006.pool.root.1 |
| data18_hi | DAOD_HION7.26257428._000008.pool.root.1 | 6.240 GB   | 53b54db1  | BNL-OSG2_LOCALGROUPDISK: davs://dcgftp.usatlas.bnl.gov:443/pnfs/usatlas.bnl.gov/LOCALGROUPDISK/rucio/data18_hi/33/6a/DAOD_HION7.26257428._000008.pool.root.1 |
| data18_hi | DAOD_HION7.26257428._000009.pool.root.1 | 6.197 GB   | 60a2fb2d  | BNL-OSG2_LOCALGROUPDISK: davs://dcgftp.usatlas.bnl.gov:443/pnfs/usatlas.bnl.gov/LOCALGROUPDISK/rucio/data18_hi/68/5a/DAOD_HION7.26257428._000009.pool.root.1 |
| data18_hi | DAOD_HION7.26257428._000117.pool.root.1 | 9.429 GB   | 9ff7a685  | BNL-OSG2_LOCALGROUPDISK: davs://dcgftp.usatlas.bnl.gov:443/pnfs/usatlas.bnl.gov/LOCALGROUPDISK/rucio/data18_hi/d2/df/DAOD_HION7.26257428._000117.pool.root.1 |
| data18_hi | DAOD_HION7.26257428._000138.pool.root.1 | 9.814 GB   | e010ec3d  | BNL-OSG2_LOCALGROUPDISK: davs://dcgftp.usatlas.bnl.gov:443/pnfs/usatlas.bnl.gov/LOCALGROUPDISK/rucio/data18_hi/a9/88/DAOD_HION7.26257428._000138.pool.root.1 |
| data18_hi | DAOD_HION7.26257428._000155.pool.root.1 | 9.677 GB   | 9fb100b1  | BNL-OSG2_LOCALGROUPDISK: davs://dcgftp.usatlas.bnl.gov:443/pnfs/usatlas.bnl.gov/LOCALGROUPDISK/rucio/data18_hi/36/f6/DAOD_HION7.26257428._000155.pool.root.1 |
| data18_hi | DAOD_HION7.26257428._000241.pool.root.1 | 10.331 GB  | 514d8396  | BNL-OSG2_LOCALGROUPDISK: davs://dcgftp.usatlas.bnl.gov:443/pnfs/usatlas.bnl.gov/LOCALGROUPDISK/rucio/data18_hi/28/5f/DAOD_HION7.26257428._000241.pool.root.1 |
| data18_hi | DAOD_HION7.26257428._000251.pool.root.1 | 9.645 GB   | 64878f97  | BNL-OSG2_LOCALGROUPDISK: davs://dcgftp.usatlas.bnl.gov:443/pnfs/usatlas.bnl.gov/LOCALGROUPDISK/rucio/data18_hi/e3/5b/DAOD_HION7.26257428._000251.pool.root.1 |
| data18_hi | DAOD_HION7.26257428._000257.pool.root.1 | 9.979 GB   | 0399bdc4  | BNL-OSG2_LOCALGROUPDISK: davs://dcgftp.usatlas.bnl.gov:443/pnfs/usatlas.bnl.gov/LOCALGROUPDISK/rucio/data18_hi/41/d2/DAOD_HION7.26257428._000257.pool.root.1 |
| data18_hi | DAOD_HION7.26257428._000917.pool.root.1 | 10.084 GB  | 51efda03  | BNL-OSG2_LOCALGROUPDISK: davs://dcgftp.usatlas.bnl.gov:443/pnfs/usatlas.bnl.gov/LOCALGROUPDISK/rucio/data18_hi/f7/35/DAOD_HION7.26257428._000917.pool.root.1 |
| data18_hi | DAOD_HION7.26257428._000919.pool.root.1 | 9.334 GB   | 3f8b5431  | BNL-OSG2_LOCALGROUPDISK: davs://dcgftp.usatlas.bnl.gov:443/pnfs/usatlas.bnl.gov/LOCALGROUPDISK/rucio/data18_hi/97/ed/DAOD_HION7.26257428._000919.pool.root.1 |
| data18_hi | DAOD_HION7.26257428._001309.pool.root.1 | 9.812 GB   | 759882d9  | BNL-OSG2_LOCALGROUPDISK: davs://dcgftp.usatlas.bnl.gov:443/pnfs/usatlas.bnl.gov/LOCALGROUPDISK/rucio/data18_hi/eb/3a/DAOD_HION7.26257428._001309.pool.root.1 |
| data18_hi | DAOD_HION7.26257428._001310.pool.root.1 | 10.049 GB  | e48b7e52  | BNL-OSG2_LOCALGROUPDISK: davs://dcgftp.usatlas.bnl.gov:443/pnfs/usatlas.bnl.gov/LOCALGROUPDISK/rucio/data18_hi/16/34/DAOD_HION7.26257428._001310.pool.root.1 |
| data18_hi | DAOD_HION7.26257428._001311.pool.root.1 | 10.496 GB  | 041c1d0c  | BNL-OSG2_LOCALGROUPDISK: davs://dcgftp.usatlas.bnl.gov:443/pnfs/usatlas.bnl.gov/LOCALGROUPDISK/rucio/data18_hi/e4/5c/DAOD_HION7.26257428._001311.pool.root.1 |
| data18_hi | DAOD_HION7.26257428._001312.pool.root.1 | 9.727 GB   | dd8785f7  | BNL-OSG2_LOCALGROUPDISK: davs://dcgftp.usatlas.bnl.gov:443/pnfs/usatlas.bnl.gov/LOCALGROUPDISK/rucio/data18_hi/3a/7e/DAOD_HION7.26257428._001312.pool.root.1 |
| data18_hi | DAOD_HION7.26257428._001313.pool.root.1 | 10.464 GB  | 45771ef5  | BNL-OSG2_LOCALGROUPDISK: davs://dcgftp.usatlas.bnl.gov:443/pnfs/usatlas.bnl.gov/LOCALGROUPDISK/rucio/data18_hi/b7/b8/DAOD_HION7.26257428._001313.pool.root.1 |
| data18_hi | DAOD_HION7.26257428._001314.pool.root.1 | 10.518 GB  | e210f4ac  | BNL-OSG2_LOCALGROUPDISK: davs://dcgftp.usatlas.bnl.gov:443/pnfs/usatlas.bnl.gov/LOCALGROUPDISK/rucio/data18_hi/1e/d1/DAOD_HION7.26257428._001314.pool.root.1 |
| data18_hi | DAOD_HION7.26257428._001315.pool.root.1 | 9.471 GB   | b2676108  | BNL-OSG2_LOCALGROUPDISK: davs://dcgftp.usatlas.bnl.gov:443/pnfs/usatlas.bnl.gov/LOCALGROUPDISK/rucio/data18_hi/3a/89/DAOD_HION7.26257428._001315.pool.root.1 |
| data18_hi | DAOD_HION7.26257428._001316.pool.root.1 | 10.229 GB  | 01eea881  | BNL-OSG2_LOCALGROUPDISK: davs://dcgftp.usatlas.bnl.gov:443/pnfs/usatlas.bnl.gov/LOCALGROUPDISK/rucio/data18_hi/27/16/DAOD_HION7.26257428._001316.pool.root.1 |
| data18_hi | DAOD_HION7.26257428._001317.pool.root.1 | 10.554 GB  | d99eaf05  | BNL-OSG2_LOCALGROUPDISK: davs://dcgftp.usatlas.bnl.gov:443/pnfs/usatlas.bnl.gov/LOCALGROUPDISK/rucio/data18_hi/46/77/DAOD_HION7.26257428._001317.pool.root.1 |
| data18_hi | DAOD_HION7.26257428._001318.pool.root.1 | 10.441 GB  | 3ac2e613  | BNL-OSG2_LOCALGROUPDISK: davs://dcgftp.usatlas.bnl.gov:443/pnfs/usatlas.bnl.gov/LOCALGROUPDISK/rucio/data18_hi/22/eb/DAOD_HION7.26257428._001318.pool.root.1 |
| data18_hi | DAOD_HION7.26257428._001319.pool.root.1 | 10.279 GB  | 005e6315  | BNL-OSG2_LOCALGROUPDISK: davs://dcgftp.usatlas.bnl.gov:443/pnfs/usatlas.bnl.gov/LOCALGROUPDISK/rucio/data18_hi/b3/66/DAOD_HION7.26257428._001319.pool.root.1 |
| data18_hi | DAOD_HION7.26257428._001320.pool.root.1 | 10.112 GB  | 954bb528  | BNL-OSG2_LOCALGROUPDISK: davs://dcgftp.usatlas.bnl.gov:443/pnfs/usatlas.bnl.gov/LOCALGROUPDISK/rucio/data18_hi/0f/03/DAOD_HION7.26257428._001320.pool.root.1 |
| data18_hi | DAOD_HION7.26257428._001321.pool.root.1 | 10.239 GB  | fa1f8c94  | BNL-OSG2_LOCALGROUPDISK: davs://dcgftp.usatlas.bnl.gov:443/pnfs/usatlas.bnl.gov/LOCALGROUPDISK/rucio/data18_hi/f2/f0/DAOD_HION7.26257428._001321.pool.root.1 |
| data18_hi | DAOD_HION7.26257428._001322.pool.root.1 | 9.752 GB   | d2772c24  | BNL-OSG2_LOCALGROUPDISK: davs://dcgftp.usatlas.bnl.gov:443/pnfs/usatlas.bnl.gov/LOCALGROUPDISK/rucio/data18_hi/64/bc/DAOD_HION7.26257428._001322.pool.root.1 |
| data18_hi | DAOD_HION7.26257428._001323.pool.root.1 | 9.991 GB   | 80f0f161  | BNL-OSG2_LOCALGROUPDISK: davs://dcgftp.usatlas.bnl.gov:443/pnfs/usatlas.bnl.gov/LOCALGROUPDISK/rucio/data18_hi/ba/40/DAOD_HION7.26257428._001323.pool.root.1 |
| data18_hi | DAOD_HION7.26257428._001324.pool.root.1 | 9.926 GB   | 418f292c  | BNL-OSG2_LOCALGROUPDISK: davs://dcgftp.usatlas.bnl.gov:443/pnfs/usatlas.bnl.gov/LOCALGROUPDISK/rucio/data18_hi/f4/9d/DAOD_HION7.26257428._001324.pool.root.1 |
| data18_hi | DAOD_HION7.26257428._001325.pool.root.1 | 9.820 GB   | f8a30cff  | BNL-OSG2_LOCALGROUPDISK: davs://dcgftp.usatlas.bnl.gov:443/pnfs/usatlas.bnl.gov/LOCALGROUPDISK/rucio/data18_hi/45/7c/DAOD_HION7.26257428._001325.pool.root.1 |
| data18_hi | DAOD_HION7.26257428._001326.pool.root.1 | 9.841 GB   | 8b20d8d6  | BNL-OSG2_LOCALGROUPDISK: davs://dcgftp.usatlas.bnl.gov:443/pnfs/usatlas.bnl.gov/LOCALGROUPDISK/rucio/data18_hi/b8/38/DAOD_HION7.26257428._001326.pool.root.1 |
| data18_hi | DAOD_HION7.26257428._001327.pool.root.1 | 10.391 GB  | 5e1564ec  | BNL-OSG2_LOCALGROUPDISK: davs://dcgftp.usatlas.bnl.gov:443/pnfs/usatlas.bnl.gov/LOCALGROUPDISK/rucio/data18_hi/09/8b/DAOD_HION7.26257428._001327.pool.root.1 |
| data18_hi | DAOD_HION7.26257428._001328.pool.root.1 | 9.589 GB   | a4f583e6  | BNL-OSG2_LOCALGROUPDISK: davs://dcgftp.usatlas.bnl.gov:443/pnfs/usatlas.bnl.gov/LOCALGROUPDISK/rucio/data18_hi/10/e0/DAOD_HION7.26257428._001328.pool.root.1 |
| data18_hi | DAOD_HION7.26257428._001329.pool.root.1 | 9.566 GB   | 28a2bfdd  | BNL-OSG2_LOCALGROUPDISK: davs://dcgftp.usatlas.bnl.gov:443/pnfs/usatlas.bnl.gov/LOCALGROUPDISK/rucio/data18_hi/f6/d5/DAOD_HION7.26257428._001329.pool.root.1 |
| data18_hi | DAOD_HION7.26257428._001330.pool.root.1 | 9.584 GB   | 396c6821  | BNL-OSG2_LOCALGROUPDISK: davs://dcgftp.usatlas.bnl.gov:443/pnfs/usatlas.bnl.gov/LOCALGROUPDISK/rucio/data18_hi/63/7e/DAOD_HION7.26257428._001330.pool.root.1 |
| data18_hi | DAOD_HION7.26257428._001331.pool.root.1 | 9.708 GB   | 7228a644  | BNL-OSG2_LOCALGROUPDISK: davs://dcgftp.usatlas.bnl.gov:443/pnfs/usatlas.bnl.gov/LOCALGROUPDISK/rucio/data18_hi/5e/cb/DAOD_HION7.26257428._001331.pool.root.1 |
| data18_hi | DAOD_HION7.26257428._001332.pool.root.1 | 9.951 GB   | 0c0b20bf  | BNL-OSG2_LOCALGROUPDISK: davs://dcgftp.usatlas.bnl.gov:443/pnfs/usatlas.bnl.gov/LOCALGROUPDISK/rucio/data18_hi/d2/e2/DAOD_HION7.26257428._001332.pool.root.1 |
| data18_hi | DAOD_HION7.26257428._001333.pool.root.1 | 9.906 GB   | d6814ada  | BNL-OSG2_LOCALGROUPDISK: davs://dcgftp.usatlas.bnl.gov:443/pnfs/usatlas.bnl.gov/LOCALGROUPDISK/rucio/data18_hi/1e/fb/DAOD_HION7.26257428._001333.pool.root.1 |
| data18_hi | DAOD_HION7.26257428._001334.pool.root.1 | 9.327 GB   | a8b7868c  | BNL-OSG2_LOCALGROUPDISK: davs://dcgftp.usatlas.bnl.gov:443/pnfs/usatlas.bnl.gov/LOCALGROUPDISK/rucio/data18_hi/23/fb/DAOD_HION7.26257428._001334.pool.root.1 |
| data18_hi | DAOD_HION7.26257428._001335.pool.root.1 | 9.731 GB   | 3c62009b  | BNL-OSG2_LOCALGROUPDISK: davs://dcgftp.usatlas.bnl.gov:443/pnfs/usatlas.bnl.gov/LOCALGROUPDISK/rucio/data18_hi/6b/2d/DAOD_HION7.26257428._001335.pool.root.1 |
| data18_hi | DAOD_HION7.26257428._001336.pool.root.1 | 10.353 GB  | ee7ed713  | BNL-OSG2_LOCALGROUPDISK: davs://dcgftp.usatlas.bnl.gov:443/pnfs/usatlas.bnl.gov/LOCALGROUPDISK/rucio/data18_hi/b0/91/DAOD_HION7.26257428._001336.pool.root.1 |
| data18_hi | DAOD_HION7.26257428._001337.pool.root.1 | 9.630 GB   | c6423c54  | BNL-OSG2_LOCALGROUPDISK: davs://dcgftp.usatlas.bnl.gov:443/pnfs/usatlas.bnl.gov/LOCALGROUPDISK/rucio/data18_hi/1a/5d/DAOD_HION7.26257428._001337.pool.root.1 |
| data18_hi | DAOD_HION7.26257428._001338.pool.root.1 | 9.504 GB   | bedfa8d0  | BNL-OSG2_LOCALGROUPDISK: davs://dcgftp.usatlas.bnl.gov:443/pnfs/usatlas.bnl.gov/LOCALGROUPDISK/rucio/data18_hi/e1/ab/DAOD_HION7.26257428._001338.pool.root.1 |
| data18_hi | DAOD_HION7.26257428._001339.pool.root.1 | 10.159 GB  | d2af6b3d  | BNL-OSG2_LOCALGROUPDISK: davs://dcgftp.usatlas.bnl.gov:443/pnfs/usatlas.bnl.gov/LOCALGROUPDISK/rucio/data18_hi/bc/9a/DAOD_HION7.26257428._001339.pool.root.1 |
| data18_hi | DAOD_HION7.26257428._001340.pool.root.1 | 10.550 GB  | 3a2bfaf3  | BNL-OSG2_LOCALGROUPDISK: davs://dcgftp.usatlas.bnl.gov:443/pnfs/usatlas.bnl.gov/LOCALGROUPDISK/rucio/data18_hi/82/7b/DAOD_HION7.26257428._001340.pool.root.1 |
| data18_hi | DAOD_HION7.26257428._001341.pool.root.1 | 10.465 GB  | 37aa3ad3  | BNL-OSG2_LOCALGROUPDISK: davs://dcgftp.usatlas.bnl.gov:443/pnfs/usatlas.bnl.gov/LOCALGROUPDISK/rucio/data18_hi/59/d9/DAOD_HION7.26257428._001341.pool.root.1 |
| data18_hi | DAOD_HION7.26257428._001342.pool.root.1 | 10.144 GB  | ace91f86  | BNL-OSG2_LOCALGROUPDISK: davs://dcgftp.usatlas.bnl.gov:443/pnfs/usatlas.bnl.gov/LOCALGROUPDISK/rucio/data18_hi/ec/b4/DAOD_HION7.26257428._001342.pool.root.1 |
| data18_hi | DAOD_HION7.26257428._001343.pool.root.1 | 10.284 GB  | 64d2a5c6  | BNL-OSG2_LOCALGROUPDISK: davs://dcgftp.usatlas.bnl.gov:443/pnfs/usatlas.bnl.gov/LOCALGROUPDISK/rucio/data18_hi/ab/87/DAOD_HION7.26257428._001343.pool.root.1 |
| data18_hi | DAOD_HION7.26257428._001344.pool.root.1 | 9.716 GB   | 2b57b35a  | BNL-OSG2_LOCALGROUPDISK: davs://dcgftp.usatlas.bnl.gov:443/pnfs/usatlas.bnl.gov/LOCALGROUPDISK/rucio/data18_hi/1b/6a/DAOD_HION7.26257428._001344.pool.root.1 |
| data18_hi | DAOD_HION7.26257428._001345.pool.root.1 | 9.985 GB   | e7b5adf1  | BNL-OSG2_LOCALGROUPDISK: davs://dcgftp.usatlas.bnl.gov:443/pnfs/usatlas.bnl.gov/LOCALGROUPDISK/rucio/data18_hi/90/23/DAOD_HION7.26257428._001345.pool.root.1 |
| data18_hi | DAOD_HION7.26257428._001346.pool.root.1 | 9.932 GB   | f1f775e9  | BNL-OSG2_LOCALGROUPDISK: davs://dcgftp.usatlas.bnl.gov:443/pnfs/usatlas.bnl.gov/LOCALGROUPDISK/rucio/data18_hi/3c/db/DAOD_HION7.26257428._001346.pool.root.1 |
| data18_hi | DAOD_HION7.26257428._001347.pool.root.1 | 9.923 GB   | 9c654634  | BNL-OSG2_LOCALGROUPDISK: davs://dcgftp.usatlas.bnl.gov:443/pnfs/usatlas.bnl.gov/LOCALGROUPDISK/rucio/data18_hi/1a/cc/DAOD_HION7.26257428._001347.pool.root.1 |
| data18_hi | DAOD_HION7.26257428._001348.pool.root.1 | 9.853 GB   | bc789daa  | BNL-OSG2_LOCALGROUPDISK: davs://dcgftp.usatlas.bnl.gov:443/pnfs/usatlas.bnl.gov/LOCALGROUPDISK/rucio/data18_hi/aa/e9/DAOD_HION7.26257428._001348.pool.root.1 |
| data18_hi | DAOD_HION7.26257428._001349.pool.root.1 | 10.376 GB  | 240330ef  | BNL-OSG2_LOCALGROUPDISK: davs://dcgftp.usatlas.bnl.gov:443/pnfs/usatlas.bnl.gov/LOCALGROUPDISK/rucio/data18_hi/3f/57/DAOD_HION7.26257428._001349.pool.root.1 |
| data18_hi | DAOD_HION7.26257428._001350.pool.root.1 | 9.675 GB   | e829327a  | BNL-OSG2_LOCALGROUPDISK: davs://dcgftp.usatlas.bnl.gov:443/pnfs/usatlas.bnl.gov/LOCALGROUPDISK/rucio/data18_hi/9b/82/DAOD_HION7.26257428._001350.pool.root.1 |
| data18_hi | DAOD_HION7.26257428._001351.pool.root.1 | 9.615 GB   | bafa2e5d  | BNL-OSG2_LOCALGROUPDISK: davs://dcgftp.usatlas.bnl.gov:443/pnfs/usatlas.bnl.gov/LOCALGROUPDISK/rucio/data18_hi/92/1b/DAOD_HION7.26257428._001351.pool.root.1 |
| data18_hi | DAOD_HION7.26257428._001352.pool.root.1 | 9.693 GB   | 8ec92c92  | BNL-OSG2_LOCALGROUPDISK: davs://dcgftp.usatlas.bnl.gov:443/pnfs/usatlas.bnl.gov/LOCALGROUPDISK/rucio/data18_hi/8d/7e/DAOD_HION7.26257428._001352.pool.root.1 |
| data18_hi | DAOD_HION7.26257428._001353.pool.root.1 | 10.268 GB  | 71501e5f  | BNL-OSG2_LOCALGROUPDISK: davs://dcgftp.usatlas.bnl.gov:443/pnfs/usatlas.bnl.gov/LOCALGROUPDISK/rucio/data18_hi/4b/7f/DAOD_HION7.26257428._001353.pool.root.1 |
| data18_hi | DAOD_HION7.26257428._001354.pool.root.1 | 9.615 GB   | 34a9cfdc  | BNL-OSG2_LOCALGROUPDISK: davs://dcgftp.usatlas.bnl.gov:443/pnfs/usatlas.bnl.gov/LOCALGROUPDISK/rucio/data18_hi/1d/ab/DAOD_HION7.26257428._001354.pool.root.1 |
| data18_hi | DAOD_HION7.26257428._001355.pool.root.1 | 10.243 GB  | 69b083d9  | BNL-OSG2_LOCALGROUPDISK: davs://dcgftp.usatlas.bnl.gov:443/pnfs/usatlas.bnl.gov/LOCALGROUPDISK/rucio/data18_hi/a0/48/DAOD_HION7.26257428._001355.pool.root.1 |
| data18_hi | DAOD_HION7.26257428._001356.pool.root.1 | 10.377 GB  | 79db380e  | BNL-OSG2_LOCALGROUPDISK: davs://dcgftp.usatlas.bnl.gov:443/pnfs/usatlas.bnl.gov/LOCALGROUPDISK/rucio/data18_hi/6b/0e/DAOD_HION7.26257428._001356.pool.root.1 |
| data18_hi | DAOD_HION7.26257428._001357.pool.root.1 | 10.011 GB  | 125f45d3  | BNL-OSG2_LOCALGROUPDISK: davs://dcgftp.usatlas.bnl.gov:443/pnfs/usatlas.bnl.gov/LOCALGROUPDISK/rucio/data18_hi/da/e1/DAOD_HION7.26257428._001357.pool.root.1 |
| data18_hi | DAOD_HION7.26257428._001358.pool.root.1 | 10.387 GB  | ea760ee3  | BNL-OSG2_LOCALGROUPDISK: davs://dcgftp.usatlas.bnl.gov:443/pnfs/usatlas.bnl.gov/LOCALGROUPDISK/rucio/data18_hi/56/6a/DAOD_HION7.26257428._001358.pool.root.1 |
| data18_hi | DAOD_HION7.26257428._001359.pool.root.1 | 9.832 GB   | 19452a59  | BNL-OSG2_LOCALGROUPDISK: davs://dcgftp.usatlas.bnl.gov:443/pnfs/usatlas.bnl.gov/LOCALGROUPDISK/rucio/data18_hi/d0/df/DAOD_HION7.26257428._001359.pool.root.1 |
| data18_hi | DAOD_HION7.26257428._001360.pool.root.1 | 9.908 GB   | 7c78f6e2  | BNL-OSG2_LOCALGROUPDISK: davs://dcgftp.usatlas.bnl.gov:443/pnfs/usatlas.bnl.gov/LOCALGROUPDISK/rucio/data18_hi/ec/d0/DAOD_HION7.26257428._001360.pool.root.1 |
| data18_hi | DAOD_HION7.26257428._001361.pool.root.1 | 10.186 GB  | 9e4068c1  | BNL-OSG2_LOCALGROUPDISK: davs://dcgftp.usatlas.bnl.gov:443/pnfs/usatlas.bnl.gov/LOCALGROUPDISK/rucio/data18_hi/14/9e/DAOD_HION7.26257428._001361.pool.root.1 |
| data18_hi | DAOD_HION7.26257428._001362.pool.root.1 | 10.012 GB  | 82e8bc31  | BNL-OSG2_LOCALGROUPDISK: davs://dcgftp.usatlas.bnl.gov:443/pnfs/usatlas.bnl.gov/LOCALGROUPDISK/rucio/data18_hi/a7/0d/DAOD_HION7.26257428._001362.pool.root.1 |
| data18_hi | DAOD_HION7.26257428._001363.pool.root.1 | 9.984 GB   | 4ba0a09e  | BNL-OSG2_LOCALGROUPDISK: davs://dcgftp.usatlas.bnl.gov:443/pnfs/usatlas.bnl.gov/LOCALGROUPDISK/rucio/data18_hi/eb/32/DAOD_HION7.26257428._001363.pool.root.1 |
| data18_hi | DAOD_HION7.26257428._001364.pool.root.1 | 9.957 GB   | 4a860ed3  | BNL-OSG2_LOCALGROUPDISK: davs://dcgftp.usatlas.bnl.gov:443/pnfs/usatlas.bnl.gov/LOCALGROUPDISK/rucio/data18_hi/63/ad/DAOD_HION7.26257428._001364.pool.root.1 |
| data18_hi | DAOD_HION7.26257428._001365.pool.root.1 | 9.588 GB   | 2d16d5a1  | BNL-OSG2_LOCALGROUPDISK: davs://dcgftp.usatlas.bnl.gov:443/pnfs/usatlas.bnl.gov/LOCALGROUPDISK/rucio/data18_hi/39/15/DAOD_HION7.26257428._001365.pool.root.1 |
| data18_hi | DAOD_HION7.26257428._001366.pool.root.1 | 9.850 GB   | af9d3187  | BNL-OSG2_LOCALGROUPDISK: davs://dcgftp.usatlas.bnl.gov:443/pnfs/usatlas.bnl.gov/LOCALGROUPDISK/rucio/data18_hi/6a/9b/DAOD_HION7.26257428._001366.pool.root.1 |
| data18_hi | DAOD_HION7.26257428._001367.pool.root.1 | 9.796 GB   | 8dea16bc  | BNL-OSG2_LOCALGROUPDISK: davs://dcgftp.usatlas.bnl.gov:443/pnfs/usatlas.bnl.gov/LOCALGROUPDISK/rucio/data18_hi/10/f9/DAOD_HION7.26257428._001367.pool.root.1 |
| data18_hi | DAOD_HION7.26257428._001368.pool.root.1 | 9.717 GB   | 0ba19314  | BNL-OSG2_LOCALGROUPDISK: davs://dcgftp.usatlas.bnl.gov:443/pnfs/usatlas.bnl.gov/LOCALGROUPDISK/rucio/data18_hi/2b/81/DAOD_HION7.26257428._001368.pool.root.1 |
| data18_hi | DAOD_HION7.26257428._001369.pool.root.1 | 10.237 GB  | 7233e5f4  | BNL-OSG2_LOCALGROUPDISK: davs://dcgftp.usatlas.bnl.gov:443/pnfs/usatlas.bnl.gov/LOCALGROUPDISK/rucio/data18_hi/1f/b0/DAOD_HION7.26257428._001369.pool.root.1 |
| data18_hi | DAOD_HION7.26257428._001370.pool.root.1 | 9.613 GB   | 2da6716c  | BNL-OSG2_LOCALGROUPDISK: davs://dcgftp.usatlas.bnl.gov:443/pnfs/usatlas.bnl.gov/LOCALGROUPDISK/rucio/data18_hi/08/89/DAOD_HION7.26257428._001370.pool.root.1 |
| data18_hi | DAOD_HION7.26257428._001371.pool.root.1 | 10.461 GB  | 90bdd006  | BNL-OSG2_LOCALGROUPDISK: davs://dcgftp.usatlas.bnl.gov:443/pnfs/usatlas.bnl.gov/LOCALGROUPDISK/rucio/data18_hi/e8/04/DAOD_HION7.26257428._001371.pool.root.1 |
| data18_hi | DAOD_HION7.26257428._001372.pool.root.1 | 9.649 GB   | 6d2d438e  | BNL-OSG2_LOCALGROUPDISK: davs://dcgftp.usatlas.bnl.gov:443/pnfs/usatlas.bnl.gov/LOCALGROUPDISK/rucio/data18_hi/df/95/DAOD_HION7.26257428._001372.pool.root.1 |
| data18_hi | DAOD_HION7.26257428._001373.pool.root.1 | 10.292 GB  | cf49695b  | BNL-OSG2_LOCALGROUPDISK: davs://dcgftp.usatlas.bnl.gov:443/pnfs/usatlas.bnl.gov/LOCALGROUPDISK/rucio/data18_hi/71/3f/DAOD_HION7.26257428._001373.pool.root.1 |
| data18_hi | DAOD_HION7.26257428._001374.pool.root.1 | 10.354 GB  | 8d91006c  | BNL-OSG2_LOCALGROUPDISK: davs://dcgftp.usatlas.bnl.gov:443/pnfs/usatlas.bnl.gov/LOCALGROUPDISK/rucio/data18_hi/a9/26/DAOD_HION7.26257428._001374.pool.root.1 |
| data18_hi | DAOD_HION7.26257428._001375.pool.root.1 | 10.245 GB  | 1725c838  | BNL-OSG2_LOCALGROUPDISK: davs://dcgftp.usatlas.bnl.gov:443/pnfs/usatlas.bnl.gov/LOCALGROUPDISK/rucio/data18_hi/fc/76/DAOD_HION7.26257428._001375.pool.root.1 |
| data18_hi | DAOD_HION7.26257428._001376.pool.root.1 | 10.166 GB  | 260017bd  | BNL-OSG2_LOCALGROUPDISK: davs://dcgftp.usatlas.bnl.gov:443/pnfs/usatlas.bnl.gov/LOCALGROUPDISK/rucio/data18_hi/2c/41/DAOD_HION7.26257428._001376.pool.root.1 |
| data18_hi | DAOD_HION7.26257428._001377.pool.root.1 | 9.763 GB   | 0853e43b  | BNL-OSG2_LOCALGROUPDISK: davs://dcgftp.usatlas.bnl.gov:443/pnfs/usatlas.bnl.gov/LOCALGROUPDISK/rucio/data18_hi/23/98/DAOD_HION7.26257428._001377.pool.root.1 |
| data18_hi | DAOD_HION7.26257428._001378.pool.root.1 | 9.724 GB   | 11b1d3ff  | BNL-OSG2_LOCALGROUPDISK: davs://dcgftp.usatlas.bnl.gov:443/pnfs/usatlas.bnl.gov/LOCALGROUPDISK/rucio/data18_hi/cd/2e/DAOD_HION7.26257428._001378.pool.root.1 |
| data18_hi | DAOD_HION7.26257428._001379.pool.root.1 | 9.900 GB   | 674d523a  | BNL-OSG2_LOCALGROUPDISK: davs://dcgftp.usatlas.bnl.gov:443/pnfs/usatlas.bnl.gov/LOCALGROUPDISK/rucio/data18_hi/5e/76/DAOD_HION7.26257428._001379.pool.root.1 |
| data18_hi | DAOD_HION7.26257428._001380.pool.root.1 | 9.763 GB   | 87703efc  | BNL-OSG2_LOCALGROUPDISK: davs://dcgftp.usatlas.bnl.gov:443/pnfs/usatlas.bnl.gov/LOCALGROUPDISK/rucio/data18_hi/5d/6d/DAOD_HION7.26257428._001380.pool.root.1 |
| data18_hi | DAOD_HION7.26257428._001381.pool.root.1 | 9.380 GB   | 1b1334fe  | BNL-OSG2_LOCALGROUPDISK: davs://dcgftp.usatlas.bnl.gov:443/pnfs/usatlas.bnl.gov/LOCALGROUPDISK/rucio/data18_hi/df/f0/DAOD_HION7.26257428._001381.pool.root.1 |
| data18_hi | DAOD_HION7.26257428._001382.pool.root.1 | 9.438 GB   | b83fd40d  | BNL-OSG2_LOCALGROUPDISK: davs://dcgftp.usatlas.bnl.gov:443/pnfs/usatlas.bnl.gov/LOCALGROUPDISK/rucio/data18_hi/28/01/DAOD_HION7.26257428._001382.pool.root.1 |
| data18_hi | DAOD_HION7.26257428._001383.pool.root.1 | 9.975 GB   | fe59aa70  | BNL-OSG2_LOCALGROUPDISK: davs://dcgftp.usatlas.bnl.gov:443/pnfs/usatlas.bnl.gov/LOCALGROUPDISK/rucio/data18_hi/70/4d/DAOD_HION7.26257428._001383.pool.root.1 |
| data18_hi | DAOD_HION7.26257428._001384.pool.root.1 | 9.978 GB   | e90b20bf  | BNL-OSG2_LOCALGROUPDISK: davs://dcgftp.usatlas.bnl.gov:443/pnfs/usatlas.bnl.gov/LOCALGROUPDISK/rucio/data18_hi/b8/70/DAOD_HION7.26257428._001384.pool.root.1 |
| data18_hi | DAOD_HION7.26257428._001385.pool.root.1 | 10.276 GB  | 67c61a8b  | BNL-OSG2_LOCALGROUPDISK: davs://dcgftp.usatlas.bnl.gov:443/pnfs/usatlas.bnl.gov/LOCALGROUPDISK/rucio/data18_hi/93/91/DAOD_HION7.26257428._001385.pool.root.1 |
| data18_hi | DAOD_HION7.26257428._001386.pool.root.1 | 9.289 GB   | ce976c8e  | BNL-OSG2_LOCALGROUPDISK: davs://dcgftp.usatlas.bnl.gov:443/pnfs/usatlas.bnl.gov/LOCALGROUPDISK/rucio/data18_hi/68/39/DAOD_HION7.26257428._001386.pool.root.1 |
| data18_hi | DAOD_HION7.26257428._001387.pool.root.1 | 9.978 GB   | 22d17822  | BNL-OSG2_LOCALGROUPDISK: davs://dcgftp.usatlas.bnl.gov:443/pnfs/usatlas.bnl.gov/LOCALGROUPDISK/rucio/data18_hi/ba/b6/DAOD_HION7.26257428._001387.pool.root.1 |
| data18_hi | DAOD_HION7.26257428._001388.pool.root.1 | 10.341 GB  | a8ca5efe  | BNL-OSG2_LOCALGROUPDISK: davs://dcgftp.usatlas.bnl.gov:443/pnfs/usatlas.bnl.gov/LOCALGROUPDISK/rucio/data18_hi/2f/85/DAOD_HION7.26257428._001388.pool.root.1 |
| data18_hi | DAOD_HION7.26257428._001389.pool.root.1 | 10.211 GB  | 4ea48686  | BNL-OSG2_LOCALGROUPDISK: davs://dcgftp.usatlas.bnl.gov:443/pnfs/usatlas.bnl.gov/LOCALGROUPDISK/rucio/data18_hi/c3/e0/DAOD_HION7.26257428._001389.pool.root.1 |
| data18_hi | DAOD_HION7.26257428._001390.pool.root.1 | 9.990 GB   | 06756b20  | BNL-OSG2_LOCALGROUPDISK: davs://dcgftp.usatlas.bnl.gov:443/pnfs/usatlas.bnl.gov/LOCALGROUPDISK/rucio/data18_hi/9e/a2/DAOD_HION7.26257428._001390.pool.root.1 |
| data18_hi | DAOD_HION7.26257428._001391.pool.root.1 | 10.124 GB  | 6ffe2e90  | BNL-OSG2_LOCALGROUPDISK: davs://dcgftp.usatlas.bnl.gov:443/pnfs/usatlas.bnl.gov/LOCALGROUPDISK/rucio/data18_hi/ba/43/DAOD_HION7.26257428._001391.pool.root.1 |
| data18_hi | DAOD_HION7.26257428._001392.pool.root.1 | 10.120 GB  | f183f9fe  | BNL-OSG2_LOCALGROUPDISK: davs://dcgftp.usatlas.bnl.gov:443/pnfs/usatlas.bnl.gov/LOCALGROUPDISK/rucio/data18_hi/cb/a2/DAOD_HION7.26257428._001392.pool.root.1 |
| data18_hi | DAOD_HION7.26257428._001393.pool.root.1 | 9.644 GB   | 1b606a70  | BNL-OSG2_LOCALGROUPDISK: davs://dcgftp.usatlas.bnl.gov:443/pnfs/usatlas.bnl.gov/LOCALGROUPDISK/rucio/data18_hi/d5/7f/DAOD_HION7.26257428._001393.pool.root.1 |
| data18_hi | DAOD_HION7.26257428._001394.pool.root.1 | 10.258 GB  | 382bd9e6  | BNL-OSG2_LOCALGROUPDISK: davs://dcgftp.usatlas.bnl.gov:443/pnfs/usatlas.bnl.gov/LOCALGROUPDISK/rucio/data18_hi/87/2a/DAOD_HION7.26257428._001394.pool.root.1 |
| data18_hi | DAOD_HION7.26257428._001395.pool.root.1 | 10.433 GB  | e31e28b6  | BNL-OSG2_LOCALGROUPDISK: davs://dcgftp.usatlas.bnl.gov:443/pnfs/usatlas.bnl.gov/LOCALGROUPDISK/rucio/data18_hi/92/13/DAOD_HION7.26257428._001395.pool.root.1 |
| data18_hi | DAOD_HION7.26257428._001396.pool.root.1 | 10.246 GB  | bcdcd661  | BNL-OSG2_LOCALGROUPDISK: davs://dcgftp.usatlas.bnl.gov:443/pnfs/usatlas.bnl.gov/LOCALGROUPDISK/rucio/data18_hi/a1/20/DAOD_HION7.26257428._001396.pool.root.1 |
| data18_hi | DAOD_HION7.26257428._001397.pool.root.1 | 9.527 GB   | 8d3a3015  | BNL-OSG2_LOCALGROUPDISK: davs://dcgftp.usatlas.bnl.gov:443/pnfs/usatlas.bnl.gov/LOCALGROUPDISK/rucio/data18_hi/15/12/DAOD_HION7.26257428._001397.pool.root.1 |
| data18_hi | DAOD_HION7.26257428._001398.pool.root.1 | 10.006 GB  | 25309c58  | BNL-OSG2_LOCALGROUPDISK: davs://dcgftp.usatlas.bnl.gov:443/pnfs/usatlas.bnl.gov/LOCALGROUPDISK/rucio/data18_hi/92/40/DAOD_HION7.26257428._001398.pool.root.1 |
| data18_hi | DAOD_HION7.26257428._001399.pool.root.1 | 10.432 GB  | 3bbca052  | BNL-OSG2_LOCALGROUPDISK: davs://dcgftp.usatlas.bnl.gov:443/pnfs/usatlas.bnl.gov/LOCALGROUPDISK/rucio/data18_hi/6f/39/DAOD_HION7.26257428._001399.pool.root.1 |
| data18_hi | DAOD_HION7.26257428._001400.pool.root.1 | 10.381 GB  | d6eacb4b  | BNL-OSG2_LOCALGROUPDISK: davs://dcgftp.usatlas.bnl.gov:443/pnfs/usatlas.bnl.gov/LOCALGROUPDISK/rucio/data18_hi/12/07/DAOD_HION7.26257428._001400.pool.root.1 |
| data18_hi | DAOD_HION7.26257428._001401.pool.root.1 | 9.392 GB   | 47e103eb  | BNL-OSG2_LOCALGROUPDISK: davs://dcgftp.usatlas.bnl.gov:443/pnfs/usatlas.bnl.gov/LOCALGROUPDISK/rucio/data18_hi/be/a2/DAOD_HION7.26257428._001401.pool.root.1 |
| data18_hi | DAOD_HION7.26257428._001402.pool.root.1 | 9.434 GB   | 6541b447  | BNL-OSG2_LOCALGROUPDISK: davs://dcgftp.usatlas.bnl.gov:443/pnfs/usatlas.bnl.gov/LOCALGROUPDISK/rucio/data18_hi/25/a1/DAOD_HION7.26257428._001402.pool.root.1 |
| data18_hi | DAOD_HION7.26257428._001403.pool.root.1 | 9.516 GB   | 047a429d  | BNL-OSG2_LOCALGROUPDISK: davs://dcgftp.usatlas.bnl.gov:443/pnfs/usatlas.bnl.gov/LOCALGROUPDISK/rucio/data18_hi/bd/fb/DAOD_HION7.26257428._001403.pool.root.1 |
| data18_hi | DAOD_HION7.26257428._001404.pool.root.1 | 9.483 GB   | b113eece  | BNL-OSG2_LOCALGROUPDISK: davs://dcgftp.usatlas.bnl.gov:443/pnfs/usatlas.bnl.gov/LOCALGROUPDISK/rucio/data18_hi/81/7e/DAOD_HION7.26257428._001404.pool.root.1 |
| data18_hi | DAOD_HION7.26257428._001405.pool.root.1 | 9.634 GB   | 379dc20f  | BNL-OSG2_LOCALGROUPDISK: davs://dcgftp.usatlas.bnl.gov:443/pnfs/usatlas.bnl.gov/LOCALGROUPDISK/rucio/data18_hi/73/39/DAOD_HION7.26257428._001405.pool.root.1 |
| data18_hi | DAOD_HION7.26257428._001406.pool.root.1 | 9.852 GB   | 2240765c  | BNL-OSG2_LOCALGROUPDISK: davs://dcgftp.usatlas.bnl.gov:443/pnfs/usatlas.bnl.gov/LOCALGROUPDISK/rucio/data18_hi/40/97/DAOD_HION7.26257428._001406.pool.root.1 |
| data18_hi | DAOD_HION7.26257428._001407.pool.root.1 | 9.726 GB   | b0f6980a  | BNL-OSG2_LOCALGROUPDISK: davs://dcgftp.usatlas.bnl.gov:443/pnfs/usatlas.bnl.gov/LOCALGROUPDISK/rucio/data18_hi/55/08/DAOD_HION7.26257428._001407.pool.root.1 |
| data18_hi | DAOD_HION7.26257428._001408.pool.root.1 | 9.512 GB   | bb411fa7  | BNL-OSG2_LOCALGROUPDISK: davs://dcgftp.usatlas.bnl.gov:443/pnfs/usatlas.bnl.gov/LOCALGROUPDISK/rucio/data18_hi/23/69/DAOD_HION7.26257428._001408.pool.root.1 |
| data18_hi | DAOD_HION7.26257428._001409.pool.root.1 | 10.395 GB  | d210bad2  | BNL-OSG2_LOCALGROUPDISK: davs://dcgftp.usatlas.bnl.gov:443/pnfs/usatlas.bnl.gov/LOCALGROUPDISK/rucio/data18_hi/f3/57/DAOD_HION7.26257428._001409.pool.root.1 |
| data18_hi | DAOD_HION7.26257428._001410.pool.root.1 | 10.258 GB  | d1c6848b  | BNL-OSG2_LOCALGROUPDISK: davs://dcgftp.usatlas.bnl.gov:443/pnfs/usatlas.bnl.gov/LOCALGROUPDISK/rucio/data18_hi/7e/a4/DAOD_HION7.26257428._001410.pool.root.1 |
| data18_hi | DAOD_HION7.26257428._001411.pool.root.1 | 9.794 GB   | 93fc5046  | BNL-OSG2_LOCALGROUPDISK: davs://dcgftp.usatlas.bnl.gov:443/pnfs/usatlas.bnl.gov/LOCALGROUPDISK/rucio/data18_hi/7a/09/DAOD_HION7.26257428._001411.pool.root.1 |
| data18_hi | DAOD_HION7.26257428._001412.pool.root.1 | 9.879 GB   | 15311bcf  | BNL-OSG2_LOCALGROUPDISK: davs://dcgftp.usatlas.bnl.gov:443/pnfs/usatlas.bnl.gov/LOCALGROUPDISK/rucio/data18_hi/22/1a/DAOD_HION7.26257428._001412.pool.root.1 |
| data18_hi | DAOD_HION7.26257428._001413.pool.root.1 | 10.095 GB  | 75f1642d  | BNL-OSG2_LOCALGROUPDISK: davs://dcgftp.usatlas.bnl.gov:443/pnfs/usatlas.bnl.gov/LOCALGROUPDISK/rucio/data18_hi/5f/76/DAOD_HION7.26257428._001413.pool.root.1 |
| data18_hi | DAOD_HION7.26257428._001414.pool.root.1 | 10.412 GB  | 59d0a669  | BNL-OSG2_LOCALGROUPDISK: davs://dcgftp.usatlas.bnl.gov:443/pnfs/usatlas.bnl.gov/LOCALGROUPDISK/rucio/data18_hi/6f/77/DAOD_HION7.26257428._001414.pool.root.1 |
| data18_hi | DAOD_HION7.26257428._001415.pool.root.1 | 10.405 GB  | 9ae30c9b  | BNL-OSG2_LOCALGROUPDISK: davs://dcgftp.usatlas.bnl.gov:443/pnfs/usatlas.bnl.gov/LOCALGROUPDISK/rucio/data18_hi/76/f5/DAOD_HION7.26257428._001415.pool.root.1 |
| data18_hi | DAOD_HION7.26257428._001416.pool.root.1 | 10.244 GB  | 392ac24f  | BNL-OSG2_LOCALGROUPDISK: davs://dcgftp.usatlas.bnl.gov:443/pnfs/usatlas.bnl.gov/LOCALGROUPDISK/rucio/data18_hi/b8/42/DAOD_HION7.26257428._001416.pool.root.1 |
| data18_hi | DAOD_HION7.26257428._001417.pool.root.1 | 9.787 GB   | 1362fc97  | BNL-OSG2_LOCALGROUPDISK: davs://dcgftp.usatlas.bnl.gov:443/pnfs/usatlas.bnl.gov/LOCALGROUPDISK/rucio/data18_hi/42/e3/DAOD_HION7.26257428._001417.pool.root.1 |
| data18_hi | DAOD_HION7.26257428._001418.pool.root.1 | 9.758 GB   | eb076fd1  | BNL-OSG2_LOCALGROUPDISK: davs://dcgftp.usatlas.bnl.gov:443/pnfs/usatlas.bnl.gov/LOCALGROUPDISK/rucio/data18_hi/22/94/DAOD_HION7.26257428._001418.pool.root.1 |
| data18_hi | DAOD_HION7.26257428._001419.pool.root.1 | 9.696 GB   | 4155195a  | BNL-OSG2_LOCALGROUPDISK: davs://dcgftp.usatlas.bnl.gov:443/pnfs/usatlas.bnl.gov/LOCALGROUPDISK/rucio/data18_hi/5b/1f/DAOD_HION7.26257428._001419.pool.root.1 |
| data18_hi | DAOD_HION7.26257428._001420.pool.root.1 | 10.329 GB  | 7541fab1  | BNL-OSG2_LOCALGROUPDISK: davs://dcgftp.usatlas.bnl.gov:443/pnfs/usatlas.bnl.gov/LOCALGROUPDISK/rucio/data18_hi/b0/fb/DAOD_HION7.26257428._001420.pool.root.1 |
| data18_hi | DAOD_HION7.26257428._001421.pool.root.1 | 10.199 GB  | afce8c14  | BNL-OSG2_LOCALGROUPDISK: davs://dcgftp.usatlas.bnl.gov:443/pnfs/usatlas.bnl.gov/LOCALGROUPDISK/rucio/data18_hi/71/0f/DAOD_HION7.26257428._001421.pool.root.1 |
| data18_hi | DAOD_HION7.26257428._001422.pool.root.1 | 10.444 GB  | abe6b97f  | BNL-OSG2_LOCALGROUPDISK: davs://dcgftp.usatlas.bnl.gov:443/pnfs/usatlas.bnl.gov/LOCALGROUPDISK/rucio/data18_hi/39/bc/DAOD_HION7.26257428._001422.pool.root.1 |
| data18_hi | DAOD_HION7.26257428._001423.pool.root.1 | 9.719 GB   | 529e8fe5  | BNL-OSG2_LOCALGROUPDISK: davs://dcgftp.usatlas.bnl.gov:443/pnfs/usatlas.bnl.gov/LOCALGROUPDISK/rucio/data18_hi/60/d8/DAOD_HION7.26257428._001423.pool.root.1 |
| data18_hi | DAOD_HION7.26257428._001424.pool.root.1 | 10.117 GB  | f939e873  | BNL-OSG2_LOCALGROUPDISK: davs://dcgftp.usatlas.bnl.gov:443/pnfs/usatlas.bnl.gov/LOCALGROUPDISK/rucio/data18_hi/f9/24/DAOD_HION7.26257428._001424.pool.root.1 |
| data18_hi | DAOD_HION7.26257428._001425.pool.root.1 | 10.142 GB  | 875f076e  | BNL-OSG2_LOCALGROUPDISK: davs://dcgftp.usatlas.bnl.gov:443/pnfs/usatlas.bnl.gov/LOCALGROUPDISK/rucio/data18_hi/1d/21/DAOD_HION7.26257428._001425.pool.root.1 |
| data18_hi | DAOD_HION7.26257428._001426.pool.root.1 | 10.206 GB  | 5718c0f1  | BNL-OSG2_LOCALGROUPDISK: davs://dcgftp.usatlas.bnl.gov:443/pnfs/usatlas.bnl.gov/LOCALGROUPDISK/rucio/data18_hi/9b/ab/DAOD_HION7.26257428._001426.pool.root.1 |
| data18_hi | DAOD_HION7.26257428._001427.pool.root.1 | 10.329 GB  | fd697892  | BNL-OSG2_LOCALGROUPDISK: davs://dcgftp.usatlas.bnl.gov:443/pnfs/usatlas.bnl.gov/LOCALGROUPDISK/rucio/data18_hi/67/dc/DAOD_HION7.26257428._001427.pool.root.1 |
| data18_hi | DAOD_HION7.26257428._001428.pool.root.1 | 10.419 GB  | f2989e51  | BNL-OSG2_LOCALGROUPDISK: davs://dcgftp.usatlas.bnl.gov:443/pnfs/usatlas.bnl.gov/LOCALGROUPDISK/rucio/data18_hi/69/de/DAOD_HION7.26257428._001428.pool.root.1 |
| data18_hi | DAOD_HION7.26257428._001429.pool.root.1 | 9.605 GB   | 524ceaa9  | BNL-OSG2_LOCALGROUPDISK: davs://dcgftp.usatlas.bnl.gov:443/pnfs/usatlas.bnl.gov/LOCALGROUPDISK/rucio/data18_hi/87/2b/DAOD_HION7.26257428._001429.pool.root.1 |
| data18_hi | DAOD_HION7.26257428._001430.pool.root.1 | 9.849 GB   | d94bb4dd  | BNL-OSG2_LOCALGROUPDISK: davs://dcgftp.usatlas.bnl.gov:443/pnfs/usatlas.bnl.gov/LOCALGROUPDISK/rucio/data18_hi/29/51/DAOD_HION7.26257428._001430.pool.root.1 |
| data18_hi | DAOD_HION7.26257428._001431.pool.root.1 | 10.195 GB  | 0a1bc94c  | BNL-OSG2_LOCALGROUPDISK: davs://dcgftp.usatlas.bnl.gov:443/pnfs/usatlas.bnl.gov/LOCALGROUPDISK/rucio/data18_hi/b1/b9/DAOD_HION7.26257428._001431.pool.root.1 |
| data18_hi | DAOD_HION7.26257428._001432.pool.root.1 | 10.248 GB  | ea124a39  | BNL-OSG2_LOCALGROUPDISK: davs://dcgftp.usatlas.bnl.gov:443/pnfs/usatlas.bnl.gov/LOCALGROUPDISK/rucio/data18_hi/fb/f3/DAOD_HION7.26257428._001432.pool.root.1 |
| data18_hi | DAOD_HION7.26257428._001433.pool.root.1 | 10.224 GB  | 0aca0968  | BNL-OSG2_LOCALGROUPDISK: davs://dcgftp.usatlas.bnl.gov:443/pnfs/usatlas.bnl.gov/LOCALGROUPDISK/rucio/data18_hi/e8/ff/DAOD_HION7.26257428._001433.pool.root.1 |
| data18_hi | DAOD_HION7.26257428._001434.pool.root.1 | 10.224 GB  | 40103ffa  | BNL-OSG2_LOCALGROUPDISK: davs://dcgftp.usatlas.bnl.gov:443/pnfs/usatlas.bnl.gov/LOCALGROUPDISK/rucio/data18_hi/56/4a/DAOD_HION7.26257428._001434.pool.root.1 |
| data18_hi | DAOD_HION7.26257428._001435.pool.root.1 | 10.207 GB  | 61c066ea  | BNL-OSG2_LOCALGROUPDISK: davs://dcgftp.usatlas.bnl.gov:443/pnfs/usatlas.bnl.gov/LOCALGROUPDISK/rucio/data18_hi/2e/8a/DAOD_HION7.26257428._001435.pool.root.1 |
| data18_hi | DAOD_HION7.26257428._001436.pool.root.1 | 10.177 GB  | aa9de104  | BNL-OSG2_LOCALGROUPDISK: davs://dcgftp.usatlas.bnl.gov:443/pnfs/usatlas.bnl.gov/LOCALGROUPDISK/rucio/data18_hi/4f/ea/DAOD_HION7.26257428._001436.pool.root.1 |
| data18_hi | DAOD_HION7.26257428._001437.pool.root.1 | 10.127 GB  | adb3b4a1  | BNL-OSG2_LOCALGROUPDISK: davs://dcgftp.usatlas.bnl.gov:443/pnfs/usatlas.bnl.gov/LOCALGROUPDISK/rucio/data18_hi/e5/2b/DAOD_HION7.26257428._001437.pool.root.1 |
| data18_hi | DAOD_HION7.26257428._001438.pool.root.1 | 10.121 GB  | e8b4d5de  | BNL-OSG2_LOCALGROUPDISK: davs://dcgftp.usatlas.bnl.gov:443/pnfs/usatlas.bnl.gov/LOCALGROUPDISK/rucio/data18_hi/89/f3/DAOD_HION7.26257428._001438.pool.root.1 |
| data18_hi | DAOD_HION7.26257428._001439.pool.root.1 | 9.688 GB   | b30696b8  | BNL-OSG2_LOCALGROUPDISK: davs://dcgftp.usatlas.bnl.gov:443/pnfs/usatlas.bnl.gov/LOCALGROUPDISK/rucio/data18_hi/84/12/DAOD_HION7.26257428._001439.pool.root.1 |
| data18_hi | DAOD_HION7.26257428._001440.pool.root.1 | 9.624 GB   | 634af63b  | BNL-OSG2_LOCALGROUPDISK: davs://dcgftp.usatlas.bnl.gov:443/pnfs/usatlas.bnl.gov/LOCALGROUPDISK/rucio/data18_hi/11/d8/DAOD_HION7.26257428._001440.pool.root.1 |
| data18_hi | DAOD_HION7.26257428._001441.pool.root.1 | 9.336 GB   | 54b8f5c4  | BNL-OSG2_LOCALGROUPDISK: davs://dcgftp.usatlas.bnl.gov:443/pnfs/usatlas.bnl.gov/LOCALGROUPDISK/rucio/data18_hi/1d/ca/DAOD_HION7.26257428._001441.pool.root.1 |
| data18_hi | DAOD_HION7.26257428._001442.pool.root.1 | 9.850 GB   | c76fae5b  | BNL-OSG2_LOCALGROUPDISK: davs://dcgftp.usatlas.bnl.gov:443/pnfs/usatlas.bnl.gov/LOCALGROUPDISK/rucio/data18_hi/91/d1/DAOD_HION7.26257428._001442.pool.root.1 |
| data18_hi | DAOD_HION7.26257428._001443.pool.root.1 | 10.094 GB  | 27fdafff  | BNL-OSG2_LOCALGROUPDISK: davs://dcgftp.usatlas.bnl.gov:443/pnfs/usatlas.bnl.gov/LOCALGROUPDISK/rucio/data18_hi/3e/d2/DAOD_HION7.26257428._001443.pool.root.1 |
| data18_hi | DAOD_HION7.26257428._001444.pool.root.1 | 9.773 GB   | c13c949d  | BNL-OSG2_LOCALGROUPDISK: davs://dcgftp.usatlas.bnl.gov:443/pnfs/usatlas.bnl.gov/LOCALGROUPDISK/rucio/data18_hi/68/0b/DAOD_HION7.26257428._001444.pool.root.1 |
| data18_hi | DAOD_HION7.26257428._001445.pool.root.1 | 9.582 GB   | c17bf306  | BNL-OSG2_LOCALGROUPDISK: davs://dcgftp.usatlas.bnl.gov:443/pnfs/usatlas.bnl.gov/LOCALGROUPDISK/rucio/data18_hi/8f/d9/DAOD_HION7.26257428._001445.pool.root.1 |
| data18_hi | DAOD_HION7.26257428._001446.pool.root.1 | 9.654 GB   | d3f39f3d  | BNL-OSG2_LOCALGROUPDISK: davs://dcgftp.usatlas.bnl.gov:443/pnfs/usatlas.bnl.gov/LOCALGROUPDISK/rucio/data18_hi/4d/5b/DAOD_HION7.26257428._001446.pool.root.1 |
| data18_hi | DAOD_HION7.26257428._001447.pool.root.1 | 9.820 GB   | 82bf6b88  | BNL-OSG2_LOCALGROUPDISK: davs://dcgftp.usatlas.bnl.gov:443/pnfs/usatlas.bnl.gov/LOCALGROUPDISK/rucio/data18_hi/56/da/DAOD_HION7.26257428._001447.pool.root.1 |
| data18_hi | DAOD_HION7.26257428._001448.pool.root.1 | 9.740 GB   | 6912aa46  | BNL-OSG2_LOCALGROUPDISK: davs://dcgftp.usatlas.bnl.gov:443/pnfs/usatlas.bnl.gov/LOCALGROUPDISK/rucio/data18_hi/34/28/DAOD_HION7.26257428._001448.pool.root.1 |
| data18_hi | DAOD_HION7.26257428._001449.pool.root.1 | 9.749 GB   | 293db971  | BNL-OSG2_LOCALGROUPDISK: davs://dcgftp.usatlas.bnl.gov:443/pnfs/usatlas.bnl.gov/LOCALGROUPDISK/rucio/data18_hi/46/b6/DAOD_HION7.26257428._001449.pool.root.1 |
| data18_hi | DAOD_HION7.26257428._001450.pool.root.1 | 9.527 GB   | e6d7e7bc  | BNL-OSG2_LOCALGROUPDISK: davs://dcgftp.usatlas.bnl.gov:443/pnfs/usatlas.bnl.gov/LOCALGROUPDISK/rucio/data18_hi/1f/d4/DAOD_HION7.26257428._001450.pool.root.1 |
| data18_hi | DAOD_HION7.26257428._001451.pool.root.1 | 10.451 GB  | 2bb1a1d4  | BNL-OSG2_LOCALGROUPDISK: davs://dcgftp.usatlas.bnl.gov:443/pnfs/usatlas.bnl.gov/LOCALGROUPDISK/rucio/data18_hi/53/42/DAOD_HION7.26257428._001451.pool.root.1 |
| data18_hi | DAOD_HION7.26257428._001452.pool.root.1 | 9.564 GB   | 56a9ae5e  | BNL-OSG2_LOCALGROUPDISK: davs://dcgftp.usatlas.bnl.gov:443/pnfs/usatlas.bnl.gov/LOCALGROUPDISK/rucio/data18_hi/45/14/DAOD_HION7.26257428._001452.pool.root.1 |
| data18_hi | DAOD_HION7.26257428._001453.pool.root.1 | 9.778 GB   | d6902b27  | BNL-OSG2_LOCALGROUPDISK: davs://dcgftp.usatlas.bnl.gov:443/pnfs/usatlas.bnl.gov/LOCALGROUPDISK/rucio/data18_hi/5c/f9/DAOD_HION7.26257428._001453.pool.root.1 |
| data18_hi | DAOD_HION7.26257428._001454.pool.root.1 | 9.881 GB   | e936886a  | BNL-OSG2_LOCALGROUPDISK: davs://dcgftp.usatlas.bnl.gov:443/pnfs/usatlas.bnl.gov/LOCALGROUPDISK/rucio/data18_hi/94/69/DAOD_HION7.26257428._001454.pool.root.1 |
| data18_hi | DAOD_HION7.26257428._001455.pool.root.1 | 10.397 GB  | bdccd360  | BNL-OSG2_LOCALGROUPDISK: davs://dcgftp.usatlas.bnl.gov:443/pnfs/usatlas.bnl.gov/LOCALGROUPDISK/rucio/data18_hi/11/bf/DAOD_HION7.26257428._001455.pool.root.1 |
| data18_hi | DAOD_HION7.26257428._001456.pool.root.1 | 9.520 GB   | 34e16ba1  | BNL-OSG2_LOCALGROUPDISK: davs://dcgftp.usatlas.bnl.gov:443/pnfs/usatlas.bnl.gov/LOCALGROUPDISK/rucio/data18_hi/7e/58/DAOD_HION7.26257428._001456.pool.root.1 |
| data18_hi | DAOD_HION7.26257428._001457.pool.root.1 | 10.256 GB  | 19dfc8b1  | BNL-OSG2_LOCALGROUPDISK: davs://dcgftp.usatlas.bnl.gov:443/pnfs/usatlas.bnl.gov/LOCALGROUPDISK/rucio/data18_hi/f1/8b/DAOD_HION7.26257428._001457.pool.root.1 |
| data18_hi | DAOD_HION7.26257428._001458.pool.root.1 | 9.457 GB   | 262bd201  | BNL-OSG2_LOCALGROUPDISK: davs://dcgftp.usatlas.bnl.gov:443/pnfs/usatlas.bnl.gov/LOCALGROUPDISK/rucio/data18_hi/97/ee/DAOD_HION7.26257428._001458.pool.root.1 |
| data18_hi | DAOD_HION7.26257428._001459.pool.root.1 | 9.802 GB   | e906cb22  | BNL-OSG2_LOCALGROUPDISK: davs://dcgftp.usatlas.bnl.gov:443/pnfs/usatlas.bnl.gov/LOCALGROUPDISK/rucio/data18_hi/45/bc/DAOD_HION7.26257428._001459.pool.root.1 |
| data18_hi | DAOD_HION7.26257428._001460.pool.root.1 | 9.472 GB   | 6605461d  | BNL-OSG2_LOCALGROUPDISK: davs://dcgftp.usatlas.bnl.gov:443/pnfs/usatlas.bnl.gov/LOCALGROUPDISK/rucio/data18_hi/45/a8/DAOD_HION7.26257428._001460.pool.root.1 |
| data18_hi | DAOD_HION7.26257428._001461.pool.root.1 | 9.472 GB   | 38cfd821  | BNL-OSG2_LOCALGROUPDISK: davs://dcgftp.usatlas.bnl.gov:443/pnfs/usatlas.bnl.gov/LOCALGROUPDISK/rucio/data18_hi/f2/2c/DAOD_HION7.26257428._001461.pool.root.1 |
| data18_hi | DAOD_HION7.26257428._001462.pool.root.1 | 9.454 GB   | 85cffb6e  | BNL-OSG2_LOCALGROUPDISK: davs://dcgftp.usatlas.bnl.gov:443/pnfs/usatlas.bnl.gov/LOCALGROUPDISK/rucio/data18_hi/51/99/DAOD_HION7.26257428._001462.pool.root.1 |
| data18_hi | DAOD_HION7.26257428._001463.pool.root.1 | 5.670 GB   | eacb1059  | BNL-OSG2_LOCALGROUPDISK: davs://dcgftp.usatlas.bnl.gov:443/pnfs/usatlas.bnl.gov/LOCALGROUPDISK/rucio/data18_hi/58/94/DAOD_HION7.26257428._001463.pool.root.1 |
| data18_hi | DAOD_HION7.26257428._001464.pool.root.1 | 9.473 GB   | 52a1179b  | BNL-OSG2_LOCALGROUPDISK: davs://dcgftp.usatlas.bnl.gov:443/pnfs/usatlas.bnl.gov/LOCALGROUPDISK/rucio/data18_hi/c9/25/DAOD_HION7.26257428._001464.pool.root.1 |
| data18_hi | DAOD_HION7.26257428._001465.pool.root.1 | 10.320 GB  | 802b3801  | BNL-OSG2_LOCALGROUPDISK: davs://dcgftp.usatlas.bnl.gov:443/pnfs/usatlas.bnl.gov/LOCALGROUPDISK/rucio/data18_hi/9a/30/DAOD_HION7.26257428._001465.pool.root.1 |
| data18_hi | DAOD_HION7.26257428._001466.pool.root.1 | 9.921 GB   | 3574e5d6  | BNL-OSG2_LOCALGROUPDISK: davs://dcgftp.usatlas.bnl.gov:443/pnfs/usatlas.bnl.gov/LOCALGROUPDISK/rucio/data18_hi/9e/d6/DAOD_HION7.26257428._001466.pool.root.1 |
| data18_hi | DAOD_HION7.26257428._001467.pool.root.1 | 10.365 GB  | e467ca73  | BNL-OSG2_LOCALGROUPDISK: davs://dcgftp.usatlas.bnl.gov:443/pnfs/usatlas.bnl.gov/LOCALGROUPDISK/rucio/data18_hi/ba/88/DAOD_HION7.26257428._001467.pool.root.1 |
| data18_hi | DAOD_HION7.26257428._001468.pool.root.1 | 10.321 GB  | 684799bb  | BNL-OSG2_LOCALGROUPDISK: davs://dcgftp.usatlas.bnl.gov:443/pnfs/usatlas.bnl.gov/LOCALGROUPDISK/rucio/data18_hi/02/9c/DAOD_HION7.26257428._001468.pool.root.1 |
| data18_hi | DAOD_HION7.26257428._001469.pool.root.1 | 10.289 GB  | e9a9ee6b  | BNL-OSG2_LOCALGROUPDISK: davs://dcgftp.usatlas.bnl.gov:443/pnfs/usatlas.bnl.gov/LOCALGROUPDISK/rucio/data18_hi/d7/3a/DAOD_HION7.26257428._001469.pool.root.1 |
| data18_hi | DAOD_HION7.26257428._001470.pool.root.1 | 10.303 GB  | 312cc640  | BNL-OSG2_LOCALGROUPDISK: davs://dcgftp.usatlas.bnl.gov:443/pnfs/usatlas.bnl.gov/LOCALGROUPDISK/rucio/data18_hi/7f/65/DAOD_HION7.26257428._001470.pool.root.1 |
| data18_hi | DAOD_HION7.26257428._001471.pool.root.1 | 10.068 GB  | 85f9566b  | BNL-OSG2_LOCALGROUPDISK: davs://dcgftp.usatlas.bnl.gov:443/pnfs/usatlas.bnl.gov/LOCALGROUPDISK/rucio/data18_hi/27/7f/DAOD_HION7.26257428._001471.pool.root.1 |
| data18_hi | DAOD_HION7.26257428._001472.pool.root.1 | 10.078 GB  | 89423956  | BNL-OSG2_LOCALGROUPDISK: davs://dcgftp.usatlas.bnl.gov:443/pnfs/usatlas.bnl.gov/LOCALGROUPDISK/rucio/data18_hi/bd/b0/DAOD_HION7.26257428._001472.pool.root.1 |
| data18_hi | DAOD_HION7.26257428._001473.pool.root.1 | 9.937 GB   | fc99cd64  | BNL-OSG2_LOCALGROUPDISK: davs://dcgftp.usatlas.bnl.gov:443/pnfs/usatlas.bnl.gov/LOCALGROUPDISK/rucio/data18_hi/70/48/DAOD_HION7.26257428._001473.pool.root.1 |
| data18_hi | DAOD_HION7.26257428._001474.pool.root.1 | 9.866 GB   | 8e818a9a  | BNL-OSG2_LOCALGROUPDISK: davs://dcgftp.usatlas.bnl.gov:443/pnfs/usatlas.bnl.gov/LOCALGROUPDISK/rucio/data18_hi/ea/83/DAOD_HION7.26257428._001474.pool.root.1 |
| data18_hi | DAOD_HION7.26257428._001475.pool.root.1 | 9.624 GB   | 4f905b76  | BNL-OSG2_LOCALGROUPDISK: davs://dcgftp.usatlas.bnl.gov:443/pnfs/usatlas.bnl.gov/LOCALGROUPDISK/rucio/data18_hi/0d/56/DAOD_HION7.26257428._001475.pool.root.1 |
| data18_hi | DAOD_HION7.26257428._001477.pool.root.1 | 10.204 GB  | 66e3f526  | BNL-OSG2_LOCALGROUPDISK: davs://dcgftp.usatlas.bnl.gov:443/pnfs/usatlas.bnl.gov/LOCALGROUPDISK/rucio/data18_hi/6b/40/DAOD_HION7.26257428._001477.pool.root.1 |
| data18_hi | DAOD_HION7.26257428._001478.pool.root.1 | 10.016 GB  | 820f950d  | BNL-OSG2_LOCALGROUPDISK: davs://dcgftp.usatlas.bnl.gov:443/pnfs/usatlas.bnl.gov/LOCALGROUPDISK/rucio/data18_hi/78/e2/DAOD_HION7.26257428._001478.pool.root.1 |
| data18_hi | DAOD_HION7.26257428._001479.pool.root.1 | 9.810 GB   | a9d17ebe  | BNL-OSG2_LOCALGROUPDISK: davs://dcgftp.usatlas.bnl.gov:443/pnfs/usatlas.bnl.gov/LOCALGROUPDISK/rucio/data18_hi/ee/26/DAOD_HION7.26257428._001479.pool.root.1 |
| data18_hi | DAOD_HION7.26257428._001480.pool.root.1 | 10.029 GB  | 960493e1  | BNL-OSG2_LOCALGROUPDISK: davs://dcgftp.usatlas.bnl.gov:443/pnfs/usatlas.bnl.gov/LOCALGROUPDISK/rucio/data18_hi/15/dd/DAOD_HION7.26257428._001480.pool.root.1 |
| data18_hi | DAOD_HION7.26257428._001481.pool.root.1 | 9.932 GB   | 1bf694ed  | BNL-OSG2_LOCALGROUPDISK: davs://dcgftp.usatlas.bnl.gov:443/pnfs/usatlas.bnl.gov/LOCALGROUPDISK/rucio/data18_hi/d4/52/DAOD_HION7.26257428._001481.pool.root.1 |
| data18_hi | DAOD_HION7.26257428._001482.pool.root.1 | 9.791 GB   | 9837e8f8  | BNL-OSG2_LOCALGROUPDISK: davs://dcgftp.usatlas.bnl.gov:443/pnfs/usatlas.bnl.gov/LOCALGROUPDISK/rucio/data18_hi/0a/05/DAOD_HION7.26257428._001482.pool.root.1 |
| data18_hi | DAOD_HION7.26257428._001483.pool.root.1 | 10.431 GB  | 1bb1ff03  | BNL-OSG2_LOCALGROUPDISK: davs://dcgftp.usatlas.bnl.gov:443/pnfs/usatlas.bnl.gov/LOCALGROUPDISK/rucio/data18_hi/2c/69/DAOD_HION7.26257428._001483.pool.root.1 |
| data18_hi | DAOD_HION7.26257428._001484.pool.root.1 | 10.485 GB  | eb5119fa  | BNL-OSG2_LOCALGROUPDISK: davs://dcgftp.usatlas.bnl.gov:443/pnfs/usatlas.bnl.gov/LOCALGROUPDISK/rucio/data18_hi/36/2e/DAOD_HION7.26257428._001484.pool.root.1 |
| data18_hi | DAOD_HION7.26257428._001485.pool.root.1 | 10.384 GB  | fec70553  | BNL-OSG2_LOCALGROUPDISK: davs://dcgftp.usatlas.bnl.gov:443/pnfs/usatlas.bnl.gov/LOCALGROUPDISK/rucio/data18_hi/64/f4/DAOD_HION7.26257428._001485.pool.root.1 |
| data18_hi | DAOD_HION7.26257428._001486.pool.root.1 | 10.115 GB  | da1f3ae6  | BNL-OSG2_LOCALGROUPDISK: davs://dcgftp.usatlas.bnl.gov:443/pnfs/usatlas.bnl.gov/LOCALGROUPDISK/rucio/data18_hi/02/23/DAOD_HION7.26257428._001486.pool.root.1 |
| data18_hi | DAOD_HION7.26257428._001487.pool.root.1 | 9.977 GB   | be87beae  | BNL-OSG2_LOCALGROUPDISK: davs://dcgftp.usatlas.bnl.gov:443/pnfs/usatlas.bnl.gov/LOCALGROUPDISK/rucio/data18_hi/ef/46/DAOD_HION7.26257428._001487.pool.root.1 |
| data18_hi | DAOD_HION7.26257428._001488.pool.root.1 | 9.754 GB   | 8fa8fbb2  | BNL-OSG2_LOCALGROUPDISK: davs://dcgftp.usatlas.bnl.gov:443/pnfs/usatlas.bnl.gov/LOCALGROUPDISK/rucio/data18_hi/78/b9/DAOD_HION7.26257428._001488.pool.root.1 |
| data18_hi | DAOD_HION7.26257428._001489.pool.root.1 | 10.531 GB  | 1a7fe8c5  | BNL-OSG2_LOCALGROUPDISK: davs://dcgftp.usatlas.bnl.gov:443/pnfs/usatlas.bnl.gov/LOCALGROUPDISK/rucio/data18_hi/be/04/DAOD_HION7.26257428._001489.pool.root.1 |
| data18_hi | DAOD_HION7.26257428._001490.pool.root.1 | 10.428 GB  | 9e5af25e  | BNL-OSG2_LOCALGROUPDISK: davs://dcgftp.usatlas.bnl.gov:443/pnfs/usatlas.bnl.gov/LOCALGROUPDISK/rucio/data18_hi/d5/7c/DAOD_HION7.26257428._001490.pool.root.1 |
| data18_hi | DAOD_HION7.26257428._001491.pool.root.1 | 9.547 GB   | a42aaf46  | BNL-OSG2_LOCALGROUPDISK: davs://dcgftp.usatlas.bnl.gov:443/pnfs/usatlas.bnl.gov/LOCALGROUPDISK/rucio/data18_hi/8d/b4/DAOD_HION7.26257428._001491.pool.root.1 |
| data18_hi | DAOD_HION7.26257428._001492.pool.root.1 | 9.503 GB   | d4e4a27e  | BNL-OSG2_LOCALGROUPDISK: davs://dcgftp.usatlas.bnl.gov:443/pnfs/usatlas.bnl.gov/LOCALGROUPDISK/rucio/data18_hi/70/ef/DAOD_HION7.26257428._001492.pool.root.1 |
| data18_hi | DAOD_HION7.26257428._001493.pool.root.1 | 1.250 GB   | 2691109e  | BNL-OSG2_LOCALGROUPDISK: davs://dcgftp.usatlas.bnl.gov:443/pnfs/usatlas.bnl.gov/LOCALGROUPDISK/rucio/data18_hi/71/94/DAOD_HION7.26257428._001493.pool.root.1 |
| data18_hi | DAOD_HION7.26257428._001494.pool.root.1 | 10.447 GB  | 5ffa2e11  | BNL-OSG2_LOCALGROUPDISK: davs://dcgftp.usatlas.bnl.gov:443/pnfs/usatlas.bnl.gov/LOCALGROUPDISK/rucio/data18_hi/f6/32/DAOD_HION7.26257428._001494.pool.root.1 |
+-----------+-----------------------------------------+------------+-----------+--------------------------------------------------------------------------------------------------------------------------------------------------------------+
