ID                                ACCOUNT    SCOPE:NAME                                                                                            STATE[OK/REPL/STUCK]    RSE_EXPRESSION           COPIES    SIZE    EXPIRES (UTC)    CREATED (UTC)
--------------------------------  ---------  ----------------------------------------------------------------------------------------------------  ----------------------  -----------------------  --------  ------  ---------------  -------------------
e1f6dd9899464d2193984071ffc91afb  asickles   user.xiaoning:user.xiaoning.test-spmethod-231109231109.1.00365512.physics_CC.f1021_m2037_myFlow.root  OK[3/0/0]               BNL-OSG2_LOCALGROUPDISK  1         N/A                      2023-11-13 18:12:26
ID                                ACCOUNT    SCOPE:NAME                                                                                            STATE[OK/REPL/STUCK]    RSE_EXPRESSION           COPIES    SIZE    EXPIRES (UTC)    CREATED (UTC)
--------------------------------  ---------  ----------------------------------------------------------------------------------------------------  ----------------------  -----------------------  --------  ------  ---------------  -------------------
7ad38d4c84c64146b70dcebe806df255  asickles   user.xiaoning:user.xiaoning.test-spmethod-231109231109.1.00365512.physics_PC.f1021_m2037_myFlow.root  OK[4/0/0]               BNL-OSG2_LOCALGROUPDISK  1         N/A                      2023-11-13 18:12:27
ID                                ACCOUNT    SCOPE:NAME                                                                                            STATE[OK/REPL/STUCK]    RSE_EXPRESSION           COPIES    SIZE    EXPIRES (UTC)    CREATED (UTC)
--------------------------------  ---------  ----------------------------------------------------------------------------------------------------  ----------------------  -----------------------  --------  ------  ---------------  -------------------
ae24b9fce02647b6aff0eb15ab98f588  asickles   user.xiaoning:user.xiaoning.test-spmethod-231109231109.1.00365573.physics_CC.f1021_m2037_myFlow.root  OK[11/0/0]              BNL-OSG2_LOCALGROUPDISK  1         N/A                      2023-11-13 18:12:27
ID                                ACCOUNT    SCOPE:NAME                                                                                            STATE[OK/REPL/STUCK]    RSE_EXPRESSION           COPIES    SIZE    EXPIRES (UTC)    CREATED (UTC)
--------------------------------  ---------  ----------------------------------------------------------------------------------------------------  ----------------------  -----------------------  --------  ------  ---------------  -------------------
b4af28396f214258b166e26f08341ace  asickles   user.xiaoning:user.xiaoning.test-spmethod-231109231109.1.00365573.physics_PC.f1021_m2037_myFlow.root  OK[2/0/0]               BNL-OSG2_LOCALGROUPDISK  1         N/A                      2023-11-13 18:12:28
ID                                ACCOUNT    SCOPE:NAME                                                                                            STATE[OK/REPL/STUCK]    RSE_EXPRESSION           COPIES    SIZE    EXPIRES (UTC)    CREATED (UTC)
--------------------------------  ---------  ----------------------------------------------------------------------------------------------------  ----------------------  -----------------------  --------  ------  ---------------  -------------------
45f8fbb84afc419abc4ef8b625bddeb0  asickles   user.xiaoning:user.xiaoning.test-spmethod-231109231109.1.00365602.physics_CC.f1021_m2037_myFlow.root  OK[12/0/0]              BNL-OSG2_LOCALGROUPDISK  1         N/A                      2023-11-13 18:12:28
ID                                ACCOUNT    SCOPE:NAME                                                                                            STATE[OK/REPL/STUCK]    RSE_EXPRESSION           COPIES    SIZE    EXPIRES (UTC)    CREATED (UTC)
--------------------------------  ---------  ----------------------------------------------------------------------------------------------------  ----------------------  -----------------------  --------  ------  ---------------  -------------------
d8fc6bb4bbac4fc48af3f386a534495d  asickles   user.xiaoning:user.xiaoning.test-spmethod-231109231109.1.00365602.physics_PC.f1021_m2037_myFlow.root  OK[3/0/0]               BNL-OSG2_LOCALGROUPDISK  1         N/A                      2023-11-13 18:12:28
ID                                ACCOUNT    SCOPE:NAME                                                                                            STATE[OK/REPL/STUCK]    RSE_EXPRESSION           COPIES    SIZE    EXPIRES (UTC)    CREATED (UTC)
--------------------------------  ---------  ----------------------------------------------------------------------------------------------------  ----------------------  -----------------------  --------  ------  ---------------  -------------------
9503cd93e0394f199552d03f958b9b47  asickles   user.xiaoning:user.xiaoning.test-spmethod-231109231109.1.00365627.physics_CC.f1021_m2037_myFlow.root  OK[10/0/0]              BNL-OSG2_LOCALGROUPDISK  1         N/A                      2023-11-13 18:12:29
ID                                ACCOUNT    SCOPE:NAME                                                                                            STATE[OK/REPL/STUCK]    RSE_EXPRESSION           COPIES    SIZE    EXPIRES (UTC)    CREATED (UTC)
--------------------------------  ---------  ----------------------------------------------------------------------------------------------------  ----------------------  -----------------------  --------  ------  ---------------  -------------------
fdad488602c54191a8305687e1f12fa6  asickles   user.xiaoning:user.xiaoning.test-spmethod-231109231109.1.00365627.physics_PC.f1021_m2037_myFlow.root  OK[3/0/0]               BNL-OSG2_LOCALGROUPDISK  1         N/A                      2023-11-13 18:12:30
ID                                ACCOUNT    SCOPE:NAME                                                                                            STATE[OK/REPL/STUCK]    RSE_EXPRESSION           COPIES    SIZE    EXPIRES (UTC)    CREATED (UTC)
--------------------------------  ---------  ----------------------------------------------------------------------------------------------------  ----------------------  -----------------------  --------  ------  ---------------  -------------------
76ec045363fa4c25bb75f355622d510f  asickles   user.xiaoning:user.xiaoning.test-spmethod-231109231109.1.00365678.physics_CC.f1021_m2037_myFlow.root  OK[4/0/0]               BNL-OSG2_LOCALGROUPDISK  1         N/A                      2023-11-13 18:12:30
ID                                ACCOUNT    SCOPE:NAME                                                                                            STATE[OK/REPL/STUCK]    RSE_EXPRESSION           COPIES    SIZE    EXPIRES (UTC)    CREATED (UTC)
--------------------------------  ---------  ----------------------------------------------------------------------------------------------------  ----------------------  -----------------------  --------  ------  ---------------  -------------------
b44ebd391dd84515ae7461fa6fbbd278  asickles   user.xiaoning:user.xiaoning.test-spmethod-231109231109.1.00365678.physics_PC.f1021_m2037_myFlow.root  OK[2/0/0]               BNL-OSG2_LOCALGROUPDISK  1         N/A                      2023-11-13 18:12:30
ID                                ACCOUNT    SCOPE:NAME                                                                                            STATE[OK/REPL/STUCK]    RSE_EXPRESSION           COPIES    SIZE    EXPIRES (UTC)    CREATED (UTC)
--------------------------------  ---------  ----------------------------------------------------------------------------------------------------  ----------------------  -----------------------  --------  ------  ---------------  -------------------
a9bccb830d47427883228d57fbf31b80  asickles   user.xiaoning:user.xiaoning.test-spmethod-231109231109.1.00365681.physics_CC.f1021_m2037_myFlow.root  OK[13/0/0]              BNL-OSG2_LOCALGROUPDISK  1         N/A                      2023-11-13 18:12:31
ID                                ACCOUNT    SCOPE:NAME                                                                                            STATE[OK/REPL/STUCK]    RSE_EXPRESSION           COPIES    SIZE    EXPIRES (UTC)    CREATED (UTC)
--------------------------------  ---------  ----------------------------------------------------------------------------------------------------  ----------------------  -----------------------  --------  ------  ---------------  -------------------
3a4015a8048647a884e75574f2576eb6  asickles   user.xiaoning:user.xiaoning.test-spmethod-231109231109.1.00365681.physics_PC.f1021_m2037_myFlow.root  OK[4/0/0]               BNL-OSG2_LOCALGROUPDISK  1         N/A                      2023-11-13 18:12:31
ID                                ACCOUNT    SCOPE:NAME                                                                                            STATE[OK/REPL/STUCK]    RSE_EXPRESSION           COPIES    SIZE    EXPIRES (UTC)    CREATED (UTC)
--------------------------------  ---------  ----------------------------------------------------------------------------------------------------  ----------------------  -----------------------  --------  ------  ---------------  -------------------
c1f3828e28184cc9ba1b113f766b143b  asickles   user.xiaoning:user.xiaoning.test-spmethod-231109231109.1.00365709.physics_CC.f1021_m2037_myFlow.root  OK[13/0/0]              BNL-OSG2_LOCALGROUPDISK  1         N/A                      2023-11-13 18:12:31
ID                                ACCOUNT    SCOPE:NAME                                                                                            STATE[OK/REPL/STUCK]    RSE_EXPRESSION           COPIES    SIZE    EXPIRES (UTC)    CREATED (UTC)
--------------------------------  ---------  ----------------------------------------------------------------------------------------------------  ----------------------  -----------------------  --------  ------  ---------------  -------------------
903a9e4fb7d54abdaf39620932417da9  asickles   user.xiaoning:user.xiaoning.test-spmethod-231109231109.1.00365709.physics_PC.f1021_m2037_myFlow.root  OK[4/0/0]               BNL-OSG2_LOCALGROUPDISK  1         N/A                      2023-11-13 18:12:32
ID                                ACCOUNT    SCOPE:NAME                                                                                            STATE[OK/REPL/STUCK]    RSE_EXPRESSION           COPIES    SIZE    EXPIRES (UTC)    CREATED (UTC)
--------------------------------  ---------  ----------------------------------------------------------------------------------------------------  ----------------------  -----------------------  --------  ------  ---------------  -------------------
aa1bc99783cf452f99d33a870cea8e4b  asickles   user.xiaoning:user.xiaoning.test-spmethod-231109231109.1.00365752.physics_CC.f1021_m2037_myFlow.root  OK[42/0/0]              BNL-OSG2_LOCALGROUPDISK  1         N/A                      2023-11-13 18:12:32
ID                                ACCOUNT    SCOPE:NAME                                                                                            STATE[OK/REPL/STUCK]    RSE_EXPRESSION           COPIES    SIZE    EXPIRES (UTC)    CREATED (UTC)
--------------------------------  ---------  ----------------------------------------------------------------------------------------------------  ----------------------  -----------------------  --------  ------  ---------------  -------------------
da952b2d50ef4953a381757f7c755d4f  asickles   user.xiaoning:user.xiaoning.test-spmethod-231109231109.1.00365752.physics_PC.f1021_m2037_myFlow.root  OK[7/0/0]               BNL-OSG2_LOCALGROUPDISK  1         N/A                      2023-11-13 18:12:33
ID                                ACCOUNT    SCOPE:NAME                                                                                            STATE[OK/REPL/STUCK]    RSE_EXPRESSION           COPIES    SIZE    EXPIRES (UTC)    CREATED (UTC)
--------------------------------  ---------  ----------------------------------------------------------------------------------------------------  ----------------------  -----------------------  --------  ------  ---------------  -------------------
7a7fa73082a24e299e0629b01225c888  asickles   user.xiaoning:user.xiaoning.test-spmethod-231109231109.1.00365834.physics_CC.f1021_m2037_myFlow.root  OK[14/0/0]              BNL-OSG2_LOCALGROUPDISK  1         N/A                      2023-11-13 18:12:34
ID                                ACCOUNT    SCOPE:NAME                                                                                            STATE[OK/REPL/STUCK]    RSE_EXPRESSION           COPIES    SIZE    EXPIRES (UTC)    CREATED (UTC)
--------------------------------  ---------  ----------------------------------------------------------------------------------------------------  ----------------------  -----------------------  --------  ------  ---------------  -------------------
636ca4e7d33f4032a9a166d0ac76d8a6  asickles   user.xiaoning:user.xiaoning.test-spmethod-231109231109.1.00365834.physics_PC.f1021_m2037_myFlow.root  OK[3/0/0]               BNL-OSG2_LOCALGROUPDISK  1         N/A                      2023-11-13 18:12:34
ID                                ACCOUNT    SCOPE:NAME                                                                                            STATE[OK/REPL/STUCK]    RSE_EXPRESSION           COPIES    SIZE    EXPIRES (UTC)    CREATED (UTC)
--------------------------------  ---------  ----------------------------------------------------------------------------------------------------  ----------------------  -----------------------  --------  ------  ---------------  -------------------
f2c54dbacfc144ce9c4bfb7a507d6509  asickles   user.xiaoning:user.xiaoning.test-spmethod-231109231109.1.00365914.physics_CC.f1027_m2037_myFlow.root  OK[17/0/0]              BNL-OSG2_LOCALGROUPDISK  1         N/A                      2023-11-13 18:12:35
ID                                ACCOUNT    SCOPE:NAME                                                                                            STATE[OK/REPL/STUCK]    RSE_EXPRESSION           COPIES    SIZE    EXPIRES (UTC)    CREATED (UTC)
--------------------------------  ---------  ----------------------------------------------------------------------------------------------------  ----------------------  -----------------------  --------  ------  ---------------  -------------------
86acb99ed4704e9ab040226d517d566a  asickles   user.xiaoning:user.xiaoning.test-spmethod-231109231109.1.00365914.physics_PC.f1027_m2037_myFlow.root  OK[4/0/0]               BNL-OSG2_LOCALGROUPDISK  1         N/A                      2023-11-13 18:12:35
ID                                ACCOUNT    SCOPE:NAME                                                                                            STATE[OK/REPL/STUCK]    RSE_EXPRESSION           COPIES    SIZE    EXPIRES (UTC)    CREATED (UTC)
--------------------------------  ---------  ----------------------------------------------------------------------------------------------------  ----------------------  -----------------------  --------  ------  ---------------  -------------------
61c7bb6e01dd417dbdeff7585909b434  asickles   user.xiaoning:user.xiaoning.test-spmethod-231109231109.1.00365932.physics_CC.f1027_m2037_myFlow.root  OK[17/0/0]              BNL-OSG2_LOCALGROUPDISK  1         N/A                      2023-11-13 18:12:36
ID                                ACCOUNT    SCOPE:NAME                                                                                            STATE[OK/REPL/STUCK]    RSE_EXPRESSION           COPIES    SIZE    EXPIRES (UTC)    CREATED (UTC)
--------------------------------  ---------  ----------------------------------------------------------------------------------------------------  ----------------------  -----------------------  --------  ------  ---------------  -------------------
291cc600a0aa400db8a3541f147e7d9a  asickles   user.xiaoning:user.xiaoning.test-spmethod-231109231109.1.00365932.physics_PC.f1027_m2037_myFlow.root  OK[5/0/0]               BNL-OSG2_LOCALGROUPDISK  1         N/A                      2023-11-13 18:12:36
ID                                ACCOUNT    SCOPE:NAME                                                                                            STATE[OK/REPL/STUCK]    RSE_EXPRESSION           COPIES    SIZE    EXPIRES (UTC)    CREATED (UTC)
--------------------------------  ---------  ----------------------------------------------------------------------------------------------------  ----------------------  -----------------------  --------  ------  ---------------  -------------------
4521f4a2ebe74bb0b350efb393b85fc2  asickles   user.xiaoning:user.xiaoning.test-spmethod-231109231109.1.00366011.physics_CC.f1027_m2037_myFlow.root  OK[17/0/0]              BNL-OSG2_LOCALGROUPDISK  1         N/A                      2023-11-13 18:12:36
ID                                ACCOUNT    SCOPE:NAME                                                                                            STATE[OK/REPL/STUCK]    RSE_EXPRESSION           COPIES    SIZE    EXPIRES (UTC)    CREATED (UTC)
--------------------------------  ---------  ----------------------------------------------------------------------------------------------------  ----------------------  -----------------------  --------  ------  ---------------  -------------------
906e31bc2ffa4c1c9212e89fa4b089d5  asickles   user.xiaoning:user.xiaoning.test-spmethod-231109231109.1.00366011.physics_PC.f1027_m2037_myFlow.root  OK[5/0/0]               BNL-OSG2_LOCALGROUPDISK  1         N/A                      2023-11-13 18:12:37
ID                                ACCOUNT    SCOPE:NAME                                                                                            STATE[OK/REPL/STUCK]    RSE_EXPRESSION           COPIES    SIZE    EXPIRES (UTC)    CREATED (UTC)
--------------------------------  ---------  ----------------------------------------------------------------------------------------------------  ----------------------  -----------------------  --------  ------  ---------------  -------------------
2e9ec87a577d49beaea7ebd12cec306e  asickles   user.xiaoning:user.xiaoning.test-spmethod-231109231109.1.00366029.physics_CC.f1027_m2037_myFlow.root  OK[16/0/0]              BNL-OSG2_LOCALGROUPDISK  1         N/A                      2023-11-13 18:12:37
ID                                ACCOUNT    SCOPE:NAME                                                                                            STATE[OK/REPL/STUCK]    RSE_EXPRESSION           COPIES    SIZE    EXPIRES (UTC)    CREATED (UTC)
--------------------------------  ---------  ----------------------------------------------------------------------------------------------------  ----------------------  -----------------------  --------  ------  ---------------  -------------------
c42b5978cb8b4796b4d1ab644b5cdd0f  asickles   user.xiaoning:user.xiaoning.test-spmethod-231109231109.1.00366029.physics_PC.f1027_m2037_myFlow.root  OK[5/0/0]               BNL-OSG2_LOCALGROUPDISK  1         N/A                      2023-11-13 18:12:37
ID                                ACCOUNT    SCOPE:NAME                                                                                            STATE[OK/REPL/STUCK]    RSE_EXPRESSION           COPIES    SIZE    EXPIRES (UTC)    CREATED (UTC)
--------------------------------  ---------  ----------------------------------------------------------------------------------------------------  ----------------------  -----------------------  --------  ------  ---------------  -------------------
164f6c02336b42768941b01cb488f072  asickles   user.xiaoning:user.xiaoning.test-spmethod-231109231109.1.00366092.physics_CC.f1027_m2037_myFlow.root  OK[17/0/0]              BNL-OSG2_LOCALGROUPDISK  1         N/A                      2023-11-13 18:12:38
ID                                ACCOUNT    SCOPE:NAME                                                                                            STATE[OK/REPL/STUCK]    RSE_EXPRESSION           COPIES    SIZE    EXPIRES (UTC)    CREATED (UTC)
--------------------------------  ---------  ----------------------------------------------------------------------------------------------------  ----------------------  -----------------------  --------  ------  ---------------  -------------------
4271b978fe9845f19bdf762bb67848ed  asickles   user.xiaoning:user.xiaoning.test-spmethod-231109231109.1.00366092.physics_PC.f1027_m2037_myFlow.root  OK[5/0/0]               BNL-OSG2_LOCALGROUPDISK  1         N/A                      2023-11-13 18:12:38
ID                                ACCOUNT    SCOPE:NAME                                                                                            STATE[OK/REPL/STUCK]    RSE_EXPRESSION           COPIES    SIZE    EXPIRES (UTC)    CREATED (UTC)
--------------------------------  ---------  ----------------------------------------------------------------------------------------------------  ----------------------  -----------------------  --------  ------  ---------------  -------------------
f9991054af5e42a8971544a93852c613  asickles   user.xiaoning:user.xiaoning.test-spmethod-231109231109.1.00366142.physics_CC.f1027_m2037_myFlow.root  OK[17/0/0]              BNL-OSG2_LOCALGROUPDISK  1         N/A                      2023-11-13 18:12:38
ID                                ACCOUNT    SCOPE:NAME                                                                                            STATE[OK/REPL/STUCK]    RSE_EXPRESSION           COPIES    SIZE    EXPIRES (UTC)    CREATED (UTC)
--------------------------------  ---------  ----------------------------------------------------------------------------------------------------  ----------------------  -----------------------  --------  ------  ---------------  -------------------
9f800621cf6e49a4a11f665f66133fd9  asickles   user.xiaoning:user.xiaoning.test-spmethod-231109231109.1.00366142.physics_PC.f1027_m2037_myFlow.root  OK[5/0/0]               BNL-OSG2_LOCALGROUPDISK  1         N/A                      2023-11-13 18:12:38
ID                                ACCOUNT    SCOPE:NAME                                                                                            STATE[OK/REPL/STUCK]    RSE_EXPRESSION           COPIES    SIZE    EXPIRES (UTC)    CREATED (UTC)
--------------------------------  ---------  ----------------------------------------------------------------------------------------------------  ----------------------  -----------------------  --------  ------  ---------------  -------------------
27840319a0af4fa3ace19c2bdde16064  asickles   user.xiaoning:user.xiaoning.test-spmethod-231109231109.1.00366268.physics_CC.f1027_m2037_myFlow.root  OK[23/0/0]              BNL-OSG2_LOCALGROUPDISK  1         N/A                      2023-11-13 18:12:38
ID                                ACCOUNT    SCOPE:NAME                                                                                            STATE[OK/REPL/STUCK]    RSE_EXPRESSION           COPIES    SIZE    EXPIRES (UTC)    CREATED (UTC)
--------------------------------  ---------  ----------------------------------------------------------------------------------------------------  ----------------------  -----------------------  --------  ------  ---------------  -------------------
2cc8844a47b2477eb72b75927ef11669  asickles   user.xiaoning:user.xiaoning.test-spmethod-231109231109.1.00366268.physics_PC.f1027_m2037_myFlow.root  OK[8/0/0]               BNL-OSG2_LOCALGROUPDISK  1         N/A                      2023-11-13 18:12:39
No rules found, listing rules for content
ID                                ACCOUNT    SCOPE:NAME                                                                                                                STATE[OK/REPL/STUCK]    RSE_EXPRESSION                                                COPIES    SIZE        EXPIRES (UTC)        CREATED (UTC)
--------------------------------  ---------  ------------------------------------------------------------------------------------------------------------------------  ----------------------  ------------------------------------------------------------  --------  ----------  -------------------  -------------------
cc9ba8c0b15f4aba9e3e009cb38e1303  xiaoning   user.xiaoning:user.xiaoning.test-spmethod-231109231109.1.00366337.physics_CC.f1027_m2037_myFlow.root.514581272.514581272  OK[1/0/0]               (type=SCRATCHDISK)\notforextracopy=True\GRIF_SCRATCHDISK      1         2.651 GB    2023-11-24 19:55:36  2023-11-10 09:23:29
513c6434d8514dbeb138b2a4e59ff478  xiaoning   user.xiaoning:user.xiaoning.test-spmethod-231109231109.1.00366337.physics_CC.f1027_m2037_myFlow.root.514581272.514581272  OK[1/0/0]               GRIF_SCRATCHDISK                                              1         2.651 GB    2023-11-24 19:55:36  2023-11-10 09:23:29
456fb65da15c48b5a213a209d1b65922  xiaoning   user.xiaoning:user.xiaoning.test-spmethod-231109231109.1.00366337.physics_CC.f1027_m2037_myFlow.root.514598167.514598167  OK[7/0/0]               GRIF_SCRATCHDISK                                              1         19.068 GB   2023-11-24 19:55:37  2023-11-10 10:09:53
83c8484459e5443c882e943a891d8767  xiaoning   user.xiaoning:user.xiaoning.test-spmethod-231109231109.1.00366337.physics_CC.f1027_m2037_myFlow.root.514598167.514598167  OK[7/0/0]               (type=SCRATCHDISK)\notforextracopy=True\GRIF_SCRATCHDISK      1         19.068 GB   2023-11-24 19:55:37  2023-11-10 10:09:53
e29e503929a84fa5a873b2594ea6b96e  xiaoning   user.xiaoning:user.xiaoning.test-spmethod-231109231109.1.00366337.physics_CC.f1027_m2037_myFlow.root.514740413.514740413  OK[4/0/0]               FZK-LCG2_SCRATCHDISK                                          1         42.304 GB   2023-11-24 19:55:38  2023-11-10 16:57:40
0e0aea56e3c040b8bf8f6bc2b107101e  xiaoning   user.xiaoning:user.xiaoning.test-spmethod-231109231109.1.00366337.physics_CC.f1027_m2037_myFlow.root.514740413.514740413  OK[4/0/0]               (type=SCRATCHDISK)\notforextracopy=True\FZK-LCG2_SCRATCHDISK  1         42.304 GB   2023-11-24 19:55:38  2023-11-10 16:57:40
cdd2b4facfb444e7aa7f1d782b96b6fe  xiaoning   user.xiaoning:user.xiaoning.test-spmethod-231109231109.1.00366337.physics_CC.f1027_m2037_myFlow.root.515378998.515378998  OK[1/0/0]               (type=SCRATCHDISK)\notforextracopy=True\GRIF_SCRATCHDISK      1         298.639 MB  2023-11-27 18:48:41  2023-11-13 18:48:41
f8433696e55947f4b05596e1e2f0589f  xiaoning   user.xiaoning:user.xiaoning.test-spmethod-231109231109.1.00366337.physics_CC.f1027_m2037_myFlow.root.515378998.515378998  OK[1/0/0]               GRIF_SCRATCHDISK                                              1         298.639 MB  2023-11-27 18:48:40  2023-11-13 18:48:40
ID                                ACCOUNT    SCOPE:NAME                                                                                            STATE[OK/REPL/STUCK]    RSE_EXPRESSION           COPIES    SIZE    EXPIRES (UTC)    CREATED (UTC)
--------------------------------  ---------  ----------------------------------------------------------------------------------------------------  ----------------------  -----------------------  --------  ------  ---------------  -------------------
7b0bef617f6746378721ff3ebd5eaf16  asickles   user.xiaoning:user.xiaoning.test-spmethod-231109231109.1.00366337.physics_PC.f1027_m2037_myFlow.root  OK[6/0/0]               BNL-OSG2_LOCALGROUPDISK  1         N/A                      2023-11-13 18:12:39
ID                                ACCOUNT    SCOPE:NAME                                                                                            STATE[OK/REPL/STUCK]    RSE_EXPRESSION           COPIES    SIZE    EXPIRES (UTC)    CREATED (UTC)
--------------------------------  ---------  ----------------------------------------------------------------------------------------------------  ----------------------  -----------------------  --------  ------  ---------------  -------------------
529cb2c69a1b47e0ad0a3b2445bc541b  asickles   user.xiaoning:user.xiaoning.test-spmethod-231109231109.1.00366383.physics_CC.f1027_m2048_myFlow.root  OK[1/0/0]               BNL-OSG2_LOCALGROUPDISK  1         N/A                      2023-11-13 18:12:39
ID                                ACCOUNT    SCOPE:NAME                                                                                            STATE[OK/REPL/STUCK]    RSE_EXPRESSION           COPIES    SIZE    EXPIRES (UTC)    CREATED (UTC)
--------------------------------  ---------  ----------------------------------------------------------------------------------------------------  ----------------------  -----------------------  --------  ------  ---------------  -------------------
6f1678a001cb44f68894f65ae1fc64de  asickles   user.xiaoning:user.xiaoning.test-spmethod-231109231109.1.00366383.physics_PC.f1027_m2048_myFlow.root  OK[1/0/0]               BNL-OSG2_LOCALGROUPDISK  1         N/A                      2023-11-13 18:12:39
ID                                ACCOUNT    SCOPE:NAME                                                                                            STATE[OK/REPL/STUCK]    RSE_EXPRESSION           COPIES    SIZE    EXPIRES (UTC)    CREATED (UTC)
--------------------------------  ---------  ----------------------------------------------------------------------------------------------------  ----------------------  -----------------------  --------  ------  ---------------  -------------------
a34e52a6a32f44469ded3d62c01e7fb6  asickles   user.xiaoning:user.xiaoning.test-spmethod-231109231109.1.00366413.physics_CC.f1027_m2048_myFlow.root  OK[17/0/0]              BNL-OSG2_LOCALGROUPDISK  1         N/A                      2023-11-13 18:12:39
ID                                ACCOUNT    SCOPE:NAME                                                                                            STATE[OK/REPL/STUCK]    RSE_EXPRESSION           COPIES    SIZE    EXPIRES (UTC)    CREATED (UTC)
--------------------------------  ---------  ----------------------------------------------------------------------------------------------------  ----------------------  -----------------------  --------  ------  ---------------  -------------------
72880530e6e7423e80d39661057d0508  asickles   user.xiaoning:user.xiaoning.test-spmethod-231109231109.1.00366413.physics_PC.f1027_m2048_myFlow.root  OK[5/0/0]               BNL-OSG2_LOCALGROUPDISK  1         N/A                      2023-11-13 18:12:39
ID                                ACCOUNT    SCOPE:NAME                                                                                            STATE[OK/REPL/STUCK]    RSE_EXPRESSION           COPIES    SIZE    EXPIRES (UTC)    CREATED (UTC)
--------------------------------  ---------  ----------------------------------------------------------------------------------------------------  ----------------------  -----------------------  --------  ------  ---------------  -------------------
b53729ea57c3410aa5157682ff4a79dd  asickles   user.xiaoning:user.xiaoning.test-spmethod-231109231109.1.00366476.physics_CC.f1027_m2048_myFlow.root  OK[17/0/0]              BNL-OSG2_LOCALGROUPDISK  1         N/A                      2023-11-13 18:12:39
ID                                ACCOUNT    SCOPE:NAME                                                                                            STATE[OK/REPL/STUCK]    RSE_EXPRESSION           COPIES    SIZE    EXPIRES (UTC)    CREATED (UTC)
--------------------------------  ---------  ----------------------------------------------------------------------------------------------------  ----------------------  -----------------------  --------  ------  ---------------  -------------------
f9a53f7c6edd441eabcfdf539edbdd1b  asickles   user.xiaoning:user.xiaoning.test-spmethod-231109231109.1.00366476.physics_PC.f1027_m2048_myFlow.root  OK[5/0/0]               BNL-OSG2_LOCALGROUPDISK  1         N/A                      2023-11-13 18:12:40
ID                                ACCOUNT    SCOPE:NAME                                                                                            STATE[OK/REPL/STUCK]    RSE_EXPRESSION           COPIES    SIZE    EXPIRES (UTC)    CREATED (UTC)
--------------------------------  ---------  ----------------------------------------------------------------------------------------------------  ----------------------  -----------------------  --------  ------  ---------------  -------------------
aad3765d158640dfa567879051fc927f  asickles   user.xiaoning:user.xiaoning.test-spmethod-231109231109.1.00366526.physics_CC.f1027_m2048_myFlow.root  OK[1/0/0]               BNL-OSG2_LOCALGROUPDISK  1         N/A                      2023-11-13 18:12:40
ID                                ACCOUNT    SCOPE:NAME                                                                                            STATE[OK/REPL/STUCK]    RSE_EXPRESSION           COPIES    SIZE    EXPIRES (UTC)    CREATED (UTC)
--------------------------------  ---------  ----------------------------------------------------------------------------------------------------  ----------------------  -----------------------  --------  ------  ---------------  -------------------
728a308acde343a5bc3378f4ba8353a5  asickles   user.xiaoning:user.xiaoning.test-spmethod-231109231109.1.00366526.physics_PC.f1027_m2048_myFlow.root  OK[1/0/0]               BNL-OSG2_LOCALGROUPDISK  1         N/A                      2023-11-13 18:12:40
ID                                ACCOUNT    SCOPE:NAME                                                                                            STATE[OK/REPL/STUCK]    RSE_EXPRESSION           COPIES    SIZE    EXPIRES (UTC)    CREATED (UTC)
--------------------------------  ---------  ----------------------------------------------------------------------------------------------------  ----------------------  -----------------------  --------  ------  ---------------  -------------------
ffdeb22bdf964c9aa5073eaabb54fd86  asickles   user.xiaoning:user.xiaoning.test-spmethod-231109231109.1.00366528.physics_CC.f1027_m2048_myFlow.root  OK[13/0/0]              BNL-OSG2_LOCALGROUPDISK  1         N/A                      2023-11-13 18:12:40
ID                                ACCOUNT    SCOPE:NAME                                                                                            STATE[OK/REPL/STUCK]    RSE_EXPRESSION           COPIES    SIZE    EXPIRES (UTC)    CREATED (UTC)
--------------------------------  ---------  ----------------------------------------------------------------------------------------------------  ----------------------  -----------------------  --------  ------  ---------------  -------------------
3dca683366f043b487d7f5808cc365c0  asickles   user.xiaoning:user.xiaoning.test-spmethod-231109231109.1.00366528.physics_PC.f1027_m2048_myFlow.root  OK[3/0/0]               BNL-OSG2_LOCALGROUPDISK  1         N/A                      2023-11-13 18:12:40
ID                                ACCOUNT    SCOPE:NAME                                                                                            STATE[OK/REPL/STUCK]    RSE_EXPRESSION           COPIES    SIZE    EXPIRES (UTC)    CREATED (UTC)
--------------------------------  ---------  ----------------------------------------------------------------------------------------------------  ----------------------  -----------------------  --------  ------  ---------------  -------------------
0a6470a75f1e4c518f8c0e8c6a0300a8  asickles   user.xiaoning:user.xiaoning.test-spmethod-231109231109.1.00366627.physics_CC.f1030_m2048_myFlow.root  OK[17/0/0]              BNL-OSG2_LOCALGROUPDISK  1         N/A                      2023-11-13 18:12:40
ID                                ACCOUNT    SCOPE:NAME                                                                                            STATE[OK/REPL/STUCK]    RSE_EXPRESSION           COPIES    SIZE    EXPIRES (UTC)    CREATED (UTC)
--------------------------------  ---------  ----------------------------------------------------------------------------------------------------  ----------------------  -----------------------  --------  ------  ---------------  -------------------
0ab1a33788a64b818c34e2e1b5b6cb8d  asickles   user.xiaoning:user.xiaoning.test-spmethod-231109231109.1.00366627.physics_PC.f1030_m2048_myFlow.root  OK[4/0/0]               BNL-OSG2_LOCALGROUPDISK  1         N/A                      2023-11-13 18:12:41
ID                                ACCOUNT    SCOPE:NAME                                                                                            STATE[OK/REPL/STUCK]    RSE_EXPRESSION           COPIES    SIZE    EXPIRES (UTC)    CREATED (UTC)
--------------------------------  ---------  ----------------------------------------------------------------------------------------------------  ----------------------  -----------------------  --------  ------  ---------------  -------------------
94db20e6a0fc41d297812b5b7d76f4d4  asickles   user.xiaoning:user.xiaoning.test-spmethod-231109231109.1.00366691.physics_CC.f1030_m2048_myFlow.root  OK[20/0/0]              BNL-OSG2_LOCALGROUPDISK  1         N/A                      2023-11-13 18:12:41
ID                                ACCOUNT    SCOPE:NAME                                                                                            STATE[OK/REPL/STUCK]    RSE_EXPRESSION           COPIES    SIZE    EXPIRES (UTC)    CREATED (UTC)
--------------------------------  ---------  ----------------------------------------------------------------------------------------------------  ----------------------  -----------------------  --------  ------  ---------------  -------------------
5e23666f845a46de9cd6a4636d5e55d0  asickles   user.xiaoning:user.xiaoning.test-spmethod-231109231109.1.00366691.physics_PC.f1030_m2048_myFlow.root  OK[8/0/0]               BNL-OSG2_LOCALGROUPDISK  1         N/A                      2023-11-13 18:12:41
ID                                ACCOUNT    SCOPE:NAME                                                                                            STATE[OK/REPL/STUCK]    RSE_EXPRESSION           COPIES    SIZE    EXPIRES (UTC)    CREATED (UTC)
--------------------------------  ---------  ----------------------------------------------------------------------------------------------------  ----------------------  -----------------------  --------  ------  ---------------  -------------------
74dff03d33774918abeb71fa184fa939  asickles   user.xiaoning:user.xiaoning.test-spmethod-231109231109.1.00366754.physics_CC.f1030_m2048_myFlow.root  OK[18/0/0]              BNL-OSG2_LOCALGROUPDISK  1         N/A                      2023-11-13 18:12:41
ID                                ACCOUNT    SCOPE:NAME                                                                                            STATE[OK/REPL/STUCK]    RSE_EXPRESSION           COPIES    SIZE    EXPIRES (UTC)    CREATED (UTC)
--------------------------------  ---------  ----------------------------------------------------------------------------------------------------  ----------------------  -----------------------  --------  ------  ---------------  -------------------
5c02675c73c244aea9058e3ebaf5193e  asickles   user.xiaoning:user.xiaoning.test-spmethod-231109231109.1.00366754.physics_PC.f1030_m2048_myFlow.root  OK[5/0/0]               BNL-OSG2_LOCALGROUPDISK  1         N/A                      2023-11-13 18:12:41
ID                                ACCOUNT    SCOPE:NAME                                                                                            STATE[OK/REPL/STUCK]    RSE_EXPRESSION           COPIES    SIZE    EXPIRES (UTC)    CREATED (UTC)
--------------------------------  ---------  ----------------------------------------------------------------------------------------------------  ----------------------  -----------------------  --------  ------  ---------------  -------------------
69441856db144639900675963ff52ddc  asickles   user.xiaoning:user.xiaoning.test-spmethod-231109231109.1.00366805.physics_CC.f1030_m2048_myFlow.root  OK[20/0/0]              BNL-OSG2_LOCALGROUPDISK  1         N/A                      2023-11-13 18:12:41
ID                                ACCOUNT    SCOPE:NAME                                                                                            STATE[OK/REPL/STUCK]    RSE_EXPRESSION           COPIES    SIZE    EXPIRES (UTC)    CREATED (UTC)
--------------------------------  ---------  ----------------------------------------------------------------------------------------------------  ----------------------  -----------------------  --------  ------  ---------------  -------------------
cc79aeb90f034cd28938df07ce0ca768  asickles   user.xiaoning:user.xiaoning.test-spmethod-231109231109.1.00366805.physics_PC.f1030_m2048_myFlow.root  OK[7/0/0]               BNL-OSG2_LOCALGROUPDISK  1         N/A                      2023-11-13 18:12:41
ID                                ACCOUNT    SCOPE:NAME                                                                                            STATE[OK/REPL/STUCK]    RSE_EXPRESSION           COPIES    SIZE    EXPIRES (UTC)    CREATED (UTC)
--------------------------------  ---------  ----------------------------------------------------------------------------------------------------  ----------------------  -----------------------  --------  ------  ---------------  -------------------
fdd16f02ec6b4d2ea4a29d1c3104c14b  asickles   user.xiaoning:user.xiaoning.test-spmethod-231109231109.1.00366860.physics_CC.f1030_m2048_myFlow.root  OK[18/0/0]              BNL-OSG2_LOCALGROUPDISK  1         N/A                      2023-11-13 18:12:42
ID                                ACCOUNT    SCOPE:NAME                                                                                            STATE[OK/REPL/STUCK]    RSE_EXPRESSION           COPIES    SIZE    EXPIRES (UTC)    CREATED (UTC)
--------------------------------  ---------  ----------------------------------------------------------------------------------------------------  ----------------------  -----------------------  --------  ------  ---------------  -------------------
9adc1246f602462bb9999b555c68e1b5  asickles   user.xiaoning:user.xiaoning.test-spmethod-231109231109.1.00366860.physics_PC.f1030_m2048_myFlow.root  OK[6/0/0]               BNL-OSG2_LOCALGROUPDISK  1         N/A                      2023-11-13 18:12:42
ID                                ACCOUNT    SCOPE:NAME                                                                                            STATE[OK/REPL/STUCK]    RSE_EXPRESSION           COPIES    SIZE    EXPIRES (UTC)    CREATED (UTC)
--------------------------------  ---------  ----------------------------------------------------------------------------------------------------  ----------------------  -----------------------  --------  ------  ---------------  -------------------
90f06382ade14376bc9eb355e6b0152d  asickles   user.xiaoning:user.xiaoning.test-spmethod-231109231109.1.00366878.physics_CC.f1030_m2048_myFlow.root  OK[18/0/0]              BNL-OSG2_LOCALGROUPDISK  1         N/A                      2023-11-13 18:12:42
ID                                ACCOUNT    SCOPE:NAME                                                                                            STATE[OK/REPL/STUCK]    RSE_EXPRESSION           COPIES    SIZE    EXPIRES (UTC)    CREATED (UTC)
--------------------------------  ---------  ----------------------------------------------------------------------------------------------------  ----------------------  -----------------------  --------  ------  ---------------  -------------------
be13b58c3d214dcd8e0dd9e3d4c29a10  asickles   user.xiaoning:user.xiaoning.test-spmethod-231109231109.1.00366878.physics_PC.f1030_m2048_myFlow.root  OK[6/0/0]               BNL-OSG2_LOCALGROUPDISK  1         N/A                      2023-11-13 18:12:42
ID                                ACCOUNT    SCOPE:NAME                                                                                            STATE[OK/REPL/STUCK]    RSE_EXPRESSION           COPIES    SIZE    EXPIRES (UTC)    CREATED (UTC)
--------------------------------  ---------  ----------------------------------------------------------------------------------------------------  ----------------------  -----------------------  --------  ------  ---------------  -------------------
d7d94bb14ebc4b06b3177abdbc86c723  asickles   user.xiaoning:user.xiaoning.test-spmethod-231109231109.1.00366919.physics_CC.f1030_m2048_myFlow.root  OK[20/0/0]              BNL-OSG2_LOCALGROUPDISK  1         N/A                      2023-11-13 18:12:42
ID                                ACCOUNT    SCOPE:NAME                                                                                            STATE[OK/REPL/STUCK]    RSE_EXPRESSION           COPIES    SIZE    EXPIRES (UTC)    CREATED (UTC)
--------------------------------  ---------  ----------------------------------------------------------------------------------------------------  ----------------------  -----------------------  --------  ------  ---------------  -------------------
527b1532b90140cd8cca5d8b7dd31bc2  asickles   user.xiaoning:user.xiaoning.test-spmethod-231109231109.1.00366919.physics_PC.f1030_m2048_myFlow.root  OK[7/0/0]               BNL-OSG2_LOCALGROUPDISK  1         N/A                      2023-11-13 18:12:42
ID                                ACCOUNT    SCOPE:NAME                                                                                            STATE[OK/REPL/STUCK]    RSE_EXPRESSION           COPIES    SIZE    EXPIRES (UTC)    CREATED (UTC)
--------------------------------  ---------  ----------------------------------------------------------------------------------------------------  ----------------------  -----------------------  --------  ------  ---------------  -------------------
bee14ee4ce3044e58a78fd87aab80881  asickles   user.xiaoning:user.xiaoning.test-spmethod-231109231109.1.00366931.physics_CC.f1030_m2048_myFlow.root  OK[14/0/0]              BNL-OSG2_LOCALGROUPDISK  1         N/A                      2023-11-13 18:12:43
ID                                ACCOUNT    SCOPE:NAME                                                                                            STATE[OK/REPL/STUCK]    RSE_EXPRESSION           COPIES    SIZE    EXPIRES (UTC)    CREATED (UTC)
--------------------------------  ---------  ----------------------------------------------------------------------------------------------------  ----------------------  -----------------------  --------  ------  ---------------  -------------------
953eae0e16b0437f8030747bb6403f0b  asickles   user.xiaoning:user.xiaoning.test-spmethod-231109231109.1.00366931.physics_PC.f1030_m2048_myFlow.root  OK[5/0/0]               BNL-OSG2_LOCALGROUPDISK  1         N/A                      2023-11-13 18:12:43
ID                                ACCOUNT    SCOPE:NAME                                                                                            STATE[OK/REPL/STUCK]    RSE_EXPRESSION           COPIES    SIZE    EXPIRES (UTC)    CREATED (UTC)
--------------------------------  ---------  ----------------------------------------------------------------------------------------------------  ----------------------  -----------------------  --------  ------  ---------------  -------------------
a354e891d18b42949d597a7416917f89  asickles   user.xiaoning:user.xiaoning.test-spmethod-231109231109.1.00366994.physics_CC.f1030_m2048_myFlow.root  OK[1/0/0]               BNL-OSG2_LOCALGROUPDISK  1         N/A                      2023-11-13 18:12:43
ID                                ACCOUNT    SCOPE:NAME                                                                                            STATE[OK/REPL/STUCK]    RSE_EXPRESSION           COPIES    SIZE    EXPIRES (UTC)    CREATED (UTC)
--------------------------------  ---------  ----------------------------------------------------------------------------------------------------  ----------------------  -----------------------  --------  ------  ---------------  -------------------
24c4331d0a784e99b76e10958f8e77ca  asickles   user.xiaoning:user.xiaoning.test-spmethod-231109231109.1.00366994.physics_PC.f1030_m2048_myFlow.root  OK[1/0/0]               BNL-OSG2_LOCALGROUPDISK  1         N/A                      2023-11-13 18:12:43
ID                                ACCOUNT    SCOPE:NAME                                                                                            STATE[OK/REPL/STUCK]    RSE_EXPRESSION           COPIES    SIZE    EXPIRES (UTC)    CREATED (UTC)
--------------------------------  ---------  ----------------------------------------------------------------------------------------------------  ----------------------  -----------------------  --------  ------  ---------------  -------------------
4ce0932880da43239be17d93f0030041  asickles   user.xiaoning:user.xiaoning.test-spmethod-231109231109.1.00367023.physics_CC.f1030_m2048_myFlow.root  OK[19/0/0]              BNL-OSG2_LOCALGROUPDISK  1         N/A                      2023-11-13 18:12:43
ID                                ACCOUNT    SCOPE:NAME                                                                                            STATE[OK/REPL/STUCK]    RSE_EXPRESSION           COPIES    SIZE    EXPIRES (UTC)    CREATED (UTC)
--------------------------------  ---------  ----------------------------------------------------------------------------------------------------  ----------------------  -----------------------  --------  ------  ---------------  -------------------
185130ecb53a4aea9b070ad0271b709e  asickles   user.xiaoning:user.xiaoning.test-spmethod-231109231109.1.00367023.physics_PC.f1030_m2048_myFlow.root  OK[7/0/0]               BNL-OSG2_LOCALGROUPDISK  1         N/A                      2023-11-13 18:12:43
ID                                ACCOUNT    SCOPE:NAME                                                                                            STATE[OK/REPL/STUCK]    RSE_EXPRESSION           COPIES    SIZE    EXPIRES (UTC)    CREATED (UTC)
--------------------------------  ---------  ----------------------------------------------------------------------------------------------------  ----------------------  -----------------------  --------  ------  ---------------  -------------------
1a75c5c8b7ea4b5793ac50bce573dfa7  asickles   user.xiaoning:user.xiaoning.test-spmethod-231109231109.1.00367099.physics_CC.f1030_m2048_myFlow.root  OK[17/0/0]              BNL-OSG2_LOCALGROUPDISK  1         N/A                      2023-11-13 18:12:43
ID                                ACCOUNT    SCOPE:NAME                                                                                            STATE[OK/REPL/STUCK]    RSE_EXPRESSION           COPIES    SIZE    EXPIRES (UTC)    CREATED (UTC)
--------------------------------  ---------  ----------------------------------------------------------------------------------------------------  ----------------------  -----------------------  --------  ------  ---------------  -------------------
3b2360a6420e46a79c3f6321f938a05d  asickles   user.xiaoning:user.xiaoning.test-spmethod-231109231109.1.00367099.physics_PC.f1030_m2048_myFlow.root  OK[6/0/0]               BNL-OSG2_LOCALGROUPDISK  1         N/A                      2023-11-13 18:12:43
ID                                ACCOUNT    SCOPE:NAME                                                                                            STATE[OK/REPL/STUCK]    RSE_EXPRESSION           COPIES    SIZE    EXPIRES (UTC)    CREATED (UTC)
--------------------------------  ---------  ----------------------------------------------------------------------------------------------------  ----------------------  -----------------------  --------  ------  ---------------  -------------------
350490b6164c4b54a79bab19f474cf54  asickles   user.xiaoning:user.xiaoning.test-spmethod-231109231109.1.00367134.physics_CC.f1030_m2048_myFlow.root  OK[18/0/0]              BNL-OSG2_LOCALGROUPDISK  1         N/A                      2023-11-13 18:12:43
ID                                ACCOUNT    SCOPE:NAME                                                                                            STATE[OK/REPL/STUCK]    RSE_EXPRESSION           COPIES    SIZE    EXPIRES (UTC)    CREATED (UTC)
--------------------------------  ---------  ----------------------------------------------------------------------------------------------------  ----------------------  -----------------------  --------  ------  ---------------  -------------------
2ca6ec551ccc4c2ca173c1d56fe63c91  asickles   user.xiaoning:user.xiaoning.test-spmethod-231109231109.1.00367134.physics_PC.f1030_m2048_myFlow.root  OK[6/0/0]               BNL-OSG2_LOCALGROUPDISK  1         N/A                      2023-11-13 18:12:44
ID                                ACCOUNT    SCOPE:NAME                                                                                            STATE[OK/REPL/STUCK]    RSE_EXPRESSION           COPIES    SIZE    EXPIRES (UTC)    CREATED (UTC)
--------------------------------  ---------  ----------------------------------------------------------------------------------------------------  ----------------------  -----------------------  --------  ------  ---------------  -------------------
353cb4461dc84336b2a6e6676b09017a  asickles   user.xiaoning:user.xiaoning.test-spmethod-231109231109.1.00367165.physics_CC.f1030_m2048_myFlow.root  OK[1/0/0]               BNL-OSG2_LOCALGROUPDISK  1         N/A                      2023-11-13 18:12:44
ID                                ACCOUNT    SCOPE:NAME                                                                                            STATE[OK/REPL/STUCK]    RSE_EXPRESSION           COPIES    SIZE    EXPIRES (UTC)    CREATED (UTC)
--------------------------------  ---------  ----------------------------------------------------------------------------------------------------  ----------------------  -----------------------  --------  ------  ---------------  -------------------
0419a0587d6c4ba2b4c5225a97f0c2b3  asickles   user.xiaoning:user.xiaoning.test-spmethod-231109231109.1.00367165.physics_PC.f1030_m2048_myFlow.root  OK[1/0/0]               BNL-OSG2_LOCALGROUPDISK  1         N/A                      2023-11-13 18:12:44
ID                                ACCOUNT    SCOPE:NAME                                                                                            STATE[OK/REPL/STUCK]    RSE_EXPRESSION           COPIES    SIZE    EXPIRES (UTC)    CREATED (UTC)
--------------------------------  ---------  ----------------------------------------------------------------------------------------------------  ----------------------  -----------------------  --------  ------  ---------------  -------------------
fd6a99088d454676b6c78abf80d81b6d  asickles   user.xiaoning:user.xiaoning.test-spmethod-231109231109.1.00367170.physics_CC.f1030_m2048_myFlow.root  REPLICATING[20/1/0]     BNL-OSG2_LOCALGROUPDISK  1         N/A                      2023-11-13 18:12:44
ID                                ACCOUNT    SCOPE:NAME                                                                                            STATE[OK/REPL/STUCK]    RSE_EXPRESSION           COPIES    SIZE    EXPIRES (UTC)    CREATED (UTC)
--------------------------------  ---------  ----------------------------------------------------------------------------------------------------  ----------------------  -----------------------  --------  ------  ---------------  -------------------
304649e58bed4d1e857cd180a3af71b1  asickles   user.xiaoning:user.xiaoning.test-spmethod-231109231109.1.00367170.physics_PC.f1030_m2048_myFlow.root  OK[6/0/0]               BNL-OSG2_LOCALGROUPDISK  1         N/A                      2023-11-13 18:12:44
ID                                ACCOUNT    SCOPE:NAME                                                                                            STATE[OK/REPL/STUCK]    RSE_EXPRESSION           COPIES    SIZE    EXPIRES (UTC)    CREATED (UTC)
--------------------------------  ---------  ----------------------------------------------------------------------------------------------------  ----------------------  -----------------------  --------  ------  ---------------  -------------------
52ea1b2726aa4f0eacbba20a75dfa736  asickles   user.xiaoning:user.xiaoning.test-spmethod-231109231109.1.00367233.physics_CC.f1030_m2048_myFlow.root  OK[18/0/0]              BNL-OSG2_LOCALGROUPDISK  1         N/A                      2023-11-13 18:12:44
ID                                ACCOUNT    SCOPE:NAME                                                                                            STATE[OK/REPL/STUCK]    RSE_EXPRESSION           COPIES    SIZE    EXPIRES (UTC)    CREATED (UTC)
--------------------------------  ---------  ----------------------------------------------------------------------------------------------------  ----------------------  -----------------------  --------  ------  ---------------  -------------------
7475d001607549f39cc9683dad587129  asickles   user.xiaoning:user.xiaoning.test-spmethod-231109231109.1.00367233.physics_PC.f1030_m2048_myFlow.root  OK[7/0/0]               BNL-OSG2_LOCALGROUPDISK  1         N/A                      2023-11-13 18:12:44
ID                                ACCOUNT    SCOPE:NAME                                                                                            STATE[OK/REPL/STUCK]    RSE_EXPRESSION           COPIES    SIZE    EXPIRES (UTC)    CREATED (UTC)
--------------------------------  ---------  ----------------------------------------------------------------------------------------------------  ----------------------  -----------------------  --------  ------  ---------------  -------------------
59c67d2d41fd4d1cb16e2067bf34a67b  asickles   user.xiaoning:user.xiaoning.test-spmethod-231109231109.1.00367273.physics_CC.f1030_m2048_myFlow.root  OK[17/0/0]              BNL-OSG2_LOCALGROUPDISK  1         N/A                      2023-11-13 18:12:44
ID                                ACCOUNT    SCOPE:NAME                                                                                            STATE[OK/REPL/STUCK]    RSE_EXPRESSION           COPIES    SIZE    EXPIRES (UTC)    CREATED (UTC)
--------------------------------  ---------  ----------------------------------------------------------------------------------------------------  ----------------------  -----------------------  --------  ------  ---------------  -------------------
db1a24764b964db1b8db497eb34b3dcd  asickles   user.xiaoning:user.xiaoning.test-spmethod-231109231109.1.00367273.physics_PC.f1030_m2048_myFlow.root  OK[6/0/0]               BNL-OSG2_LOCALGROUPDISK  1         N/A                      2023-11-13 18:12:44
ID                                ACCOUNT    SCOPE:NAME                                                                                            STATE[OK/REPL/STUCK]    RSE_EXPRESSION           COPIES    SIZE    EXPIRES (UTC)    CREATED (UTC)
--------------------------------  ---------  ----------------------------------------------------------------------------------------------------  ----------------------  -----------------------  --------  ------  ---------------  -------------------
dcd2f36efa5e4b0c970bed2eb20b72f4  asickles   user.xiaoning:user.xiaoning.test-spmethod-231109231109.1.00367318.physics_CC.f1030_m2048_myFlow.root  OK[18/0/0]              BNL-OSG2_LOCALGROUPDISK  1         N/A                      2023-11-13 18:12:45
ID                                ACCOUNT    SCOPE:NAME                                                                                            STATE[OK/REPL/STUCK]    RSE_EXPRESSION           COPIES    SIZE    EXPIRES (UTC)    CREATED (UTC)
--------------------------------  ---------  ----------------------------------------------------------------------------------------------------  ----------------------  -----------------------  --------  ------  ---------------  -------------------
148e3dc4ceea44ea943433c6108d3ec9  asickles   user.xiaoning:user.xiaoning.test-spmethod-231109231109.1.00367318.physics_PC.f1030_m2048_myFlow.root  OK[6/0/0]               BNL-OSG2_LOCALGROUPDISK  1         N/A                      2023-11-13 18:12:45
ID                                ACCOUNT    SCOPE:NAME                                                                                            STATE[OK/REPL/STUCK]    RSE_EXPRESSION           COPIES    SIZE    EXPIRES (UTC)    CREATED (UTC)
--------------------------------  ---------  ----------------------------------------------------------------------------------------------------  ----------------------  -----------------------  --------  ------  ---------------  -------------------
a6db37ba589b4fc3a19884a594277d57  asickles   user.xiaoning:user.xiaoning.test-spmethod-231109231109.1.00367321.physics_CC.f1030_m2048_myFlow.root  OK[17/0/0]              BNL-OSG2_LOCALGROUPDISK  1         N/A                      2023-11-13 18:12:45
ID                                ACCOUNT    SCOPE:NAME                                                                                            STATE[OK/REPL/STUCK]    RSE_EXPRESSION           COPIES    SIZE    EXPIRES (UTC)    CREATED (UTC)
--------------------------------  ---------  ----------------------------------------------------------------------------------------------------  ----------------------  -----------------------  --------  ------  ---------------  -------------------
c0ab2ae7c1dc41aa96db4aad759220bc  asickles   user.xiaoning:user.xiaoning.test-spmethod-231109231109.1.00367321.physics_PC.f1030_m2048_myFlow.root  OK[5/0/0]               BNL-OSG2_LOCALGROUPDISK  1         N/A                      2023-11-13 18:12:45
ID                                ACCOUNT    SCOPE:NAME                                                                                            STATE[OK/REPL/STUCK]    RSE_EXPRESSION           COPIES    SIZE    EXPIRES (UTC)    CREATED (UTC)
--------------------------------  ---------  ----------------------------------------------------------------------------------------------------  ----------------------  -----------------------  --------  ------  ---------------  -------------------
5b7f446bcb0645d495dcde562810d9ec  asickles   user.xiaoning:user.xiaoning.test-spmethod-231109231109.1.00367363.physics_CC.f1030_m2048_myFlow.root  OK[1/0/0]               BNL-OSG2_LOCALGROUPDISK  1         N/A                      2023-11-13 18:12:45
ID                                ACCOUNT    SCOPE:NAME                                                                                            STATE[OK/REPL/STUCK]    RSE_EXPRESSION           COPIES    SIZE    EXPIRES (UTC)    CREATED (UTC)
--------------------------------  ---------  ----------------------------------------------------------------------------------------------------  ----------------------  -----------------------  --------  ------  ---------------  -------------------
87ce42047bb940ec84855c043b67f76e  asickles   user.xiaoning:user.xiaoning.test-spmethod-231109231109.1.00367363.physics_PC.f1030_m2048_myFlow.root  OK[1/0/0]               BNL-OSG2_LOCALGROUPDISK  1         N/A                      2023-11-13 18:12:45
ID                                ACCOUNT    SCOPE:NAME                                                                                            STATE[OK/REPL/STUCK]    RSE_EXPRESSION           COPIES    SIZE    EXPIRES (UTC)    CREATED (UTC)
--------------------------------  ---------  ----------------------------------------------------------------------------------------------------  ----------------------  -----------------------  --------  ------  ---------------  -------------------
756da7f5a6164d5187b83fa2d9676312  asickles   user.xiaoning:user.xiaoning.test-spmethod-231109231109.1.00367364.physics_CC.f1030_m2048_myFlow.root  OK[18/0/0]              BNL-OSG2_LOCALGROUPDISK  1         N/A                      2023-11-13 18:12:45
ID                                ACCOUNT    SCOPE:NAME                                                                                            STATE[OK/REPL/STUCK]    RSE_EXPRESSION           COPIES    SIZE    EXPIRES (UTC)    CREATED (UTC)
--------------------------------  ---------  ----------------------------------------------------------------------------------------------------  ----------------------  -----------------------  --------  ------  ---------------  -------------------
7f5f30a6da0d409588b1f79d9321760a  asickles   user.xiaoning:user.xiaoning.test-spmethod-231109231109.1.00367364.physics_PC.f1030_m2048_myFlow.root  OK[7/0/0]               BNL-OSG2_LOCALGROUPDISK  1         N/A                      2023-11-13 18:12:45
ID                                ACCOUNT    SCOPE:NAME                                                                                            STATE[OK/REPL/STUCK]    RSE_EXPRESSION           COPIES    SIZE    EXPIRES (UTC)    CREATED (UTC)
--------------------------------  ---------  ----------------------------------------------------------------------------------------------------  ----------------------  -----------------------  --------  ------  ---------------  -------------------
0cba665b78564bf48b17c71ed18215f6  asickles   user.xiaoning:user.xiaoning.test-spmethod-231109231109.1.00367365.physics_CC.f1030_m2048_myFlow.root  OK[12/0/0]              BNL-OSG2_LOCALGROUPDISK  1         N/A                      2023-11-13 18:12:46
ID                                ACCOUNT    SCOPE:NAME                                                                                            STATE[OK/REPL/STUCK]    RSE_EXPRESSION           COPIES    SIZE    EXPIRES (UTC)    CREATED (UTC)
--------------------------------  ---------  ----------------------------------------------------------------------------------------------------  ----------------------  -----------------------  --------  ------  ---------------  -------------------
accfc651553e4eaebd2f090745e221bc  asickles   user.xiaoning:user.xiaoning.test-spmethod-231109231109.1.00367365.physics_PC.f1030_m2048_myFlow.root  OK[4/0/0]               BNL-OSG2_LOCALGROUPDISK  1         N/A                      2023-11-13 18:12:46
ID                                ACCOUNT    SCOPE:NAME                                                                                            STATE[OK/REPL/STUCK]    RSE_EXPRESSION           COPIES    SIZE    EXPIRES (UTC)    CREATED (UTC)
--------------------------------  ---------  ----------------------------------------------------------------------------------------------------  ----------------------  -----------------------  --------  ------  ---------------  -------------------
8f4bd237a7c64ce8bf3a8175cc39bc0b  asickles   user.xiaoning:user.xiaoning.test-spmethod-231109231109.1.00367384.physics_CC.f1030_m2048_myFlow.root  OK[1/0/0]               BNL-OSG2_LOCALGROUPDISK  1         N/A                      2023-11-13 18:12:46
ID                                ACCOUNT    SCOPE:NAME                                                                                            STATE[OK/REPL/STUCK]    RSE_EXPRESSION           COPIES    SIZE    EXPIRES (UTC)    CREATED (UTC)
--------------------------------  ---------  ----------------------------------------------------------------------------------------------------  ----------------------  -----------------------  --------  ------  ---------------  -------------------
372e84e8742f43be986e836a7c53a181  asickles   user.xiaoning:user.xiaoning.test-spmethod-231109231109.1.00367384.physics_PC.f1030_m2048_myFlow.root  OK[1/0/0]               BNL-OSG2_LOCALGROUPDISK  1         N/A                      2023-11-13 18:12:46
