+-----------+-----------------------------------------+------------+-----------+--------------------------------------------------------------------------------------------------------------------------------------------------------------+
| SCOPE     | NAME                                    | FILESIZE   | ADLER32   | RSE: REPLICA                                                                                                                                                 |
|-----------+-----------------------------------------+------------+-----------+--------------------------------------------------------------------------------------------------------------------------------------------------------------|
| data18_hi | DAOD_HION7.26257335._000001.pool.root.1 | 314.262 MB | 70d56cfe  | BNL-OSG2_LOCALGROUPDISK: davs://dcgftp.usatlas.bnl.gov:443/pnfs/usatlas.bnl.gov/LOCALGROUPDISK/rucio/data18_hi/f5/31/DAOD_HION7.26257335._000001.pool.root.1 |
| data18_hi | DAOD_HION7.26257335._000002.pool.root.1 | 271.646 MB | dee69880  | BNL-OSG2_LOCALGROUPDISK: davs://dcgftp.usatlas.bnl.gov:443/pnfs/usatlas.bnl.gov/LOCALGROUPDISK/rucio/data18_hi/cf/94/DAOD_HION7.26257335._000002.pool.root.1 |
+-----------+-----------------------------------------+------------+-----------+--------------------------------------------------------------------------------------------------------------------------------------------------------------+
