/pnfs/usatlas.bnl.gov/LOCALGROUPDISK/rucio/data18_hi/46/7c/DAOD_HION7.26257339._000001.pool.root.1
/pnfs/usatlas.bnl.gov/LOCALGROUPDISK/rucio/data18_hi/c1/64/DAOD_HION7.26257339._000002.pool.root.1
/pnfs/usatlas.bnl.gov/LOCALGROUPDISK/rucio/data18_hi/5b/ec/DAOD_HION7.26257339._000003.pool.root.1
/pnfs/usatlas.bnl.gov/LOCALGROUPDISK/rucio/data18_hi/3f/3c/DAOD_HION7.26257339._000004.pool.root.1
/pnfs/usatlas.bnl.gov/LOCALGROUPDISK/rucio/data18_hi/76/90/DAOD_HION7.26257339._000005.pool.root.1
/pnfs/usatlas.bnl.gov/LOCALGROUPDISK/rucio/data18_hi/01/77/DAOD_HION7.26257339._000006.pool.root.1
/pnfs/usatlas.bnl.gov/LOCALGROUPDISK/rucio/data18_hi/e6/f3/DAOD_HION7.26257339._000007.pool.root.1
/pnfs/usatlas.bnl.gov/LOCALGROUPDISK/rucio/data18_hi/50/83/DAOD_HION7.26257339._000008.pool.root.1
/pnfs/usatlas.bnl.gov/LOCALGROUPDISK/rucio/data18_hi/d4/ae/DAOD_HION7.26257339._000009.pool.root.1
/pnfs/usatlas.bnl.gov/LOCALGROUPDISK/rucio/data18_hi/b3/16/DAOD_HION7.26257339._000010.pool.root.1
/pnfs/usatlas.bnl.gov/LOCALGROUPDISK/rucio/data18_hi/9e/86/DAOD_HION7.26257339._000011.pool.root.1
/pnfs/usatlas.bnl.gov/LOCALGROUPDISK/rucio/data18_hi/e5/82/DAOD_HION7.26257339._000012.pool.root.1
/pnfs/usatlas.bnl.gov/LOCALGROUPDISK/rucio/data18_hi/5d/b6/DAOD_HION7.26257339._000013.pool.root.1
/pnfs/usatlas.bnl.gov/LOCALGROUPDISK/rucio/data18_hi/a5/0d/DAOD_HION7.26257339._000014.pool.root.1
/pnfs/usatlas.bnl.gov/LOCALGROUPDISK/rucio/data18_hi/94/b2/DAOD_HION7.26257339._000015.pool.root.1
/pnfs/usatlas.bnl.gov/LOCALGROUPDISK/rucio/data18_hi/c3/50/DAOD_HION7.26257339._000016.pool.root.1
/pnfs/usatlas.bnl.gov/LOCALGROUPDISK/rucio/data18_hi/40/69/DAOD_HION7.26257339._000017.pool.root.1
/pnfs/usatlas.bnl.gov/LOCALGROUPDISK/rucio/data18_hi/4f/05/DAOD_HION7.26257339._000018.pool.root.1
/pnfs/usatlas.bnl.gov/LOCALGROUPDISK/rucio/data18_hi/bf/d3/DAOD_HION7.26257339._000019.pool.root.1
/pnfs/usatlas.bnl.gov/LOCALGROUPDISK/rucio/data18_hi/3b/71/DAOD_HION7.26257339._000020.pool.root.1
/pnfs/usatlas.bnl.gov/LOCALGROUPDISK/rucio/data18_hi/b1/6f/DAOD_HION7.26257339._000021.pool.root.1
/pnfs/usatlas.bnl.gov/LOCALGROUPDISK/rucio/data18_hi/11/45/DAOD_HION7.26257339._000022.pool.root.1
/pnfs/usatlas.bnl.gov/LOCALGROUPDISK/rucio/data18_hi/c5/25/DAOD_HION7.26257339._000023.pool.root.1
/pnfs/usatlas.bnl.gov/LOCALGROUPDISK/rucio/data18_hi/ef/61/DAOD_HION7.26257339._000024.pool.root.1
/pnfs/usatlas.bnl.gov/LOCALGROUPDISK/rucio/data18_hi/62/41/DAOD_HION7.26257339._000025.pool.root.1
/pnfs/usatlas.bnl.gov/LOCALGROUPDISK/rucio/data18_hi/1e/08/DAOD_HION7.26257339._000026.pool.root.1
/pnfs/usatlas.bnl.gov/LOCALGROUPDISK/rucio/data18_hi/f0/35/DAOD_HION7.26257339._000027.pool.root.1
/pnfs/usatlas.bnl.gov/LOCALGROUPDISK/rucio/data18_hi/d5/55/DAOD_HION7.26257339._000028.pool.root.1
/pnfs/usatlas.bnl.gov/LOCALGROUPDISK/rucio/data18_hi/ba/77/DAOD_HION7.26257339._000029.pool.root.1
/pnfs/usatlas.bnl.gov/LOCALGROUPDISK/rucio/data18_hi/c4/8e/DAOD_HION7.26257339._000030.pool.root.1
/pnfs/usatlas.bnl.gov/LOCALGROUPDISK/rucio/data18_hi/9d/9d/DAOD_HION7.26257339._000031.pool.root.1
/pnfs/usatlas.bnl.gov/LOCALGROUPDISK/rucio/data18_hi/db/48/DAOD_HION7.26257339._000032.pool.root.1
