+-----------+-----------------------------------------+------------+-----------+--------------------------------------------------------------------------------------------------------------------------------------------------------------+
| SCOPE     | NAME                                    | FILESIZE   | ADLER32   | RSE: REPLICA                                                                                                                                                 |
|-----------+-----------------------------------------+------------+-----------+--------------------------------------------------------------------------------------------------------------------------------------------------------------|
| data18_hi | DAOD_HION7.26257440._000001.pool.root.1 | 6.638 GB   | 73ed9b24  | BNL-OSG2_LOCALGROUPDISK: davs://dcgftp.usatlas.bnl.gov:443/pnfs/usatlas.bnl.gov/LOCALGROUPDISK/rucio/data18_hi/a0/27/DAOD_HION7.26257440._000001.pool.root.1 |
| data18_hi | DAOD_HION7.26257440._000002.pool.root.1 | 6.559 GB   | d83e53ef  | BNL-OSG2_LOCALGROUPDISK: davs://dcgftp.usatlas.bnl.gov:443/pnfs/usatlas.bnl.gov/LOCALGROUPDISK/rucio/data18_hi/8c/bb/DAOD_HION7.26257440._000002.pool.root.1 |
| data18_hi | DAOD_HION7.26257440._000003.pool.root.1 | 6.327 GB   | 80384821  | BNL-OSG2_LOCALGROUPDISK: davs://dcgftp.usatlas.bnl.gov:443/pnfs/usatlas.bnl.gov/LOCALGROUPDISK/rucio/data18_hi/8e/de/DAOD_HION7.26257440._000003.pool.root.1 |
| data18_hi | DAOD_HION7.26257440._000004.pool.root.1 | 6.321 GB   | 7163a97c  | BNL-OSG2_LOCALGROUPDISK: davs://dcgftp.usatlas.bnl.gov:443/pnfs/usatlas.bnl.gov/LOCALGROUPDISK/rucio/data18_hi/3e/7f/DAOD_HION7.26257440._000004.pool.root.1 |
| data18_hi | DAOD_HION7.26257440._000006.pool.root.1 | 5.927 GB   | d140438b  | BNL-OSG2_LOCALGROUPDISK: davs://dcgftp.usatlas.bnl.gov:443/pnfs/usatlas.bnl.gov/LOCALGROUPDISK/rucio/data18_hi/b1/4c/DAOD_HION7.26257440._000006.pool.root.1 |
| data18_hi | DAOD_HION7.26257440._000007.pool.root.1 | 6.649 GB   | 72610100  | BNL-OSG2_LOCALGROUPDISK: davs://dcgftp.usatlas.bnl.gov:443/pnfs/usatlas.bnl.gov/LOCALGROUPDISK/rucio/data18_hi/86/4e/DAOD_HION7.26257440._000007.pool.root.1 |
| data18_hi | DAOD_HION7.26257440._000008.pool.root.1 | 6.580 GB   | e9ff70e6  | BNL-OSG2_LOCALGROUPDISK: davs://dcgftp.usatlas.bnl.gov:443/pnfs/usatlas.bnl.gov/LOCALGROUPDISK/rucio/data18_hi/35/39/DAOD_HION7.26257440._000008.pool.root.1 |
| data18_hi | DAOD_HION7.26257440._000009.pool.root.1 | 6.642 GB   | 5985eb54  | BNL-OSG2_LOCALGROUPDISK: davs://dcgftp.usatlas.bnl.gov:443/pnfs/usatlas.bnl.gov/LOCALGROUPDISK/rucio/data18_hi/2c/58/DAOD_HION7.26257440._000009.pool.root.1 |
| data18_hi | DAOD_HION7.26257440._000010.pool.root.1 | 6.636 GB   | bfb142e9  | BNL-OSG2_LOCALGROUPDISK: davs://dcgftp.usatlas.bnl.gov:443/pnfs/usatlas.bnl.gov/LOCALGROUPDISK/rucio/data18_hi/75/9c/DAOD_HION7.26257440._000010.pool.root.1 |
| data18_hi | DAOD_HION7.26257440._000011.pool.root.1 | 5.992 GB   | f3c6d485  | BNL-OSG2_LOCALGROUPDISK: davs://dcgftp.usatlas.bnl.gov:443/pnfs/usatlas.bnl.gov/LOCALGROUPDISK/rucio/data18_hi/33/f6/DAOD_HION7.26257440._000011.pool.root.1 |
| data18_hi | DAOD_HION7.26257440._000012.pool.root.1 | 10.319 GB  | 5f17ddfa  | BNL-OSG2_LOCALGROUPDISK: davs://dcgftp.usatlas.bnl.gov:443/pnfs/usatlas.bnl.gov/LOCALGROUPDISK/rucio/data18_hi/c7/de/DAOD_HION7.26257440._000012.pool.root.1 |
| data18_hi | DAOD_HION7.26257440._000013.pool.root.1 | 10.326 GB  | d45600b9  | BNL-OSG2_LOCALGROUPDISK: davs://dcgftp.usatlas.bnl.gov:443/pnfs/usatlas.bnl.gov/LOCALGROUPDISK/rucio/data18_hi/0a/96/DAOD_HION7.26257440._000013.pool.root.1 |
| data18_hi | DAOD_HION7.26257440._000014.pool.root.1 | 10.325 GB  | 2918eb9e  | BNL-OSG2_LOCALGROUPDISK: davs://dcgftp.usatlas.bnl.gov:443/pnfs/usatlas.bnl.gov/LOCALGROUPDISK/rucio/data18_hi/a6/60/DAOD_HION7.26257440._000014.pool.root.1 |
| data18_hi | DAOD_HION7.26257440._000015.pool.root.1 | 10.234 GB  | f9dacd33  | BNL-OSG2_LOCALGROUPDISK: davs://dcgftp.usatlas.bnl.gov:443/pnfs/usatlas.bnl.gov/LOCALGROUPDISK/rucio/data18_hi/59/96/DAOD_HION7.26257440._000015.pool.root.1 |
| data18_hi | DAOD_HION7.26257440._000016.pool.root.1 | 10.277 GB  | 27c315ee  | BNL-OSG2_LOCALGROUPDISK: davs://dcgftp.usatlas.bnl.gov:443/pnfs/usatlas.bnl.gov/LOCALGROUPDISK/rucio/data18_hi/7c/25/DAOD_HION7.26257440._000016.pool.root.1 |
| data18_hi | DAOD_HION7.26257440._000017.pool.root.1 | 10.296 GB  | 9eb8c477  | BNL-OSG2_LOCALGROUPDISK: davs://dcgftp.usatlas.bnl.gov:443/pnfs/usatlas.bnl.gov/LOCALGROUPDISK/rucio/data18_hi/59/33/DAOD_HION7.26257440._000017.pool.root.1 |
| data18_hi | DAOD_HION7.26257440._000018.pool.root.1 | 10.072 GB  | 7e2e6a87  | BNL-OSG2_LOCALGROUPDISK: davs://dcgftp.usatlas.bnl.gov:443/pnfs/usatlas.bnl.gov/LOCALGROUPDISK/rucio/data18_hi/2f/97/DAOD_HION7.26257440._000018.pool.root.1 |
| data18_hi | DAOD_HION7.26257440._000019.pool.root.1 | 9.854 GB   | ca3782d5  | BNL-OSG2_LOCALGROUPDISK: davs://dcgftp.usatlas.bnl.gov:443/pnfs/usatlas.bnl.gov/LOCALGROUPDISK/rucio/data18_hi/11/dd/DAOD_HION7.26257440._000019.pool.root.1 |
| data18_hi | DAOD_HION7.26257440._000020.pool.root.1 | 8.963 GB   | d9be3181  | BNL-OSG2_LOCALGROUPDISK: davs://dcgftp.usatlas.bnl.gov:443/pnfs/usatlas.bnl.gov/LOCALGROUPDISK/rucio/data18_hi/67/74/DAOD_HION7.26257440._000020.pool.root.1 |
| data18_hi | DAOD_HION7.26257440._000021.pool.root.1 | 9.790 GB   | 93977533  | BNL-OSG2_LOCALGROUPDISK: davs://dcgftp.usatlas.bnl.gov:443/pnfs/usatlas.bnl.gov/LOCALGROUPDISK/rucio/data18_hi/e1/84/DAOD_HION7.26257440._000021.pool.root.1 |
| data18_hi | DAOD_HION7.26257440._000022.pool.root.1 | 9.556 GB   | 3d5fa84e  | BNL-OSG2_LOCALGROUPDISK: davs://dcgftp.usatlas.bnl.gov:443/pnfs/usatlas.bnl.gov/LOCALGROUPDISK/rucio/data18_hi/62/8d/DAOD_HION7.26257440._000022.pool.root.1 |
| data18_hi | DAOD_HION7.26257440._000023.pool.root.1 | 9.267 GB   | d6d931ca  | BNL-OSG2_LOCALGROUPDISK: davs://dcgftp.usatlas.bnl.gov:443/pnfs/usatlas.bnl.gov/LOCALGROUPDISK/rucio/data18_hi/f6/cd/DAOD_HION7.26257440._000023.pool.root.1 |
| data18_hi | DAOD_HION7.26257440._000024.pool.root.1 | 10.001 GB  | 7301a6da  | BNL-OSG2_LOCALGROUPDISK: davs://dcgftp.usatlas.bnl.gov:443/pnfs/usatlas.bnl.gov/LOCALGROUPDISK/rucio/data18_hi/cd/be/DAOD_HION7.26257440._000024.pool.root.1 |
| data18_hi | DAOD_HION7.26257440._000025.pool.root.1 | 10.244 GB  | cf344a4d  | BNL-OSG2_LOCALGROUPDISK: davs://dcgftp.usatlas.bnl.gov:443/pnfs/usatlas.bnl.gov/LOCALGROUPDISK/rucio/data18_hi/d2/36/DAOD_HION7.26257440._000025.pool.root.1 |
| data18_hi | DAOD_HION7.26257440._000026.pool.root.1 | 10.515 GB  | 4e3bd83a  | BNL-OSG2_LOCALGROUPDISK: davs://dcgftp.usatlas.bnl.gov:443/pnfs/usatlas.bnl.gov/LOCALGROUPDISK/rucio/data18_hi/db/f3/DAOD_HION7.26257440._000026.pool.root.1 |
| data18_hi | DAOD_HION7.26257440._000027.pool.root.1 | 9.874 GB   | 244f24c6  | BNL-OSG2_LOCALGROUPDISK: davs://dcgftp.usatlas.bnl.gov:443/pnfs/usatlas.bnl.gov/LOCALGROUPDISK/rucio/data18_hi/1f/68/DAOD_HION7.26257440._000027.pool.root.1 |
| data18_hi | DAOD_HION7.26257440._000028.pool.root.1 | 9.719 GB   | 7337d37c  | BNL-OSG2_LOCALGROUPDISK: davs://dcgftp.usatlas.bnl.gov:443/pnfs/usatlas.bnl.gov/LOCALGROUPDISK/rucio/data18_hi/97/61/DAOD_HION7.26257440._000028.pool.root.1 |
| data18_hi | DAOD_HION7.26257440._000029.pool.root.1 | 9.481 GB   | 06e24042  | BNL-OSG2_LOCALGROUPDISK: davs://dcgftp.usatlas.bnl.gov:443/pnfs/usatlas.bnl.gov/LOCALGROUPDISK/rucio/data18_hi/de/42/DAOD_HION7.26257440._000029.pool.root.1 |
| data18_hi | DAOD_HION7.26257440._000030.pool.root.1 | 9.251 GB   | a0d59f45  | BNL-OSG2_LOCALGROUPDISK: davs://dcgftp.usatlas.bnl.gov:443/pnfs/usatlas.bnl.gov/LOCALGROUPDISK/rucio/data18_hi/7d/61/DAOD_HION7.26257440._000030.pool.root.1 |
| data18_hi | DAOD_HION7.26257440._000031.pool.root.1 | 10.422 GB  | 27be5c8f  | BNL-OSG2_LOCALGROUPDISK: davs://dcgftp.usatlas.bnl.gov:443/pnfs/usatlas.bnl.gov/LOCALGROUPDISK/rucio/data18_hi/20/ca/DAOD_HION7.26257440._000031.pool.root.1 |
| data18_hi | DAOD_HION7.26257440._000032.pool.root.1 | 10.065 GB  | 738be524  | BNL-OSG2_LOCALGROUPDISK: davs://dcgftp.usatlas.bnl.gov:443/pnfs/usatlas.bnl.gov/LOCALGROUPDISK/rucio/data18_hi/d1/57/DAOD_HION7.26257440._000032.pool.root.1 |
| data18_hi | DAOD_HION7.26257440._000033.pool.root.1 | 9.726 GB   | 95a238eb  | BNL-OSG2_LOCALGROUPDISK: davs://dcgftp.usatlas.bnl.gov:443/pnfs/usatlas.bnl.gov/LOCALGROUPDISK/rucio/data18_hi/d3/b7/DAOD_HION7.26257440._000033.pool.root.1 |
| data18_hi | DAOD_HION7.26257440._000034.pool.root.1 | 9.549 GB   | 54a932a9  | BNL-OSG2_LOCALGROUPDISK: davs://dcgftp.usatlas.bnl.gov:443/pnfs/usatlas.bnl.gov/LOCALGROUPDISK/rucio/data18_hi/28/fa/DAOD_HION7.26257440._000034.pool.root.1 |
| data18_hi | DAOD_HION7.26257440._000035.pool.root.1 | 9.402 GB   | 0b698390  | BNL-OSG2_LOCALGROUPDISK: davs://dcgftp.usatlas.bnl.gov:443/pnfs/usatlas.bnl.gov/LOCALGROUPDISK/rucio/data18_hi/30/a8/DAOD_HION7.26257440._000035.pool.root.1 |
| data18_hi | DAOD_HION7.26257440._000036.pool.root.1 | 9.120 GB   | 70e17906  | BNL-OSG2_LOCALGROUPDISK: davs://dcgftp.usatlas.bnl.gov:443/pnfs/usatlas.bnl.gov/LOCALGROUPDISK/rucio/data18_hi/dd/72/DAOD_HION7.26257440._000036.pool.root.1 |
| data18_hi | DAOD_HION7.26257440._000037.pool.root.1 | 9.046 GB   | cd834be4  | BNL-OSG2_LOCALGROUPDISK: davs://dcgftp.usatlas.bnl.gov:443/pnfs/usatlas.bnl.gov/LOCALGROUPDISK/rucio/data18_hi/35/46/DAOD_HION7.26257440._000037.pool.root.1 |
| data18_hi | DAOD_HION7.26257440._000038.pool.root.1 | 10.046 GB  | b253cb60  | BNL-OSG2_LOCALGROUPDISK: davs://dcgftp.usatlas.bnl.gov:443/pnfs/usatlas.bnl.gov/LOCALGROUPDISK/rucio/data18_hi/71/83/DAOD_HION7.26257440._000038.pool.root.1 |
| data18_hi | DAOD_HION7.26257440._000039.pool.root.1 | 9.862 GB   | 349aaf87  | BNL-OSG2_LOCALGROUPDISK: davs://dcgftp.usatlas.bnl.gov:443/pnfs/usatlas.bnl.gov/LOCALGROUPDISK/rucio/data18_hi/3c/dd/DAOD_HION7.26257440._000039.pool.root.1 |
| data18_hi | DAOD_HION7.26257440._000040.pool.root.1 | 9.564 GB   | 3e919f83  | BNL-OSG2_LOCALGROUPDISK: davs://dcgftp.usatlas.bnl.gov:443/pnfs/usatlas.bnl.gov/LOCALGROUPDISK/rucio/data18_hi/dd/61/DAOD_HION7.26257440._000040.pool.root.1 |
| data18_hi | DAOD_HION7.26257440._000041.pool.root.1 | 9.352 GB   | bb955fc5  | BNL-OSG2_LOCALGROUPDISK: davs://dcgftp.usatlas.bnl.gov:443/pnfs/usatlas.bnl.gov/LOCALGROUPDISK/rucio/data18_hi/f7/1a/DAOD_HION7.26257440._000041.pool.root.1 |
| data18_hi | DAOD_HION7.26257440._000042.pool.root.1 | 9.977 GB   | a2d1a631  | BNL-OSG2_LOCALGROUPDISK: davs://dcgftp.usatlas.bnl.gov:443/pnfs/usatlas.bnl.gov/LOCALGROUPDISK/rucio/data18_hi/45/a3/DAOD_HION7.26257440._000042.pool.root.1 |
| data18_hi | DAOD_HION7.26257440._000043.pool.root.1 | 9.722 GB   | 29213cd1  | BNL-OSG2_LOCALGROUPDISK: davs://dcgftp.usatlas.bnl.gov:443/pnfs/usatlas.bnl.gov/LOCALGROUPDISK/rucio/data18_hi/94/6b/DAOD_HION7.26257440._000043.pool.root.1 |
| data18_hi | DAOD_HION7.26257440._000044.pool.root.1 | 9.535 GB   | 75e90cc7  | BNL-OSG2_LOCALGROUPDISK: davs://dcgftp.usatlas.bnl.gov:443/pnfs/usatlas.bnl.gov/LOCALGROUPDISK/rucio/data18_hi/a5/a3/DAOD_HION7.26257440._000044.pool.root.1 |
| data18_hi | DAOD_HION7.26257440._000045.pool.root.1 | 9.434 GB   | 0bbed4a4  | BNL-OSG2_LOCALGROUPDISK: davs://dcgftp.usatlas.bnl.gov:443/pnfs/usatlas.bnl.gov/LOCALGROUPDISK/rucio/data18_hi/3d/8e/DAOD_HION7.26257440._000045.pool.root.1 |
| data18_hi | DAOD_HION7.26257440._000046.pool.root.1 | 9.124 GB   | 740eb889  | BNL-OSG2_LOCALGROUPDISK: davs://dcgftp.usatlas.bnl.gov:443/pnfs/usatlas.bnl.gov/LOCALGROUPDISK/rucio/data18_hi/bc/a9/DAOD_HION7.26257440._000046.pool.root.1 |
| data18_hi | DAOD_HION7.26257440._000047.pool.root.1 | 9.042 GB   | cbd5a2ca  | BNL-OSG2_LOCALGROUPDISK: davs://dcgftp.usatlas.bnl.gov:443/pnfs/usatlas.bnl.gov/LOCALGROUPDISK/rucio/data18_hi/31/ed/DAOD_HION7.26257440._000047.pool.root.1 |
| data18_hi | DAOD_HION7.26257440._000048.pool.root.1 | 10.522 GB  | 949b94e8  | BNL-OSG2_LOCALGROUPDISK: davs://dcgftp.usatlas.bnl.gov:443/pnfs/usatlas.bnl.gov/LOCALGROUPDISK/rucio/data18_hi/fb/b5/DAOD_HION7.26257440._000048.pool.root.1 |
| data18_hi | DAOD_HION7.26257440._000049.pool.root.1 | 10.178 GB  | 31fc6771  | BNL-OSG2_LOCALGROUPDISK: davs://dcgftp.usatlas.bnl.gov:443/pnfs/usatlas.bnl.gov/LOCALGROUPDISK/rucio/data18_hi/b2/74/DAOD_HION7.26257440._000049.pool.root.1 |
| data18_hi | DAOD_HION7.26257440._000050.pool.root.1 | 9.834 GB   | c56893c6  | BNL-OSG2_LOCALGROUPDISK: davs://dcgftp.usatlas.bnl.gov:443/pnfs/usatlas.bnl.gov/LOCALGROUPDISK/rucio/data18_hi/b8/cd/DAOD_HION7.26257440._000050.pool.root.1 |
| data18_hi | DAOD_HION7.26257440._000051.pool.root.1 | 10.255 GB  | 6b3e9d94  | BNL-OSG2_LOCALGROUPDISK: davs://dcgftp.usatlas.bnl.gov:443/pnfs/usatlas.bnl.gov/LOCALGROUPDISK/rucio/data18_hi/9a/5b/DAOD_HION7.26257440._000051.pool.root.1 |
| data18_hi | DAOD_HION7.26257440._000052.pool.root.1 | 10.076 GB  | 424705ad  | BNL-OSG2_LOCALGROUPDISK: davs://dcgftp.usatlas.bnl.gov:443/pnfs/usatlas.bnl.gov/LOCALGROUPDISK/rucio/data18_hi/36/65/DAOD_HION7.26257440._000052.pool.root.1 |
| data18_hi | DAOD_HION7.26257440._000053.pool.root.1 | 9.923 GB   | 59dd984d  | BNL-OSG2_LOCALGROUPDISK: davs://dcgftp.usatlas.bnl.gov:443/pnfs/usatlas.bnl.gov/LOCALGROUPDISK/rucio/data18_hi/6e/e2/DAOD_HION7.26257440._000053.pool.root.1 |
| data18_hi | DAOD_HION7.26257440._000054.pool.root.1 | 9.767 GB   | 982cb9e0  | BNL-OSG2_LOCALGROUPDISK: davs://dcgftp.usatlas.bnl.gov:443/pnfs/usatlas.bnl.gov/LOCALGROUPDISK/rucio/data18_hi/04/d1/DAOD_HION7.26257440._000054.pool.root.1 |
| data18_hi | DAOD_HION7.26257440._000055.pool.root.1 | 9.596 GB   | ad431d0f  | BNL-OSG2_LOCALGROUPDISK: davs://dcgftp.usatlas.bnl.gov:443/pnfs/usatlas.bnl.gov/LOCALGROUPDISK/rucio/data18_hi/9b/96/DAOD_HION7.26257440._000055.pool.root.1 |
| data18_hi | DAOD_HION7.26257440._000056.pool.root.1 | 10.000 GB  | 7108bebc  | BNL-OSG2_LOCALGROUPDISK: davs://dcgftp.usatlas.bnl.gov:443/pnfs/usatlas.bnl.gov/LOCALGROUPDISK/rucio/data18_hi/38/f0/DAOD_HION7.26257440._000056.pool.root.1 |
| data18_hi | DAOD_HION7.26257440._000057.pool.root.1 | 10.230 GB  | d409213d  | BNL-OSG2_LOCALGROUPDISK: davs://dcgftp.usatlas.bnl.gov:443/pnfs/usatlas.bnl.gov/LOCALGROUPDISK/rucio/data18_hi/32/5f/DAOD_HION7.26257440._000057.pool.root.1 |
| data18_hi | DAOD_HION7.26257440._000058.pool.root.1 | 3.237 GB   | 1c460ef2  | BNL-OSG2_LOCALGROUPDISK: davs://dcgftp.usatlas.bnl.gov:443/pnfs/usatlas.bnl.gov/LOCALGROUPDISK/rucio/data18_hi/5e/40/DAOD_HION7.26257440._000058.pool.root.1 |
+-----------+-----------------------------------------+------------+-----------+--------------------------------------------------------------------------------------------------------------------------------------------------------------+
