user.xiaoning.test-spmethod-230607230607.6.00365502.physics_PC.f1021_m2037_p4404_myFlow.root
user.xiaoning.test-spmethod-230607230607.6.00365512.physics_PC.f1021_m2037_p4404_myFlow.root
user.xiaoning.test-spmethod-230607230607.6.00365678.physics_PC.f1021_m2037_p4404_myFlow.root
user.xiaoning.test-spmethod-230607230607.6.00365681.physics_PC.f1021_m2037_p4404_myFlow.root
user.xiaoning.test-spmethod-230607230607.6.00365752.physics_PC.f1021_m2037_p4404_myFlow.root
user.xiaoning.test-spmethod-230607230607.6.00365834.physics_PC.f1021_m2037_p4404_myFlow.root
user.xiaoning.test-spmethod-230607230607.6.00365914.physics_PC.f1027_m2037_p4404_myFlow.root
user.xiaoning.test-spmethod-230607230607.6.00366011.physics_PC.f1027_m2037_p4404_myFlow.root
user.xiaoning.test-spmethod-230607230607.6.00366029.physics_PC.f1027_m2037_p4404_myFlow.root
user.xiaoning.test-spmethod-230607230607.6.00366092.physics_PC.f1027_m2037_p4404_myFlow.root
user.xiaoning.test-spmethod-230607230607.6.00366142.physics_PC.f1027_m2037_p4404_myFlow.root
user.xiaoning.test-spmethod-230607230607.6.00366268.physics_PC.f1027_m2037_p4404_myFlow.root
user.xiaoning.test-spmethod-230607230607.6.00366413.physics_PC.f1027_m2048_p4404_myFlow.root
user.xiaoning.test-spmethod-230607230607.6.00366476.physics_PC.f1027_m2048_p4404_myFlow.root
user.xiaoning.test-spmethod-230607230607.6.00366526.physics_PC.f1027_m2048_p4404_myFlow.root
user.xiaoning.test-spmethod-230607230607.6.00366528.physics_PC.f1027_m2048_p4404_myFlow.root
user.xiaoning.test-spmethod-230607230607.6.00366627.physics_PC.f1030_m2048_p4404_myFlow.root
user.xiaoning.test-spmethod-230607230607.6.00366691.physics_PC.f1030_m2048_p4404_myFlow.root
user.xiaoning.test-spmethod-230607230607.6.00366805.physics_PC.f1030_m2048_p4404_myFlow.root
user.xiaoning.test-spmethod-230607230607.6.00366860.physics_PC.f1030_m2048_p4404_myFlow.root
user.xiaoning.test-spmethod-230607230607.6.00366878.physics_PC.f1030_m2048_p4404_myFlow.root
user.xiaoning.test-spmethod-230607230607.6.00366919.physics_PC.f1030_m2048_p4404_myFlow.root
user.xiaoning.test-spmethod-230607230607.6.00366931.physics_PC.f1030_m2048_p4404_myFlow.root
user.xiaoning.test-spmethod-230607230607.6.00366994.physics_PC.f1030_m2048_p4404_myFlow.root
user.xiaoning.test-spmethod-230607230607.6.00367023.physics_PC.f1030_m2048_p4404_myFlow.root
user.xiaoning.test-spmethod-230607230607.6.00367099.physics_PC.f1030_m2048_p4404_myFlow.root
user.xiaoning.test-spmethod-230607230607.6.00367134.physics_PC.f1030_m2048_p4404_myFlow.root
user.xiaoning.test-spmethod-230607230607.6.00367165.physics_PC.f1030_m2048_p4404_myFlow.root
user.xiaoning.test-spmethod-230607230607.6.00367233.physics_PC.f1030_m2048_p4404_myFlow.root
user.xiaoning.test-spmethod-230607230607.6.00367318.physics_PC.f1030_m2048_p4404_myFlow.root
user.xiaoning.test-spmethod-230607230607.6.00367321.physics_PC.f1030_m2048_p4404_myFlow.root
user.xiaoning.test-spmethod-230607230607.6.00367363.physics_PC.f1030_m2048_p4404_myFlow.root
user.xiaoning.test-spmethod-230607230607.6.00367364.physics_PC.f1030_m2048_p4404_myFlow.root
user.xiaoning.test-spmethod-230607230607.6.00367365.physics_PC.f1030_m2048_p4404_myFlow.root
user.xiaoning.test-spmethod-230607230607.6.00367384.physics_PC.f1030_m2048_p4404_myFlow.root
user.xiaoning.test-spmethod-230607230607.6.00365573.physics_PC.f1021_m2037_p4404_myFlow.root
user.xiaoning.test-spmethod-230607230607.6.00366754.physics_PC.f1030_m2048_p4404_myFlow.root
user.xiaoning.test-spmethod-230607230607.6.00365602.physics_PC.f1021_m2037_p4404_myFlow.root
user.xiaoning.test-spmethod-230607230607.6.00366383.physics_PC.f1027_m2048_p4404_myFlow.root
user.xiaoning.test-spmethod-230607230607.6.00365627.physics_PC.f1021_m2037_p4404_myFlow.root
user.xiaoning.test-spmethod-230607230607.6.00365709.physics_PC.f1021_m2037_p4404_myFlow.root
user.xiaoning.test-spmethod-230607230607.6.00365932.physics_PC.f1027_m2037_p4404_myFlow.root
user.xiaoning.test-spmethod-230607230607.6.00366337.physics_PC.f1027_m2037_p4404_myFlow.root
user.xiaoning.test-spmethod-230607230607.6.00367170.physics_PC.f1030_m2048_p4404_myFlow.root
user.xiaoning.test-spmethod-230607230607.6.00367273.physics_PC.f1030_m2048_p4404_myFlow.root
user.xiaoning.test-spmethod-230607230607.6.00365502.physics_CC.f1021_m2037_p4404_myFlow.root
user.xiaoning.test-spmethod-230607230607.6.00365512.physics_CC.f1021_m2037_p4404_myFlow.root
user.xiaoning.test-spmethod-230607230607.6.00365573.physics_CC.f1021_m2037_p4404_myFlow.root
user.xiaoning.test-spmethod-230607230607.6.00365602.physics_CC.f1021_m2037_p4404_myFlow.root
user.xiaoning.test-spmethod-230607230607.6.00365627.physics_CC.f1021_m2037_p4404_myFlow.root
user.xiaoning.test-spmethod-230607230607.6.00365678.physics_CC.f1021_m2037_p4404_myFlow.root
user.xiaoning.test-spmethod-230607230607.6.00365681.physics_CC.f1021_m2037_p4404_myFlow.root
user.xiaoning.test-spmethod-230607230607.6.00365709.physics_CC.f1021_m2037_p4404_myFlow.root
user.xiaoning.test-spmethod-230607230607.6.00365752.physics_CC.f1021_m2037_p4404_myFlow.root
user.xiaoning.test-spmethod-230607230607.6.00365834.physics_CC.f1021_m2037_p4404_myFlow.root
user.xiaoning.test-spmethod-230607230607.6.00365914.physics_CC.f1027_m2037_p4404_myFlow.root
user.xiaoning.test-spmethod-230607230607.6.00365932.physics_CC.f1027_m2037_p4404_myFlow.root
user.xiaoning.test-spmethod-230607230607.6.00366011.physics_CC.f1027_m2037_p4404_myFlow.root
user.xiaoning.test-spmethod-230607230607.6.00366029.physics_CC.f1027_m2037_p4404_myFlow.root
user.xiaoning.test-spmethod-230607230607.6.00366092.physics_CC.f1027_m2037_p4404_myFlow.root
user.xiaoning.test-spmethod-230607230607.6.00366142.physics_CC.f1027_m2037_p4404_myFlow.root
user.xiaoning.test-spmethod-230607230607.6.00366268.physics_CC.f1027_m2037_p4404_myFlow.root
user.xiaoning.test-spmethod-230607230607.6.00366337.physics_CC.f1027_m2037_p4404_myFlow.root
user.xiaoning.test-spmethod-230607230607.6.00366383.physics_CC.f1027_m2048_p4404_myFlow.root
user.xiaoning.test-spmethod-230607230607.6.00366413.physics_CC.f1027_m2048_p4404_myFlow.root
user.xiaoning.test-spmethod-230607230607.6.00366476.physics_CC.f1027_m2048_p4404_myFlow.root
user.xiaoning.test-spmethod-230607230607.6.00366526.physics_CC.f1027_m2048_p4404_myFlow.root
user.xiaoning.test-spmethod-230607230607.6.00366528.physics_CC.f1027_m2048_p4404_myFlow.root
user.xiaoning.test-spmethod-230607230607.6.00366627.physics_CC.f1030_m2048_p4404_myFlow.root
user.xiaoning.test-spmethod-230607230607.6.00366691.physics_CC.f1030_m2048_p4404_myFlow.root
user.xiaoning.test-spmethod-230607230607.6.00366754.physics_CC.f1030_m2048_p4404_myFlow.root
user.xiaoning.test-spmethod-230607230607.6.00366805.physics_CC.f1030_m2048_p4404_myFlow.root
user.xiaoning.test-spmethod-230607230607.6.00366860.physics_CC.f1030_m2048_p4404_myFlow.root
user.xiaoning.test-spmethod-230607230607.6.00366878.physics_CC.f1030_m2048_p4404_myFlow.root
user.xiaoning.test-spmethod-230607230607.6.00366919.physics_CC.f1030_m2048_p4404_myFlow.root
user.xiaoning.test-spmethod-230607230607.6.00366931.physics_CC.f1030_m2048_p4404_myFlow.root
user.xiaoning.test-spmethod-230607230607.6.00366994.physics_CC.f1030_m2048_p4404_myFlow.root
user.xiaoning.test-spmethod-230607230607.6.00367023.physics_CC.f1030_m2048_p4404_myFlow.root
user.xiaoning.test-spmethod-230607230607.6.00367099.physics_CC.f1030_m2048_p4404_myFlow.root
user.xiaoning.test-spmethod-230607230607.6.00367134.physics_CC.f1030_m2048_p4404_myFlow.root
user.xiaoning.test-spmethod-230607230607.6.00367165.physics_CC.f1030_m2048_p4404_myFlow.root
user.xiaoning.test-spmethod-230607230607.6.00367170.physics_CC.f1030_m2048_p4404_myFlow.root
user.xiaoning.test-spmethod-230607230607.6.00367233.physics_CC.f1030_m2048_p4404_myFlow.root
user.xiaoning.test-spmethod-230607230607.6.00367273.physics_CC.f1030_m2048_p4404_myFlow.root
user.xiaoning.test-spmethod-230607230607.6.00367318.physics_CC.f1030_m2048_p4404_myFlow.root
user.xiaoning.test-spmethod-230607230607.6.00367321.physics_CC.f1030_m2048_p4404_myFlow.root
user.xiaoning.test-spmethod-230607230607.6.00367363.physics_CC.f1030_m2048_p4404_myFlow.root
user.xiaoning.test-spmethod-230607230607.6.00367364.physics_CC.f1030_m2048_p4404_myFlow.root
user.xiaoning.test-spmethod-230607230607.6.00367365.physics_CC.f1030_m2048_p4404_myFlow.root
user.xiaoning.test-spmethod-230607230607.6.00367384.physics_CC.f1030_m2048_p4404_myFlow.root
done
