+-----------+-----------------------------------------+------------+-----------+--------------------------------------------------------------------------------------------------------------------------------------------------------------+
| SCOPE     | NAME                                    | FILESIZE   | ADLER32   | RSE: REPLICA                                                                                                                                                 |
|-----------+-----------------------------------------+------------+-----------+--------------------------------------------------------------------------------------------------------------------------------------------------------------|
| data18_hi | DAOD_HION7.26257438._000001.pool.root.1 | 6.190 GB   | fa87ddbd  | BNL-OSG2_LOCALGROUPDISK: davs://dcgftp.usatlas.bnl.gov:443/pnfs/usatlas.bnl.gov/LOCALGROUPDISK/rucio/data18_hi/42/c8/DAOD_HION7.26257438._000001.pool.root.1 |
| data18_hi | DAOD_HION7.26257438._000002.pool.root.1 | 6.369 GB   | 43aab42d  | BNL-OSG2_LOCALGROUPDISK: davs://dcgftp.usatlas.bnl.gov:443/pnfs/usatlas.bnl.gov/LOCALGROUPDISK/rucio/data18_hi/4f/49/DAOD_HION7.26257438._000002.pool.root.1 |
| data18_hi | DAOD_HION7.26257438._000003.pool.root.1 | 5.996 GB   | e007a471  | BNL-OSG2_LOCALGROUPDISK: davs://dcgftp.usatlas.bnl.gov:443/pnfs/usatlas.bnl.gov/LOCALGROUPDISK/rucio/data18_hi/67/a2/DAOD_HION7.26257438._000003.pool.root.1 |
| data18_hi | DAOD_HION7.26257438._000004.pool.root.1 | 6.632 GB   | 0315cf66  | BNL-OSG2_LOCALGROUPDISK: davs://dcgftp.usatlas.bnl.gov:443/pnfs/usatlas.bnl.gov/LOCALGROUPDISK/rucio/data18_hi/17/c8/DAOD_HION7.26257438._000004.pool.root.1 |
| data18_hi | DAOD_HION7.26257438._000005.pool.root.1 | 6.642 GB   | 65b9581d  | BNL-OSG2_LOCALGROUPDISK: davs://dcgftp.usatlas.bnl.gov:443/pnfs/usatlas.bnl.gov/LOCALGROUPDISK/rucio/data18_hi/37/ba/DAOD_HION7.26257438._000005.pool.root.1 |
| data18_hi | DAOD_HION7.26257438._000006.pool.root.1 | 6.635 GB   | fd4928d6  | BNL-OSG2_LOCALGROUPDISK: davs://dcgftp.usatlas.bnl.gov:443/pnfs/usatlas.bnl.gov/LOCALGROUPDISK/rucio/data18_hi/5c/b3/DAOD_HION7.26257438._000006.pool.root.1 |
| data18_hi | DAOD_HION7.26257438._000007.pool.root.1 | 5.899 GB   | 7db886f1  | BNL-OSG2_LOCALGROUPDISK: davs://dcgftp.usatlas.bnl.gov:443/pnfs/usatlas.bnl.gov/LOCALGROUPDISK/rucio/data18_hi/83/b0/DAOD_HION7.26257438._000007.pool.root.1 |
| data18_hi | DAOD_HION7.26257438._000008.pool.root.1 | 6.596 GB   | 9968c154  | BNL-OSG2_LOCALGROUPDISK: davs://dcgftp.usatlas.bnl.gov:443/pnfs/usatlas.bnl.gov/LOCALGROUPDISK/rucio/data18_hi/35/ff/DAOD_HION7.26257438._000008.pool.root.1 |
| data18_hi | DAOD_HION7.26257438._000009.pool.root.1 | 6.648 GB   | 80d98f12  | BNL-OSG2_LOCALGROUPDISK: davs://dcgftp.usatlas.bnl.gov:443/pnfs/usatlas.bnl.gov/LOCALGROUPDISK/rucio/data18_hi/5e/92/DAOD_HION7.26257438._000009.pool.root.1 |
| data18_hi | DAOD_HION7.26257438._000010.pool.root.1 | 6.569 GB   | d0b6ba26  | BNL-OSG2_LOCALGROUPDISK: davs://dcgftp.usatlas.bnl.gov:443/pnfs/usatlas.bnl.gov/LOCALGROUPDISK/rucio/data18_hi/80/85/DAOD_HION7.26257438._000010.pool.root.1 |
| data18_hi | DAOD_HION7.26257438._000011.pool.root.1 | 10.031 GB  | dfd5d55c  | BNL-OSG2_LOCALGROUPDISK: davs://dcgftp.usatlas.bnl.gov:443/pnfs/usatlas.bnl.gov/LOCALGROUPDISK/rucio/data18_hi/63/96/DAOD_HION7.26257438._000011.pool.root.1 |
| data18_hi | DAOD_HION7.26257438._000012.pool.root.1 | 10.371 GB  | 3aab3018  | BNL-OSG2_LOCALGROUPDISK: davs://dcgftp.usatlas.bnl.gov:443/pnfs/usatlas.bnl.gov/LOCALGROUPDISK/rucio/data18_hi/59/cd/DAOD_HION7.26257438._000012.pool.root.1 |
| data18_hi | DAOD_HION7.26257438._000013.pool.root.1 | 10.282 GB  | 84b9e08a  | BNL-OSG2_LOCALGROUPDISK: davs://dcgftp.usatlas.bnl.gov:443/pnfs/usatlas.bnl.gov/LOCALGROUPDISK/rucio/data18_hi/b2/ae/DAOD_HION7.26257438._000013.pool.root.1 |
| data18_hi | DAOD_HION7.26257438._000014.pool.root.1 | 10.410 GB  | 62f48cdd  | BNL-OSG2_LOCALGROUPDISK: davs://dcgftp.usatlas.bnl.gov:443/pnfs/usatlas.bnl.gov/LOCALGROUPDISK/rucio/data18_hi/f6/f3/DAOD_HION7.26257438._000014.pool.root.1 |
| data18_hi | DAOD_HION7.26257438._000015.pool.root.1 | 10.454 GB  | 89aa9bb0  | BNL-OSG2_LOCALGROUPDISK: davs://dcgftp.usatlas.bnl.gov:443/pnfs/usatlas.bnl.gov/LOCALGROUPDISK/rucio/data18_hi/3f/5d/DAOD_HION7.26257438._000015.pool.root.1 |
| data18_hi | DAOD_HION7.26257438._000016.pool.root.1 | 10.209 GB  | 958a71f5  | BNL-OSG2_LOCALGROUPDISK: davs://dcgftp.usatlas.bnl.gov:443/pnfs/usatlas.bnl.gov/LOCALGROUPDISK/rucio/data18_hi/a8/31/DAOD_HION7.26257438._000016.pool.root.1 |
| data18_hi | DAOD_HION7.26257438._000017.pool.root.1 | 9.951 GB   | 783c90bf  | BNL-OSG2_LOCALGROUPDISK: davs://dcgftp.usatlas.bnl.gov:443/pnfs/usatlas.bnl.gov/LOCALGROUPDISK/rucio/data18_hi/04/df/DAOD_HION7.26257438._000017.pool.root.1 |
| data18_hi | DAOD_HION7.26257438._000018.pool.root.1 | 9.740 GB   | ddd5855e  | BNL-OSG2_LOCALGROUPDISK: davs://dcgftp.usatlas.bnl.gov:443/pnfs/usatlas.bnl.gov/LOCALGROUPDISK/rucio/data18_hi/f3/b3/DAOD_HION7.26257438._000018.pool.root.1 |
| data18_hi | DAOD_HION7.26257438._000019.pool.root.1 | 9.660 GB   | bb237fc5  | BNL-OSG2_LOCALGROUPDISK: davs://dcgftp.usatlas.bnl.gov:443/pnfs/usatlas.bnl.gov/LOCALGROUPDISK/rucio/data18_hi/40/7b/DAOD_HION7.26257438._000019.pool.root.1 |
| data18_hi | DAOD_HION7.26257438._000020.pool.root.1 | 10.166 GB  | 4213aaed  | BNL-OSG2_LOCALGROUPDISK: davs://dcgftp.usatlas.bnl.gov:443/pnfs/usatlas.bnl.gov/LOCALGROUPDISK/rucio/data18_hi/42/04/DAOD_HION7.26257438._000020.pool.root.1 |
| data18_hi | DAOD_HION7.26257438._000021.pool.root.1 | 9.389 GB   | a46225f5  | BNL-OSG2_LOCALGROUPDISK: davs://dcgftp.usatlas.bnl.gov:443/pnfs/usatlas.bnl.gov/LOCALGROUPDISK/rucio/data18_hi/0b/31/DAOD_HION7.26257438._000021.pool.root.1 |
| data18_hi | DAOD_HION7.26257438._000022.pool.root.1 | 9.137 GB   | c6521885  | BNL-OSG2_LOCALGROUPDISK: davs://dcgftp.usatlas.bnl.gov:443/pnfs/usatlas.bnl.gov/LOCALGROUPDISK/rucio/data18_hi/a3/f9/DAOD_HION7.26257438._000022.pool.root.1 |
| data18_hi | DAOD_HION7.26257438._000023.pool.root.1 | 10.217 GB  | 79aa2748  | BNL-OSG2_LOCALGROUPDISK: davs://dcgftp.usatlas.bnl.gov:443/pnfs/usatlas.bnl.gov/LOCALGROUPDISK/rucio/data18_hi/93/8d/DAOD_HION7.26257438._000023.pool.root.1 |
| data18_hi | DAOD_HION7.26257438._000024.pool.root.1 | 9.398 GB   | 5214b55d  | BNL-OSG2_LOCALGROUPDISK: davs://dcgftp.usatlas.bnl.gov:443/pnfs/usatlas.bnl.gov/LOCALGROUPDISK/rucio/data18_hi/f1/fe/DAOD_HION7.26257438._000024.pool.root.1 |
| data18_hi | DAOD_HION7.26257438._000025.pool.root.1 | 10.020 GB  | abad9eef  | BNL-OSG2_LOCALGROUPDISK: davs://dcgftp.usatlas.bnl.gov:443/pnfs/usatlas.bnl.gov/LOCALGROUPDISK/rucio/data18_hi/4d/d6/DAOD_HION7.26257438._000025.pool.root.1 |
| data18_hi | DAOD_HION7.26257438._000026.pool.root.1 | 9.648 GB   | 396c0211  | BNL-OSG2_LOCALGROUPDISK: davs://dcgftp.usatlas.bnl.gov:443/pnfs/usatlas.bnl.gov/LOCALGROUPDISK/rucio/data18_hi/de/a5/DAOD_HION7.26257438._000026.pool.root.1 |
| data18_hi | DAOD_HION7.26257438._000027.pool.root.1 | 9.439 GB   | 5c8ca8c2  | BNL-OSG2_LOCALGROUPDISK: davs://dcgftp.usatlas.bnl.gov:443/pnfs/usatlas.bnl.gov/LOCALGROUPDISK/rucio/data18_hi/64/5a/DAOD_HION7.26257438._000027.pool.root.1 |
| data18_hi | DAOD_HION7.26257438._000028.pool.root.1 | 9.065 GB   | 614f0692  | BNL-OSG2_LOCALGROUPDISK: davs://dcgftp.usatlas.bnl.gov:443/pnfs/usatlas.bnl.gov/LOCALGROUPDISK/rucio/data18_hi/73/33/DAOD_HION7.26257438._000028.pool.root.1 |
| data18_hi | DAOD_HION7.26257438._000029.pool.root.1 | 9.578 GB   | b172ba7d  | BNL-OSG2_LOCALGROUPDISK: davs://dcgftp.usatlas.bnl.gov:443/pnfs/usatlas.bnl.gov/LOCALGROUPDISK/rucio/data18_hi/62/1b/DAOD_HION7.26257438._000029.pool.root.1 |
| data18_hi | DAOD_HION7.26257438._000030.pool.root.1 | 10.110 GB  | 6bd0c68d  | BNL-OSG2_LOCALGROUPDISK: davs://dcgftp.usatlas.bnl.gov:443/pnfs/usatlas.bnl.gov/LOCALGROUPDISK/rucio/data18_hi/8e/b2/DAOD_HION7.26257438._000030.pool.root.1 |
| data18_hi | DAOD_HION7.26257438._000031.pool.root.1 | 9.939 GB   | 76034640  | BNL-OSG2_LOCALGROUPDISK: davs://dcgftp.usatlas.bnl.gov:443/pnfs/usatlas.bnl.gov/LOCALGROUPDISK/rucio/data18_hi/56/ce/DAOD_HION7.26257438._000031.pool.root.1 |
| data18_hi | DAOD_HION7.26257438._000032.pool.root.1 | 9.802 GB   | 3f931975  | BNL-OSG2_LOCALGROUPDISK: davs://dcgftp.usatlas.bnl.gov:443/pnfs/usatlas.bnl.gov/LOCALGROUPDISK/rucio/data18_hi/42/e8/DAOD_HION7.26257438._000032.pool.root.1 |
| data18_hi | DAOD_HION7.26257438._000033.pool.root.1 | 9.438 GB   | 8977c6c2  | BNL-OSG2_LOCALGROUPDISK: davs://dcgftp.usatlas.bnl.gov:443/pnfs/usatlas.bnl.gov/LOCALGROUPDISK/rucio/data18_hi/44/2f/DAOD_HION7.26257438._000033.pool.root.1 |
| data18_hi | DAOD_HION7.26257438._000034.pool.root.1 | 9.262 GB   | a9853985  | BNL-OSG2_LOCALGROUPDISK: davs://dcgftp.usatlas.bnl.gov:443/pnfs/usatlas.bnl.gov/LOCALGROUPDISK/rucio/data18_hi/5a/49/DAOD_HION7.26257438._000034.pool.root.1 |
| data18_hi | DAOD_HION7.26257438._000035.pool.root.1 | 9.149 GB   | 45b2a3d7  | BNL-OSG2_LOCALGROUPDISK: davs://dcgftp.usatlas.bnl.gov:443/pnfs/usatlas.bnl.gov/LOCALGROUPDISK/rucio/data18_hi/3c/a0/DAOD_HION7.26257438._000035.pool.root.1 |
| data18_hi | DAOD_HION7.26257438._000036.pool.root.1 | 9.195 GB   | 12c265fa  | BNL-OSG2_LOCALGROUPDISK: davs://dcgftp.usatlas.bnl.gov:443/pnfs/usatlas.bnl.gov/LOCALGROUPDISK/rucio/data18_hi/8f/96/DAOD_HION7.26257438._000036.pool.root.1 |
| data18_hi | DAOD_HION7.26257438._000037.pool.root.1 | 9.913 GB   | a7f6fc7b  | BNL-OSG2_LOCALGROUPDISK: davs://dcgftp.usatlas.bnl.gov:443/pnfs/usatlas.bnl.gov/LOCALGROUPDISK/rucio/data18_hi/19/31/DAOD_HION7.26257438._000037.pool.root.1 |
| data18_hi | DAOD_HION7.26257438._000038.pool.root.1 | 9.722 GB   | 781b1b0d  | BNL-OSG2_LOCALGROUPDISK: davs://dcgftp.usatlas.bnl.gov:443/pnfs/usatlas.bnl.gov/LOCALGROUPDISK/rucio/data18_hi/4c/6c/DAOD_HION7.26257438._000038.pool.root.1 |
| data18_hi | DAOD_HION7.26257438._000039.pool.root.1 | 9.593 GB   | 1be32f9a  | BNL-OSG2_LOCALGROUPDISK: davs://dcgftp.usatlas.bnl.gov:443/pnfs/usatlas.bnl.gov/LOCALGROUPDISK/rucio/data18_hi/81/c7/DAOD_HION7.26257438._000039.pool.root.1 |
| data18_hi | DAOD_HION7.26257438._000040.pool.root.1 | 9.728 GB   | e96d97c4  | BNL-OSG2_LOCALGROUPDISK: davs://dcgftp.usatlas.bnl.gov:443/pnfs/usatlas.bnl.gov/LOCALGROUPDISK/rucio/data18_hi/09/6a/DAOD_HION7.26257438._000040.pool.root.1 |
| data18_hi | DAOD_HION7.26257438._000041.pool.root.1 | 9.759 GB   | 0d1a4838  | BNL-OSG2_LOCALGROUPDISK: davs://dcgftp.usatlas.bnl.gov:443/pnfs/usatlas.bnl.gov/LOCALGROUPDISK/rucio/data18_hi/97/36/DAOD_HION7.26257438._000041.pool.root.1 |
| data18_hi | DAOD_HION7.26257438._000042.pool.root.1 | 9.706 GB   | 73e58e57  | BNL-OSG2_LOCALGROUPDISK: davs://dcgftp.usatlas.bnl.gov:443/pnfs/usatlas.bnl.gov/LOCALGROUPDISK/rucio/data18_hi/45/ad/DAOD_HION7.26257438._000042.pool.root.1 |
| data18_hi | DAOD_HION7.26257438._000043.pool.root.1 | 9.441 GB   | 7cab0fc3  | BNL-OSG2_LOCALGROUPDISK: davs://dcgftp.usatlas.bnl.gov:443/pnfs/usatlas.bnl.gov/LOCALGROUPDISK/rucio/data18_hi/8a/e4/DAOD_HION7.26257438._000043.pool.root.1 |
| data18_hi | DAOD_HION7.26257438._000044.pool.root.1 | 9.367 GB   | f0774f38  | BNL-OSG2_LOCALGROUPDISK: davs://dcgftp.usatlas.bnl.gov:443/pnfs/usatlas.bnl.gov/LOCALGROUPDISK/rucio/data18_hi/eb/9f/DAOD_HION7.26257438._000044.pool.root.1 |
| data18_hi | DAOD_HION7.26257438._000045.pool.root.1 | 9.190 GB   | f8ed3545  | BNL-OSG2_LOCALGROUPDISK: davs://dcgftp.usatlas.bnl.gov:443/pnfs/usatlas.bnl.gov/LOCALGROUPDISK/rucio/data18_hi/4a/9a/DAOD_HION7.26257438._000045.pool.root.1 |
| data18_hi | DAOD_HION7.26257438._000046.pool.root.1 | 9.077 GB   | 0937fd3e  | BNL-OSG2_LOCALGROUPDISK: davs://dcgftp.usatlas.bnl.gov:443/pnfs/usatlas.bnl.gov/LOCALGROUPDISK/rucio/data18_hi/49/90/DAOD_HION7.26257438._000046.pool.root.1 |
| data18_hi | DAOD_HION7.26257438._000047.pool.root.1 | 10.350 GB  | 95aeaefa  | BNL-OSG2_LOCALGROUPDISK: davs://dcgftp.usatlas.bnl.gov:443/pnfs/usatlas.bnl.gov/LOCALGROUPDISK/rucio/data18_hi/05/b6/DAOD_HION7.26257438._000047.pool.root.1 |
| data18_hi | DAOD_HION7.26257438._000048.pool.root.1 | 10.167 GB  | 2d3b9011  | BNL-OSG2_LOCALGROUPDISK: davs://dcgftp.usatlas.bnl.gov:443/pnfs/usatlas.bnl.gov/LOCALGROUPDISK/rucio/data18_hi/dc/d4/DAOD_HION7.26257438._000048.pool.root.1 |
| data18_hi | DAOD_HION7.26257438._000049.pool.root.1 | 9.978 GB   | b8a5af10  | BNL-OSG2_LOCALGROUPDISK: davs://dcgftp.usatlas.bnl.gov:443/pnfs/usatlas.bnl.gov/LOCALGROUPDISK/rucio/data18_hi/f3/cc/DAOD_HION7.26257438._000049.pool.root.1 |
| data18_hi | DAOD_HION7.26257438._000050.pool.root.1 | 9.742 GB   | 4bc49b7b  | BNL-OSG2_LOCALGROUPDISK: davs://dcgftp.usatlas.bnl.gov:443/pnfs/usatlas.bnl.gov/LOCALGROUPDISK/rucio/data18_hi/b2/bd/DAOD_HION7.26257438._000050.pool.root.1 |
| data18_hi | DAOD_HION7.26257438._000051.pool.root.1 | 9.519 GB   | d7e91c99  | BNL-OSG2_LOCALGROUPDISK: davs://dcgftp.usatlas.bnl.gov:443/pnfs/usatlas.bnl.gov/LOCALGROUPDISK/rucio/data18_hi/20/13/DAOD_HION7.26257438._000051.pool.root.1 |
| data18_hi | DAOD_HION7.26257438._000052.pool.root.1 | 10.040 GB  | ac69ffe9  | BNL-OSG2_LOCALGROUPDISK: davs://dcgftp.usatlas.bnl.gov:443/pnfs/usatlas.bnl.gov/LOCALGROUPDISK/rucio/data18_hi/e4/bd/DAOD_HION7.26257438._000052.pool.root.1 |
| data18_hi | DAOD_HION7.26257438._000053.pool.root.1 | 844.571 MB | 8a865343  | BNL-OSG2_LOCALGROUPDISK: davs://dcgftp.usatlas.bnl.gov:443/pnfs/usatlas.bnl.gov/LOCALGROUPDISK/rucio/data18_hi/6e/d4/DAOD_HION7.26257438._000053.pool.root.1 |
+-----------+-----------------------------------------+------------+-----------+--------------------------------------------------------------------------------------------------------------------------------------------------------------+
