+-----------+-----------------------------------------+------------+-----------+--------------------------------------------------------------------------------------------------------------------------------------------------------------+
| SCOPE     | NAME                                    | FILESIZE   | ADLER32   | RSE: REPLICA                                                                                                                                                 |
|-----------+-----------------------------------------+------------+-----------+--------------------------------------------------------------------------------------------------------------------------------------------------------------|
| data18_hi | DAOD_HION7.26257391._000001.pool.root.1 | 315.692 MB | 86cb206f  | BNL-OSG2_LOCALGROUPDISK: davs://dcgftp.usatlas.bnl.gov:443/pnfs/usatlas.bnl.gov/LOCALGROUPDISK/rucio/data18_hi/d2/f8/DAOD_HION7.26257391._000001.pool.root.1 |
| data18_hi | DAOD_HION7.26257391._000002.pool.root.1 | 316.920 MB | 3e620f7a  | BNL-OSG2_LOCALGROUPDISK: davs://dcgftp.usatlas.bnl.gov:443/pnfs/usatlas.bnl.gov/LOCALGROUPDISK/rucio/data18_hi/fc/0a/DAOD_HION7.26257391._000002.pool.root.1 |
| data18_hi | DAOD_HION7.26257391._000003.pool.root.1 | 305.218 MB | 94f218da  | BNL-OSG2_LOCALGROUPDISK: davs://dcgftp.usatlas.bnl.gov:443/pnfs/usatlas.bnl.gov/LOCALGROUPDISK/rucio/data18_hi/f2/9b/DAOD_HION7.26257391._000003.pool.root.1 |
| data18_hi | DAOD_HION7.26257391._000004.pool.root.1 | 319.560 MB | 0066715c  | BNL-OSG2_LOCALGROUPDISK: davs://dcgftp.usatlas.bnl.gov:443/pnfs/usatlas.bnl.gov/LOCALGROUPDISK/rucio/data18_hi/39/97/DAOD_HION7.26257391._000004.pool.root.1 |
| data18_hi | DAOD_HION7.26257391._000005.pool.root.1 | 310.337 MB | e713eb12  | BNL-OSG2_LOCALGROUPDISK: davs://dcgftp.usatlas.bnl.gov:443/pnfs/usatlas.bnl.gov/LOCALGROUPDISK/rucio/data18_hi/b0/8f/DAOD_HION7.26257391._000005.pool.root.1 |
| data18_hi | DAOD_HION7.26257391._000006.pool.root.1 | 341.820 MB | 67411d2c  | BNL-OSG2_LOCALGROUPDISK: davs://dcgftp.usatlas.bnl.gov:443/pnfs/usatlas.bnl.gov/LOCALGROUPDISK/rucio/data18_hi/8c/67/DAOD_HION7.26257391._000006.pool.root.1 |
| data18_hi | DAOD_HION7.26257391._000007.pool.root.1 | 314.426 MB | 201ae8cc  | BNL-OSG2_LOCALGROUPDISK: davs://dcgftp.usatlas.bnl.gov:443/pnfs/usatlas.bnl.gov/LOCALGROUPDISK/rucio/data18_hi/a5/87/DAOD_HION7.26257391._000007.pool.root.1 |
| data18_hi | DAOD_HION7.26257391._000008.pool.root.1 | 325.260 MB | 2b0d3de2  | BNL-OSG2_LOCALGROUPDISK: davs://dcgftp.usatlas.bnl.gov:443/pnfs/usatlas.bnl.gov/LOCALGROUPDISK/rucio/data18_hi/ae/b7/DAOD_HION7.26257391._000008.pool.root.1 |
| data18_hi | DAOD_HION7.26257391._000009.pool.root.1 | 312.753 MB | ec2e6a4c  | BNL-OSG2_LOCALGROUPDISK: davs://dcgftp.usatlas.bnl.gov:443/pnfs/usatlas.bnl.gov/LOCALGROUPDISK/rucio/data18_hi/f0/28/DAOD_HION7.26257391._000009.pool.root.1 |
| data18_hi | DAOD_HION7.26257391._000010.pool.root.1 | 315.299 MB | f83446e8  | BNL-OSG2_LOCALGROUPDISK: davs://dcgftp.usatlas.bnl.gov:443/pnfs/usatlas.bnl.gov/LOCALGROUPDISK/rucio/data18_hi/26/b6/DAOD_HION7.26257391._000010.pool.root.1 |
| data18_hi | DAOD_HION7.26257391._000011.pool.root.1 | 1.691 GB   | 6d618a0b  | BNL-OSG2_LOCALGROUPDISK: davs://dcgftp.usatlas.bnl.gov:443/pnfs/usatlas.bnl.gov/LOCALGROUPDISK/rucio/data18_hi/2b/78/DAOD_HION7.26257391._000011.pool.root.1 |
| data18_hi | DAOD_HION7.26257391._000012.pool.root.1 | 1.675 GB   | 0222d06f  | BNL-OSG2_LOCALGROUPDISK: davs://dcgftp.usatlas.bnl.gov:443/pnfs/usatlas.bnl.gov/LOCALGROUPDISK/rucio/data18_hi/1b/48/DAOD_HION7.26257391._000012.pool.root.1 |
| data18_hi | DAOD_HION7.26257391._000013.pool.root.1 | 1.659 GB   | 0db17a70  | BNL-OSG2_LOCALGROUPDISK: davs://dcgftp.usatlas.bnl.gov:443/pnfs/usatlas.bnl.gov/LOCALGROUPDISK/rucio/data18_hi/95/e8/DAOD_HION7.26257391._000013.pool.root.1 |
| data18_hi | DAOD_HION7.26257391._000014.pool.root.1 | 1.686 GB   | 169464ba  | BNL-OSG2_LOCALGROUPDISK: davs://dcgftp.usatlas.bnl.gov:443/pnfs/usatlas.bnl.gov/LOCALGROUPDISK/rucio/data18_hi/9b/65/DAOD_HION7.26257391._000014.pool.root.1 |
| data18_hi | DAOD_HION7.26257391._000015.pool.root.1 | 1.689 GB   | 0d22c1c4  | BNL-OSG2_LOCALGROUPDISK: davs://dcgftp.usatlas.bnl.gov:443/pnfs/usatlas.bnl.gov/LOCALGROUPDISK/rucio/data18_hi/3d/41/DAOD_HION7.26257391._000015.pool.root.1 |
| data18_hi | DAOD_HION7.26257391._000016.pool.root.1 | 1.657 GB   | 42a21cd3  | BNL-OSG2_LOCALGROUPDISK: davs://dcgftp.usatlas.bnl.gov:443/pnfs/usatlas.bnl.gov/LOCALGROUPDISK/rucio/data18_hi/92/3a/DAOD_HION7.26257391._000016.pool.root.1 |
| data18_hi | DAOD_HION7.26257391._000017.pool.root.1 | 1.691 GB   | 33d11ce1  | BNL-OSG2_LOCALGROUPDISK: davs://dcgftp.usatlas.bnl.gov:443/pnfs/usatlas.bnl.gov/LOCALGROUPDISK/rucio/data18_hi/92/b7/DAOD_HION7.26257391._000017.pool.root.1 |
| data18_hi | DAOD_HION7.26257391._000018.pool.root.1 | 1.716 GB   | 81701ccd  | BNL-OSG2_LOCALGROUPDISK: davs://dcgftp.usatlas.bnl.gov:443/pnfs/usatlas.bnl.gov/LOCALGROUPDISK/rucio/data18_hi/07/46/DAOD_HION7.26257391._000018.pool.root.1 |
| data18_hi | DAOD_HION7.26257391._000019.pool.root.1 | 1.661 GB   | a654d1b1  | BNL-OSG2_LOCALGROUPDISK: davs://dcgftp.usatlas.bnl.gov:443/pnfs/usatlas.bnl.gov/LOCALGROUPDISK/rucio/data18_hi/14/48/DAOD_HION7.26257391._000019.pool.root.1 |
| data18_hi | DAOD_HION7.26257391._000020.pool.root.1 | 1.676 GB   | 59e9a1d5  | BNL-OSG2_LOCALGROUPDISK: davs://dcgftp.usatlas.bnl.gov:443/pnfs/usatlas.bnl.gov/LOCALGROUPDISK/rucio/data18_hi/04/01/DAOD_HION7.26257391._000020.pool.root.1 |
| data18_hi | DAOD_HION7.26257391._000021.pool.root.1 | 1.719 GB   | aa1f9cf4  | BNL-OSG2_LOCALGROUPDISK: davs://dcgftp.usatlas.bnl.gov:443/pnfs/usatlas.bnl.gov/LOCALGROUPDISK/rucio/data18_hi/07/66/DAOD_HION7.26257391._000021.pool.root.1 |
| data18_hi | DAOD_HION7.26257391._000022.pool.root.1 | 1.711 GB   | 4067b863  | BNL-OSG2_LOCALGROUPDISK: davs://dcgftp.usatlas.bnl.gov:443/pnfs/usatlas.bnl.gov/LOCALGROUPDISK/rucio/data18_hi/ab/75/DAOD_HION7.26257391._000022.pool.root.1 |
| data18_hi | DAOD_HION7.26257391._000023.pool.root.1 | 1.700 GB   | 85758d54  | BNL-OSG2_LOCALGROUPDISK: davs://dcgftp.usatlas.bnl.gov:443/pnfs/usatlas.bnl.gov/LOCALGROUPDISK/rucio/data18_hi/b5/ab/DAOD_HION7.26257391._000023.pool.root.1 |
| data18_hi | DAOD_HION7.26257391._000024.pool.root.1 | 1.654 GB   | 24f41652  | BNL-OSG2_LOCALGROUPDISK: davs://dcgftp.usatlas.bnl.gov:443/pnfs/usatlas.bnl.gov/LOCALGROUPDISK/rucio/data18_hi/46/a2/DAOD_HION7.26257391._000024.pool.root.1 |
| data18_hi | DAOD_HION7.26257391._000025.pool.root.1 | 1.692 GB   | 08963a7d  | BNL-OSG2_LOCALGROUPDISK: davs://dcgftp.usatlas.bnl.gov:443/pnfs/usatlas.bnl.gov/LOCALGROUPDISK/rucio/data18_hi/6c/31/DAOD_HION7.26257391._000025.pool.root.1 |
| data18_hi | DAOD_HION7.26257391._000026.pool.root.1 | 1.681 GB   | daa65633  | BNL-OSG2_LOCALGROUPDISK: davs://dcgftp.usatlas.bnl.gov:443/pnfs/usatlas.bnl.gov/LOCALGROUPDISK/rucio/data18_hi/3d/60/DAOD_HION7.26257391._000026.pool.root.1 |
| data18_hi | DAOD_HION7.26257391._000027.pool.root.1 | 1.706 GB   | 6ee484cf  | BNL-OSG2_LOCALGROUPDISK: davs://dcgftp.usatlas.bnl.gov:443/pnfs/usatlas.bnl.gov/LOCALGROUPDISK/rucio/data18_hi/75/91/DAOD_HION7.26257391._000027.pool.root.1 |
| data18_hi | DAOD_HION7.26257391._000028.pool.root.1 | 1.659 GB   | 4bf967cc  | BNL-OSG2_LOCALGROUPDISK: davs://dcgftp.usatlas.bnl.gov:443/pnfs/usatlas.bnl.gov/LOCALGROUPDISK/rucio/data18_hi/a4/fe/DAOD_HION7.26257391._000028.pool.root.1 |
| data18_hi | DAOD_HION7.26257391._000029.pool.root.1 | 1.731 GB   | f2db85a1  | BNL-OSG2_LOCALGROUPDISK: davs://dcgftp.usatlas.bnl.gov:443/pnfs/usatlas.bnl.gov/LOCALGROUPDISK/rucio/data18_hi/e2/61/DAOD_HION7.26257391._000029.pool.root.1 |
| data18_hi | DAOD_HION7.26257391._000030.pool.root.1 | 1.695 GB   | 5af0d52d  | BNL-OSG2_LOCALGROUPDISK: davs://dcgftp.usatlas.bnl.gov:443/pnfs/usatlas.bnl.gov/LOCALGROUPDISK/rucio/data18_hi/00/82/DAOD_HION7.26257391._000030.pool.root.1 |
| data18_hi | DAOD_HION7.26257391._000031.pool.root.1 | 1.742 GB   | ffc9179e  | BNL-OSG2_LOCALGROUPDISK: davs://dcgftp.usatlas.bnl.gov:443/pnfs/usatlas.bnl.gov/LOCALGROUPDISK/rucio/data18_hi/9d/0a/DAOD_HION7.26257391._000031.pool.root.1 |
| data18_hi | DAOD_HION7.26257391._000032.pool.root.1 | 1.740 GB   | af70fe2f  | BNL-OSG2_LOCALGROUPDISK: davs://dcgftp.usatlas.bnl.gov:443/pnfs/usatlas.bnl.gov/LOCALGROUPDISK/rucio/data18_hi/67/1e/DAOD_HION7.26257391._000032.pool.root.1 |
| data18_hi | DAOD_HION7.26257391._000033.pool.root.1 | 1.728 GB   | e0ca9106  | BNL-OSG2_LOCALGROUPDISK: davs://dcgftp.usatlas.bnl.gov:443/pnfs/usatlas.bnl.gov/LOCALGROUPDISK/rucio/data18_hi/b9/49/DAOD_HION7.26257391._000033.pool.root.1 |
| data18_hi | DAOD_HION7.26257391._000034.pool.root.1 | 1.703 GB   | 0c75cbd9  | BNL-OSG2_LOCALGROUPDISK: davs://dcgftp.usatlas.bnl.gov:443/pnfs/usatlas.bnl.gov/LOCALGROUPDISK/rucio/data18_hi/24/84/DAOD_HION7.26257391._000034.pool.root.1 |
| data18_hi | DAOD_HION7.26257391._000035.pool.root.1 | 1.743 GB   | 60e91a4d  | BNL-OSG2_LOCALGROUPDISK: davs://dcgftp.usatlas.bnl.gov:443/pnfs/usatlas.bnl.gov/LOCALGROUPDISK/rucio/data18_hi/77/58/DAOD_HION7.26257391._000035.pool.root.1 |
| data18_hi | DAOD_HION7.26257391._000036.pool.root.1 | 1.725 GB   | cf73c485  | BNL-OSG2_LOCALGROUPDISK: davs://dcgftp.usatlas.bnl.gov:443/pnfs/usatlas.bnl.gov/LOCALGROUPDISK/rucio/data18_hi/74/e4/DAOD_HION7.26257391._000036.pool.root.1 |
| data18_hi | DAOD_HION7.26257391._000037.pool.root.1 | 1.707 GB   | e509ea72  | BNL-OSG2_LOCALGROUPDISK: davs://dcgftp.usatlas.bnl.gov:443/pnfs/usatlas.bnl.gov/LOCALGROUPDISK/rucio/data18_hi/29/e0/DAOD_HION7.26257391._000037.pool.root.1 |
| data18_hi | DAOD_HION7.26257391._000038.pool.root.1 | 1.737 GB   | 11c55021  | BNL-OSG2_LOCALGROUPDISK: davs://dcgftp.usatlas.bnl.gov:443/pnfs/usatlas.bnl.gov/LOCALGROUPDISK/rucio/data18_hi/eb/37/DAOD_HION7.26257391._000038.pool.root.1 |
| data18_hi | DAOD_HION7.26257391._000039.pool.root.1 | 833.573 MB | 5b365d94  | BNL-OSG2_LOCALGROUPDISK: davs://dcgftp.usatlas.bnl.gov:443/pnfs/usatlas.bnl.gov/LOCALGROUPDISK/rucio/data18_hi/f4/7f/DAOD_HION7.26257391._000039.pool.root.1 |
+-----------+-----------------------------------------+------------+-----------+--------------------------------------------------------------------------------------------------------------------------------------------------------------+
