+-----------+-----------------------------------------+------------+-----------+--------------------------------------------------------------------------------------------------------------------------------------------------------------+
| SCOPE     | NAME                                    | FILESIZE   | ADLER32   | RSE: REPLICA                                                                                                                                                 |
|-----------+-----------------------------------------+------------+-----------+--------------------------------------------------------------------------------------------------------------------------------------------------------------|
| data18_hi | DAOD_HION7.26257317._000001.pool.root.1 | 359.248 MB | 697ba503  | BNL-OSG2_LOCALGROUPDISK: davs://dcgftp.usatlas.bnl.gov:443/pnfs/usatlas.bnl.gov/LOCALGROUPDISK/rucio/data18_hi/aa/3e/DAOD_HION7.26257317._000001.pool.root.1 |
| data18_hi | DAOD_HION7.26257317._000002.pool.root.1 | 363.869 MB | 4476be4f  | BNL-OSG2_LOCALGROUPDISK: davs://dcgftp.usatlas.bnl.gov:443/pnfs/usatlas.bnl.gov/LOCALGROUPDISK/rucio/data18_hi/0a/24/DAOD_HION7.26257317._000002.pool.root.1 |
| data18_hi | DAOD_HION7.26257317._000003.pool.root.1 | 330.844 MB | f6ecfc5f  | BNL-OSG2_LOCALGROUPDISK: davs://dcgftp.usatlas.bnl.gov:443/pnfs/usatlas.bnl.gov/LOCALGROUPDISK/rucio/data18_hi/86/fe/DAOD_HION7.26257317._000003.pool.root.1 |
| data18_hi | DAOD_HION7.26257317._000004.pool.root.1 | 396.086 MB | 09507003  | BNL-OSG2_LOCALGROUPDISK: davs://dcgftp.usatlas.bnl.gov:443/pnfs/usatlas.bnl.gov/LOCALGROUPDISK/rucio/data18_hi/7a/67/DAOD_HION7.26257317._000004.pool.root.1 |
| data18_hi | DAOD_HION7.26257317._000005.pool.root.1 | 366.981 MB | 1c81cb37  | BNL-OSG2_LOCALGROUPDISK: davs://dcgftp.usatlas.bnl.gov:443/pnfs/usatlas.bnl.gov/LOCALGROUPDISK/rucio/data18_hi/ab/c6/DAOD_HION7.26257317._000005.pool.root.1 |
| data18_hi | DAOD_HION7.26257317._000006.pool.root.1 | 333.174 MB | 392b0b39  | BNL-OSG2_LOCALGROUPDISK: davs://dcgftp.usatlas.bnl.gov:443/pnfs/usatlas.bnl.gov/LOCALGROUPDISK/rucio/data18_hi/e9/3d/DAOD_HION7.26257317._000006.pool.root.1 |
| data18_hi | DAOD_HION7.26257317._000007.pool.root.1 | 350.417 MB | 085f82c9  | BNL-OSG2_LOCALGROUPDISK: davs://dcgftp.usatlas.bnl.gov:443/pnfs/usatlas.bnl.gov/LOCALGROUPDISK/rucio/data18_hi/e1/c1/DAOD_HION7.26257317._000007.pool.root.1 |
| data18_hi | DAOD_HION7.26257317._000009.pool.root.1 | 327.484 MB | 9bfb04ec  | BNL-OSG2_LOCALGROUPDISK: davs://dcgftp.usatlas.bnl.gov:443/pnfs/usatlas.bnl.gov/LOCALGROUPDISK/rucio/data18_hi/4d/ac/DAOD_HION7.26257317._000009.pool.root.1 |
| data18_hi | DAOD_HION7.26257317._000010.pool.root.1 | 329.970 MB | d6a48a5e  | BNL-OSG2_LOCALGROUPDISK: davs://dcgftp.usatlas.bnl.gov:443/pnfs/usatlas.bnl.gov/LOCALGROUPDISK/rucio/data18_hi/99/9e/DAOD_HION7.26257317._000010.pool.root.1 |
| data18_hi | DAOD_HION7.26257317._000011.pool.root.1 | 1.959 GB   | 75b3f70b  | BNL-OSG2_LOCALGROUPDISK: davs://dcgftp.usatlas.bnl.gov:443/pnfs/usatlas.bnl.gov/LOCALGROUPDISK/rucio/data18_hi/5c/ce/DAOD_HION7.26257317._000011.pool.root.1 |
| data18_hi | DAOD_HION7.26257317._000012.pool.root.1 | 1.873 GB   | d19168c5  | BNL-OSG2_LOCALGROUPDISK: davs://dcgftp.usatlas.bnl.gov:443/pnfs/usatlas.bnl.gov/LOCALGROUPDISK/rucio/data18_hi/38/03/DAOD_HION7.26257317._000012.pool.root.1 |
| data18_hi | DAOD_HION7.26257317._000013.pool.root.1 | 1.948 GB   | b984a565  | BNL-OSG2_LOCALGROUPDISK: davs://dcgftp.usatlas.bnl.gov:443/pnfs/usatlas.bnl.gov/LOCALGROUPDISK/rucio/data18_hi/02/5d/DAOD_HION7.26257317._000013.pool.root.1 |
| data18_hi | DAOD_HION7.26257317._000014.pool.root.1 | 1.935 GB   | 7a8c7a72  | BNL-OSG2_LOCALGROUPDISK: davs://dcgftp.usatlas.bnl.gov:443/pnfs/usatlas.bnl.gov/LOCALGROUPDISK/rucio/data18_hi/9f/77/DAOD_HION7.26257317._000014.pool.root.1 |
| data18_hi | DAOD_HION7.26257317._000015.pool.root.1 | 1.956 GB   | e7b09a0e  | BNL-OSG2_LOCALGROUPDISK: davs://dcgftp.usatlas.bnl.gov:443/pnfs/usatlas.bnl.gov/LOCALGROUPDISK/rucio/data18_hi/d4/79/DAOD_HION7.26257317._000015.pool.root.1 |
| data18_hi | DAOD_HION7.26257317._000016.pool.root.1 | 1.903 GB   | 1fea1614  | BNL-OSG2_LOCALGROUPDISK: davs://dcgftp.usatlas.bnl.gov:443/pnfs/usatlas.bnl.gov/LOCALGROUPDISK/rucio/data18_hi/90/8b/DAOD_HION7.26257317._000016.pool.root.1 |
| data18_hi | DAOD_HION7.26257317._000017.pool.root.1 | 1.936 GB   | e73c8608  | BNL-OSG2_LOCALGROUPDISK: davs://dcgftp.usatlas.bnl.gov:443/pnfs/usatlas.bnl.gov/LOCALGROUPDISK/rucio/data18_hi/cc/51/DAOD_HION7.26257317._000017.pool.root.1 |
| data18_hi | DAOD_HION7.26257317._000018.pool.root.1 | 1.940 GB   | 198489d1  | BNL-OSG2_LOCALGROUPDISK: davs://dcgftp.usatlas.bnl.gov:443/pnfs/usatlas.bnl.gov/LOCALGROUPDISK/rucio/data18_hi/f9/60/DAOD_HION7.26257317._000018.pool.root.1 |
| data18_hi | DAOD_HION7.26257317._000019.pool.root.1 | 1.891 GB   | 06846243  | BNL-OSG2_LOCALGROUPDISK: davs://dcgftp.usatlas.bnl.gov:443/pnfs/usatlas.bnl.gov/LOCALGROUPDISK/rucio/data18_hi/c3/f7/DAOD_HION7.26257317._000019.pool.root.1 |
| data18_hi | DAOD_HION7.26257317._000020.pool.root.1 | 1.915 GB   | d1c6d123  | BNL-OSG2_LOCALGROUPDISK: davs://dcgftp.usatlas.bnl.gov:443/pnfs/usatlas.bnl.gov/LOCALGROUPDISK/rucio/data18_hi/8c/22/DAOD_HION7.26257317._000020.pool.root.1 |
| data18_hi | DAOD_HION7.26257317._000021.pool.root.1 | 1.920 GB   | c1e76541  | BNL-OSG2_LOCALGROUPDISK: davs://dcgftp.usatlas.bnl.gov:443/pnfs/usatlas.bnl.gov/LOCALGROUPDISK/rucio/data18_hi/f2/77/DAOD_HION7.26257317._000021.pool.root.1 |
| data18_hi | DAOD_HION7.26257317._000022.pool.root.1 | 217.748 MB | 1256607a  | BNL-OSG2_LOCALGROUPDISK: davs://dcgftp.usatlas.bnl.gov:443/pnfs/usatlas.bnl.gov/LOCALGROUPDISK/rucio/data18_hi/76/12/DAOD_HION7.26257317._000022.pool.root.1 |
+-----------+-----------------------------------------+------------+-----------+--------------------------------------------------------------------------------------------------------------------------------------------------------------+
