data18_hi.00365502.physics_HardProbes.deriv.DAOD_HION7.f1021_m2037_p4404,74056
data18_hi.00365512.physics_HardProbes.deriv.DAOD_HION7.f1021_m2037_p4404,67999
data18_hi.00365573.physics_HardProbes.deriv.DAOD_HION7.f1021_m2037_p4404,378301
data18_hi.00365602.physics_HardProbes.deriv.DAOD_HION7.f1021_m2037_p4404,472191
data18_hi.00365627.physics_HardProbes.deriv.DAOD_HION7.f1021_m2037_p4404,890869
data18_hi.00365678.physics_HardProbes.deriv.DAOD_HION7.f1021_m2037_p4404,515554
data18_hi.00365681.physics_HardProbes.deriv.DAOD_HION7.f1021_m2037_p4404,927183
data18_hi.00365709.physics_HardProbes.deriv.DAOD_HION7.f1021_m2037_p4404,1180537
data18_hi.00365752.physics_HardProbes.deriv.DAOD_HION7.f1021_m2037_p4404,1226794
data18_hi.00365834.physics_HardProbes.deriv.DAOD_HION7.f1021_m2037_p4404,303784
data18_hi.00365914.physics_HardProbes.deriv.DAOD_HION7.f1027_m2037_p4404,411273
data18_hi.00365932.physics_HardProbes.deriv.DAOD_HION7.f1027_m2037_p4404,1353564
data18_hi.00366011.physics_HardProbes.deriv.DAOD_HION7.f1027_m2037_p4404,1414250
data18_hi.00366029.physics_HardProbes.deriv.DAOD_HION7.f1027_m2037_p4404,1366319
data18_hi.00366092.physics_HardProbes.deriv.DAOD_HION7.f1027_m2037_p4404,1463612
data18_hi.00366142.physics_HardProbes.deriv.DAOD_HION7.f1027_m2037_p4404,1374539
data18_hi.00366268.physics_HardProbes.deriv.DAOD_HION7.f1027_m2037_p4404,1858899
data18_hi.00366337.physics_HardProbes.deriv.DAOD_HION7.f1027_m2037_p4404,1520149
data18_hi.00366383.physics_HardProbes.deriv.DAOD_HION7.f1027_m2037_p4404,8861
data18_hi.00366413.physics_HardProbes.deriv.DAOD_HION7.f1027_m2037_p4404,1328692
data18_hi.00366476.physics_HardProbes.deriv.DAOD_HION7.f1030_m2048_p4404,1377285
data18_hi.00366526.physics_HardProbes.deriv.DAOD_HION7.f1030_m2048_p4404,14639
data18_hi.00366528.physics_HardProbes.deriv.DAOD_HION7.f1030_m2048_p4404,1029201
data18_hi.00366627.physics_HardProbes.deriv.DAOD_HION7.f1030_m2048_p4404,1199258
data18_hi.00366691.physics_HardProbes.deriv.DAOD_HION7.f1030_m2048_p4404,1775561
data18_hi.00366754.physics_HardProbes.deriv.DAOD_HION7.f1030_m2048_p4404,1878034
data18_hi.00366805.physics_HardProbes.deriv.DAOD_HION7.f1030_m2048_p4404,2234310
data18_hi.00366860.physics_HardProbes.deriv.DAOD_HION7.f1030_m2048_p4404,1963679
data18_hi.00366878.physics_HardProbes.deriv.DAOD_HION7.f1030_m2048_p4404,1928705
data18_hi.00366919.physics_HardProbes.deriv.DAOD_HION7.f1030_m2048_p4404,2070573
data18_hi.00366931.physics_HardProbes.deriv.DAOD_HION7.f1030_m2048_p4404,1550273
data18_hi.00366994.physics_HardProbes.deriv.DAOD_HION7.f1030_m2048_p4404,115768
data18_hi.00367023.physics_HardProbes.deriv.DAOD_HION7.f1030_m2048_p4404,1888267
data18_hi.00367099.physics_HardProbes.deriv.DAOD_HION7.f1030_m2048_p4404,1828310
data18_hi.00367134.physics_HardProbes.deriv.DAOD_HION7.f1030_m2048_p4404,1924949
data18_hi.00367165.physics_HardProbes.deriv.DAOD_HION7.f1030_m2048_p4404,113131
data18_hi.00367170.physics_HardProbes.deriv.DAOD_HION7.f1030_m2048_p4404,1669218
data18_hi.00367233.physics_HardProbes.deriv.DAOD_HION7.f1030_m2048_p4404,1677427
data18_hi.00367273.physics_HardProbes.deriv.DAOD_HION7.f1030_m2048_p4404,1498638
data18_hi.00367318.physics_HardProbes.deriv.DAOD_HION7.f1030_m2048_p4404,1329627
data18_hi.00367321.physics_HardProbes.deriv.DAOD_HION7.f1030_m2048_p4404,1322494
data18_hi.00367363.physics_HardProbes.deriv.DAOD_HION7.f1030_m2048_p4404,155412
data18_hi.00367364.physics_HardProbes.deriv.DAOD_HION7.f1030_m2048_p4404,1352971
data18_hi.00367365.physics_HardProbes.deriv.DAOD_HION7.f1030_m2048_p4404,929401
data18_hi.00367384.physics_HardProbes.deriv.DAOD_HION7.f1030_m2048_p4404,151960
