+-----------+-----------------------------------------+------------+-----------+--------------------------------------------------------------------------------------------------------------------------------------------------------------+
| SCOPE     | NAME                                    | FILESIZE   | ADLER32   | RSE: REPLICA                                                                                                                                                 |
|-----------+-----------------------------------------+------------+-----------+--------------------------------------------------------------------------------------------------------------------------------------------------------------|
| data18_hi | DAOD_HION7.26257444._000001.pool.root.1 | 6.019 GB   | 4b77cfd1  | BNL-OSG2_LOCALGROUPDISK: davs://dcgftp.usatlas.bnl.gov:443/pnfs/usatlas.bnl.gov/LOCALGROUPDISK/rucio/data18_hi/9e/c2/DAOD_HION7.26257444._000001.pool.root.1 |
| data18_hi | DAOD_HION7.26257444._000002.pool.root.1 | 6.464 GB   | 84212c14  | BNL-OSG2_LOCALGROUPDISK: davs://dcgftp.usatlas.bnl.gov:443/pnfs/usatlas.bnl.gov/LOCALGROUPDISK/rucio/data18_hi/ef/dd/DAOD_HION7.26257444._000002.pool.root.1 |
| data18_hi | DAOD_HION7.26257444._000003.pool.root.1 | 6.623 GB   | 618133a5  | BNL-OSG2_LOCALGROUPDISK: davs://dcgftp.usatlas.bnl.gov:443/pnfs/usatlas.bnl.gov/LOCALGROUPDISK/rucio/data18_hi/75/31/DAOD_HION7.26257444._000003.pool.root.1 |
| data18_hi | DAOD_HION7.26257444._000004.pool.root.1 | 5.903 GB   | 9552cd48  | BNL-OSG2_LOCALGROUPDISK: davs://dcgftp.usatlas.bnl.gov:443/pnfs/usatlas.bnl.gov/LOCALGROUPDISK/rucio/data18_hi/72/2d/DAOD_HION7.26257444._000004.pool.root.1 |
| data18_hi | DAOD_HION7.26257444._000005.pool.root.1 | 6.647 GB   | f9b38ceb  | BNL-OSG2_LOCALGROUPDISK: davs://dcgftp.usatlas.bnl.gov:443/pnfs/usatlas.bnl.gov/LOCALGROUPDISK/rucio/data18_hi/d2/ab/DAOD_HION7.26257444._000005.pool.root.1 |
| data18_hi | DAOD_HION7.26257444._000006.pool.root.1 | 6.565 GB   | a3cbc459  | BNL-OSG2_LOCALGROUPDISK: davs://dcgftp.usatlas.bnl.gov:443/pnfs/usatlas.bnl.gov/LOCALGROUPDISK/rucio/data18_hi/77/04/DAOD_HION7.26257444._000006.pool.root.1 |
| data18_hi | DAOD_HION7.26257444._000007.pool.root.1 | 6.571 GB   | 9bf4aac1  | BNL-OSG2_LOCALGROUPDISK: davs://dcgftp.usatlas.bnl.gov:443/pnfs/usatlas.bnl.gov/LOCALGROUPDISK/rucio/data18_hi/36/07/DAOD_HION7.26257444._000007.pool.root.1 |
| data18_hi | DAOD_HION7.26257444._000008.pool.root.1 | 5.963 GB   | 49944ca2  | BNL-OSG2_LOCALGROUPDISK: davs://dcgftp.usatlas.bnl.gov:443/pnfs/usatlas.bnl.gov/LOCALGROUPDISK/rucio/data18_hi/18/72/DAOD_HION7.26257444._000008.pool.root.1 |
| data18_hi | DAOD_HION7.26257444._000009.pool.root.1 | 6.610 GB   | f1477965  | BNL-OSG2_LOCALGROUPDISK: davs://dcgftp.usatlas.bnl.gov:443/pnfs/usatlas.bnl.gov/LOCALGROUPDISK/rucio/data18_hi/a6/50/DAOD_HION7.26257444._000009.pool.root.1 |
| data18_hi | DAOD_HION7.26257444._000010.pool.root.1 | 5.906 GB   | 5791534f  | BNL-OSG2_LOCALGROUPDISK: davs://dcgftp.usatlas.bnl.gov:443/pnfs/usatlas.bnl.gov/LOCALGROUPDISK/rucio/data18_hi/6d/d7/DAOD_HION7.26257444._000010.pool.root.1 |
| data18_hi | DAOD_HION7.26257444._000011.pool.root.1 | 10.398 GB  | 746c94a5  | BNL-OSG2_LOCALGROUPDISK: davs://dcgftp.usatlas.bnl.gov:443/pnfs/usatlas.bnl.gov/LOCALGROUPDISK/rucio/data18_hi/4c/ff/DAOD_HION7.26257444._000011.pool.root.1 |
| data18_hi | DAOD_HION7.26257444._000012.pool.root.1 | 10.419 GB  | 3db8a707  | BNL-OSG2_LOCALGROUPDISK: davs://dcgftp.usatlas.bnl.gov:443/pnfs/usatlas.bnl.gov/LOCALGROUPDISK/rucio/data18_hi/00/e8/DAOD_HION7.26257444._000012.pool.root.1 |
| data18_hi | DAOD_HION7.26257444._000013.pool.root.1 | 10.288 GB  | b98cac7a  | BNL-OSG2_LOCALGROUPDISK: davs://dcgftp.usatlas.bnl.gov:443/pnfs/usatlas.bnl.gov/LOCALGROUPDISK/rucio/data18_hi/88/69/DAOD_HION7.26257444._000013.pool.root.1 |
| data18_hi | DAOD_HION7.26257444._000014.pool.root.1 | 10.295 GB  | 80760661  | BNL-OSG2_LOCALGROUPDISK: davs://dcgftp.usatlas.bnl.gov:443/pnfs/usatlas.bnl.gov/LOCALGROUPDISK/rucio/data18_hi/39/0d/DAOD_HION7.26257444._000014.pool.root.1 |
| data18_hi | DAOD_HION7.26257444._000015.pool.root.1 | 10.003 GB  | 25b42598  | BNL-OSG2_LOCALGROUPDISK: davs://dcgftp.usatlas.bnl.gov:443/pnfs/usatlas.bnl.gov/LOCALGROUPDISK/rucio/data18_hi/5f/3a/DAOD_HION7.26257444._000015.pool.root.1 |
| data18_hi | DAOD_HION7.26257444._000016.pool.root.1 | 10.208 GB  | f2b94250  | BNL-OSG2_LOCALGROUPDISK: davs://dcgftp.usatlas.bnl.gov:443/pnfs/usatlas.bnl.gov/LOCALGROUPDISK/rucio/data18_hi/f6/0a/DAOD_HION7.26257444._000016.pool.root.1 |
| data18_hi | DAOD_HION7.26257444._000017.pool.root.1 | 10.278 GB  | 2d4c2d82  | BNL-OSG2_LOCALGROUPDISK: davs://dcgftp.usatlas.bnl.gov:443/pnfs/usatlas.bnl.gov/LOCALGROUPDISK/rucio/data18_hi/f4/47/DAOD_HION7.26257444._000017.pool.root.1 |
| data18_hi | DAOD_HION7.26257444._000018.pool.root.1 | 10.039 GB  | 8f78400b  | BNL-OSG2_LOCALGROUPDISK: davs://dcgftp.usatlas.bnl.gov:443/pnfs/usatlas.bnl.gov/LOCALGROUPDISK/rucio/data18_hi/e9/86/DAOD_HION7.26257444._000018.pool.root.1 |
| data18_hi | DAOD_HION7.26257444._000019.pool.root.1 | 8.836 GB   | c189e887  | BNL-OSG2_LOCALGROUPDISK: davs://dcgftp.usatlas.bnl.gov:443/pnfs/usatlas.bnl.gov/LOCALGROUPDISK/rucio/data18_hi/0d/73/DAOD_HION7.26257444._000019.pool.root.1 |
| data18_hi | DAOD_HION7.26257444._000020.pool.root.1 | 10.025 GB  | 3732fe43  | BNL-OSG2_LOCALGROUPDISK: davs://dcgftp.usatlas.bnl.gov:443/pnfs/usatlas.bnl.gov/LOCALGROUPDISK/rucio/data18_hi/14/33/DAOD_HION7.26257444._000020.pool.root.1 |
| data18_hi | DAOD_HION7.26257444._000021.pool.root.1 | 9.773 GB   | edb6eaeb  | BNL-OSG2_LOCALGROUPDISK: davs://dcgftp.usatlas.bnl.gov:443/pnfs/usatlas.bnl.gov/LOCALGROUPDISK/rucio/data18_hi/f0/a7/DAOD_HION7.26257444._000021.pool.root.1 |
| data18_hi | DAOD_HION7.26257444._000022.pool.root.1 | 9.547 GB   | ae70b48f  | BNL-OSG2_LOCALGROUPDISK: davs://dcgftp.usatlas.bnl.gov:443/pnfs/usatlas.bnl.gov/LOCALGROUPDISK/rucio/data18_hi/b6/b6/DAOD_HION7.26257444._000022.pool.root.1 |
| data18_hi | DAOD_HION7.26257444._000023.pool.root.1 | 9.240 GB   | 00983645  | BNL-OSG2_LOCALGROUPDISK: davs://dcgftp.usatlas.bnl.gov:443/pnfs/usatlas.bnl.gov/LOCALGROUPDISK/rucio/data18_hi/e7/76/DAOD_HION7.26257444._000023.pool.root.1 |
| data18_hi | DAOD_HION7.26257444._000024.pool.root.1 | 10.472 GB  | 2e4bc632  | BNL-OSG2_LOCALGROUPDISK: davs://dcgftp.usatlas.bnl.gov:443/pnfs/usatlas.bnl.gov/LOCALGROUPDISK/rucio/data18_hi/53/c0/DAOD_HION7.26257444._000024.pool.root.1 |
| data18_hi | DAOD_HION7.26257444._000025.pool.root.1 | 9.808 GB   | 797c6363  | BNL-OSG2_LOCALGROUPDISK: davs://dcgftp.usatlas.bnl.gov:443/pnfs/usatlas.bnl.gov/LOCALGROUPDISK/rucio/data18_hi/99/93/DAOD_HION7.26257444._000025.pool.root.1 |
| data18_hi | DAOD_HION7.26257444._000026.pool.root.1 | 10.186 GB  | 7100a21c  | BNL-OSG2_LOCALGROUPDISK: davs://dcgftp.usatlas.bnl.gov:443/pnfs/usatlas.bnl.gov/LOCALGROUPDISK/rucio/data18_hi/ac/de/DAOD_HION7.26257444._000026.pool.root.1 |
| data18_hi | DAOD_HION7.26257444._000027.pool.root.1 | 9.855 GB   | 84443ca4  | BNL-OSG2_LOCALGROUPDISK: davs://dcgftp.usatlas.bnl.gov:443/pnfs/usatlas.bnl.gov/LOCALGROUPDISK/rucio/data18_hi/96/18/DAOD_HION7.26257444._000027.pool.root.1 |
| data18_hi | DAOD_HION7.26257444._000028.pool.root.1 | 9.653 GB   | fabba8ab  | BNL-OSG2_LOCALGROUPDISK: davs://dcgftp.usatlas.bnl.gov:443/pnfs/usatlas.bnl.gov/LOCALGROUPDISK/rucio/data18_hi/59/d9/DAOD_HION7.26257444._000028.pool.root.1 |
| data18_hi | DAOD_HION7.26257444._000029.pool.root.1 | 9.238 GB   | cc8e5b64  | BNL-OSG2_LOCALGROUPDISK: davs://dcgftp.usatlas.bnl.gov:443/pnfs/usatlas.bnl.gov/LOCALGROUPDISK/rucio/data18_hi/d2/c9/DAOD_HION7.26257444._000029.pool.root.1 |
| data18_hi | DAOD_HION7.26257444._000030.pool.root.1 | 9.216 GB   | 74a404f0  | BNL-OSG2_LOCALGROUPDISK: davs://dcgftp.usatlas.bnl.gov:443/pnfs/usatlas.bnl.gov/LOCALGROUPDISK/rucio/data18_hi/dc/f0/DAOD_HION7.26257444._000030.pool.root.1 |
| data18_hi | DAOD_HION7.26257444._000031.pool.root.1 | 8.973 GB   | 15aeab68  | BNL-OSG2_LOCALGROUPDISK: davs://dcgftp.usatlas.bnl.gov:443/pnfs/usatlas.bnl.gov/LOCALGROUPDISK/rucio/data18_hi/1d/65/DAOD_HION7.26257444._000031.pool.root.1 |
| data18_hi | DAOD_HION7.26257444._000032.pool.root.1 | 9.723 GB   | bb42167c  | BNL-OSG2_LOCALGROUPDISK: davs://dcgftp.usatlas.bnl.gov:443/pnfs/usatlas.bnl.gov/LOCALGROUPDISK/rucio/data18_hi/7d/49/DAOD_HION7.26257444._000032.pool.root.1 |
| data18_hi | DAOD_HION7.26257444._000033.pool.root.1 | 9.796 GB   | a1b6b901  | BNL-OSG2_LOCALGROUPDISK: davs://dcgftp.usatlas.bnl.gov:443/pnfs/usatlas.bnl.gov/LOCALGROUPDISK/rucio/data18_hi/69/07/DAOD_HION7.26257444._000033.pool.root.1 |
| data18_hi | DAOD_HION7.26257444._000034.pool.root.1 | 9.709 GB   | a5980352  | BNL-OSG2_LOCALGROUPDISK: davs://dcgftp.usatlas.bnl.gov:443/pnfs/usatlas.bnl.gov/LOCALGROUPDISK/rucio/data18_hi/7e/58/DAOD_HION7.26257444._000034.pool.root.1 |
| data18_hi | DAOD_HION7.26257444._000035.pool.root.1 | 9.455 GB   | 8bb5cf7b  | BNL-OSG2_LOCALGROUPDISK: davs://dcgftp.usatlas.bnl.gov:443/pnfs/usatlas.bnl.gov/LOCALGROUPDISK/rucio/data18_hi/dc/e2/DAOD_HION7.26257444._000035.pool.root.1 |
| data18_hi | DAOD_HION7.26257444._000036.pool.root.1 | 9.190 GB   | ff052cde  | BNL-OSG2_LOCALGROUPDISK: davs://dcgftp.usatlas.bnl.gov:443/pnfs/usatlas.bnl.gov/LOCALGROUPDISK/rucio/data18_hi/fa/9b/DAOD_HION7.26257444._000036.pool.root.1 |
| data18_hi | DAOD_HION7.26257444._000037.pool.root.1 | 9.315 GB   | a69e688f  | BNL-OSG2_LOCALGROUPDISK: davs://dcgftp.usatlas.bnl.gov:443/pnfs/usatlas.bnl.gov/LOCALGROUPDISK/rucio/data18_hi/01/d3/DAOD_HION7.26257444._000037.pool.root.1 |
| data18_hi | DAOD_HION7.26257444._000038.pool.root.1 | 10.135 GB  | ddeb335e  | BNL-OSG2_LOCALGROUPDISK: davs://dcgftp.usatlas.bnl.gov:443/pnfs/usatlas.bnl.gov/LOCALGROUPDISK/rucio/data18_hi/59/8a/DAOD_HION7.26257444._000038.pool.root.1 |
| data18_hi | DAOD_HION7.26257444._000039.pool.root.1 | 9.978 GB   | 5f45d213  | BNL-OSG2_LOCALGROUPDISK: davs://dcgftp.usatlas.bnl.gov:443/pnfs/usatlas.bnl.gov/LOCALGROUPDISK/rucio/data18_hi/67/78/DAOD_HION7.26257444._000039.pool.root.1 |
| data18_hi | DAOD_HION7.26257444._000040.pool.root.1 | 9.704 GB   | a1c3a377  | BNL-OSG2_LOCALGROUPDISK: davs://dcgftp.usatlas.bnl.gov:443/pnfs/usatlas.bnl.gov/LOCALGROUPDISK/rucio/data18_hi/6b/84/DAOD_HION7.26257444._000040.pool.root.1 |
| data18_hi | DAOD_HION7.26257444._000041.pool.root.1 | 9.849 GB   | d143e1d5  | BNL-OSG2_LOCALGROUPDISK: davs://dcgftp.usatlas.bnl.gov:443/pnfs/usatlas.bnl.gov/LOCALGROUPDISK/rucio/data18_hi/43/30/DAOD_HION7.26257444._000041.pool.root.1 |
| data18_hi | DAOD_HION7.26257444._000042.pool.root.1 | 10.004 GB  | f4226d9d  | BNL-OSG2_LOCALGROUPDISK: davs://dcgftp.usatlas.bnl.gov:443/pnfs/usatlas.bnl.gov/LOCALGROUPDISK/rucio/data18_hi/bd/5e/DAOD_HION7.26257444._000042.pool.root.1 |
| data18_hi | DAOD_HION7.26257444._000043.pool.root.1 | 9.773 GB   | d392ec6b  | BNL-OSG2_LOCALGROUPDISK: davs://dcgftp.usatlas.bnl.gov:443/pnfs/usatlas.bnl.gov/LOCALGROUPDISK/rucio/data18_hi/69/a2/DAOD_HION7.26257444._000043.pool.root.1 |
| data18_hi | DAOD_HION7.26257444._000044.pool.root.1 | 9.599 GB   | 7b2da59a  | BNL-OSG2_LOCALGROUPDISK: davs://dcgftp.usatlas.bnl.gov:443/pnfs/usatlas.bnl.gov/LOCALGROUPDISK/rucio/data18_hi/cf/85/DAOD_HION7.26257444._000044.pool.root.1 |
| data18_hi | DAOD_HION7.26257444._000045.pool.root.1 | 9.415 GB   | 83b19a69  | BNL-OSG2_LOCALGROUPDISK: davs://dcgftp.usatlas.bnl.gov:443/pnfs/usatlas.bnl.gov/LOCALGROUPDISK/rucio/data18_hi/53/91/DAOD_HION7.26257444._000045.pool.root.1 |
| data18_hi | DAOD_HION7.26257444._000046.pool.root.1 | 9.305 GB   | 9dec33f0  | BNL-OSG2_LOCALGROUPDISK: davs://dcgftp.usatlas.bnl.gov:443/pnfs/usatlas.bnl.gov/LOCALGROUPDISK/rucio/data18_hi/d3/12/DAOD_HION7.26257444._000046.pool.root.1 |
| data18_hi | DAOD_HION7.26257444._000047.pool.root.1 | 9.117 GB   | 139b9298  | BNL-OSG2_LOCALGROUPDISK: davs://dcgftp.usatlas.bnl.gov:443/pnfs/usatlas.bnl.gov/LOCALGROUPDISK/rucio/data18_hi/b3/55/DAOD_HION7.26257444._000047.pool.root.1 |
| data18_hi | DAOD_HION7.26257444._000048.pool.root.1 | 10.445 GB  | e9392a3c  | BNL-OSG2_LOCALGROUPDISK: davs://dcgftp.usatlas.bnl.gov:443/pnfs/usatlas.bnl.gov/LOCALGROUPDISK/rucio/data18_hi/ec/33/DAOD_HION7.26257444._000048.pool.root.1 |
| data18_hi | DAOD_HION7.26257444._000049.pool.root.1 | 10.189 GB  | ad6f38d1  | BNL-OSG2_LOCALGROUPDISK: davs://dcgftp.usatlas.bnl.gov:443/pnfs/usatlas.bnl.gov/LOCALGROUPDISK/rucio/data18_hi/1a/ac/DAOD_HION7.26257444._000049.pool.root.1 |
| data18_hi | DAOD_HION7.26257444._000050.pool.root.1 | 9.234 GB   | d42a5b3c  | BNL-OSG2_LOCALGROUPDISK: davs://dcgftp.usatlas.bnl.gov:443/pnfs/usatlas.bnl.gov/LOCALGROUPDISK/rucio/data18_hi/ef/89/DAOD_HION7.26257444._000050.pool.root.1 |
| data18_hi | DAOD_HION7.26257444._000051.pool.root.1 | 9.502 GB   | 47d62860  | BNL-OSG2_LOCALGROUPDISK: davs://dcgftp.usatlas.bnl.gov:443/pnfs/usatlas.bnl.gov/LOCALGROUPDISK/rucio/data18_hi/ad/93/DAOD_HION7.26257444._000051.pool.root.1 |
| data18_hi | DAOD_HION7.26257444._000052.pool.root.1 | 10.055 GB  | 0dc25eba  | BNL-OSG2_LOCALGROUPDISK: davs://dcgftp.usatlas.bnl.gov:443/pnfs/usatlas.bnl.gov/LOCALGROUPDISK/rucio/data18_hi/65/bf/DAOD_HION7.26257444._000052.pool.root.1 |
| data18_hi | DAOD_HION7.26257444._000053.pool.root.1 | 9.917 GB   | 85347161  | BNL-OSG2_LOCALGROUPDISK: davs://dcgftp.usatlas.bnl.gov:443/pnfs/usatlas.bnl.gov/LOCALGROUPDISK/rucio/data18_hi/5c/42/DAOD_HION7.26257444._000053.pool.root.1 |
| data18_hi | DAOD_HION7.26257444._000054.pool.root.1 | 9.837 GB   | 02cdca74  | BNL-OSG2_LOCALGROUPDISK: davs://dcgftp.usatlas.bnl.gov:443/pnfs/usatlas.bnl.gov/LOCALGROUPDISK/rucio/data18_hi/e9/50/DAOD_HION7.26257444._000054.pool.root.1 |
| data18_hi | DAOD_HION7.26257444._000055.pool.root.1 | 9.526 GB   | 65d3918e  | BNL-OSG2_LOCALGROUPDISK: davs://dcgftp.usatlas.bnl.gov:443/pnfs/usatlas.bnl.gov/LOCALGROUPDISK/rucio/data18_hi/6b/7a/DAOD_HION7.26257444._000055.pool.root.1 |
| data18_hi | DAOD_HION7.26257444._000056.pool.root.1 | 9.068 GB   | 01432d29  | BNL-OSG2_LOCALGROUPDISK: davs://dcgftp.usatlas.bnl.gov:443/pnfs/usatlas.bnl.gov/LOCALGROUPDISK/rucio/data18_hi/28/6a/DAOD_HION7.26257444._000056.pool.root.1 |
| data18_hi | DAOD_HION7.26257444._000057.pool.root.1 | 9.097 GB   | 095e2f44  | BNL-OSG2_LOCALGROUPDISK: davs://dcgftp.usatlas.bnl.gov:443/pnfs/usatlas.bnl.gov/LOCALGROUPDISK/rucio/data18_hi/83/11/DAOD_HION7.26257444._000057.pool.root.1 |
| data18_hi | DAOD_HION7.26257444._000058.pool.root.1 | 10.121 GB  | c2322b18  | BNL-OSG2_LOCALGROUPDISK: davs://dcgftp.usatlas.bnl.gov:443/pnfs/usatlas.bnl.gov/LOCALGROUPDISK/rucio/data18_hi/3f/3c/DAOD_HION7.26257444._000058.pool.root.1 |
| data18_hi | DAOD_HION7.26257444._000059.pool.root.1 | 9.938 GB   | 3f37a476  | BNL-OSG2_LOCALGROUPDISK: davs://dcgftp.usatlas.bnl.gov:443/pnfs/usatlas.bnl.gov/LOCALGROUPDISK/rucio/data18_hi/dd/71/DAOD_HION7.26257444._000059.pool.root.1 |
| data18_hi | DAOD_HION7.26257444._000060.pool.root.1 | 9.773 GB   | 889c487f  | BNL-OSG2_LOCALGROUPDISK: davs://dcgftp.usatlas.bnl.gov:443/pnfs/usatlas.bnl.gov/LOCALGROUPDISK/rucio/data18_hi/1e/f6/DAOD_HION7.26257444._000060.pool.root.1 |
| data18_hi | DAOD_HION7.26257444._000061.pool.root.1 | 9.685 GB   | 0eadae1b  | BNL-OSG2_LOCALGROUPDISK: davs://dcgftp.usatlas.bnl.gov:443/pnfs/usatlas.bnl.gov/LOCALGROUPDISK/rucio/data18_hi/03/57/DAOD_HION7.26257444._000061.pool.root.1 |
| data18_hi | DAOD_HION7.26257444._000062.pool.root.1 | 9.364 GB   | e70356d4  | BNL-OSG2_LOCALGROUPDISK: davs://dcgftp.usatlas.bnl.gov:443/pnfs/usatlas.bnl.gov/LOCALGROUPDISK/rucio/data18_hi/ec/4f/DAOD_HION7.26257444._000062.pool.root.1 |
| data18_hi | DAOD_HION7.26257444._000063.pool.root.1 | 9.286 GB   | 177e2843  | BNL-OSG2_LOCALGROUPDISK: davs://dcgftp.usatlas.bnl.gov:443/pnfs/usatlas.bnl.gov/LOCALGROUPDISK/rucio/data18_hi/84/b5/DAOD_HION7.26257444._000063.pool.root.1 |
| data18_hi | DAOD_HION7.26257444._000064.pool.root.1 | 9.455 GB   | 72bbc1ce  | BNL-OSG2_LOCALGROUPDISK: davs://dcgftp.usatlas.bnl.gov:443/pnfs/usatlas.bnl.gov/LOCALGROUPDISK/rucio/data18_hi/43/9a/DAOD_HION7.26257444._000064.pool.root.1 |
| data18_hi | DAOD_HION7.26257444._000065.pool.root.1 | 10.084 GB  | e5b8129e  | BNL-OSG2_LOCALGROUPDISK: davs://dcgftp.usatlas.bnl.gov:443/pnfs/usatlas.bnl.gov/LOCALGROUPDISK/rucio/data18_hi/a8/b4/DAOD_HION7.26257444._000065.pool.root.1 |
| data18_hi | DAOD_HION7.26257444._000066.pool.root.1 | 9.843 GB   | 43b16426  | BNL-OSG2_LOCALGROUPDISK: davs://dcgftp.usatlas.bnl.gov:443/pnfs/usatlas.bnl.gov/LOCALGROUPDISK/rucio/data18_hi/88/c0/DAOD_HION7.26257444._000066.pool.root.1 |
| data18_hi | DAOD_HION7.26257444._000067.pool.root.1 | 9.788 GB   | a3306f50  | BNL-OSG2_LOCALGROUPDISK: davs://dcgftp.usatlas.bnl.gov:443/pnfs/usatlas.bnl.gov/LOCALGROUPDISK/rucio/data18_hi/c6/20/DAOD_HION7.26257444._000067.pool.root.1 |
| data18_hi | DAOD_HION7.26257444._000068.pool.root.1 | 9.570 GB   | c0bfdf63  | BNL-OSG2_LOCALGROUPDISK: davs://dcgftp.usatlas.bnl.gov:443/pnfs/usatlas.bnl.gov/LOCALGROUPDISK/rucio/data18_hi/17/12/DAOD_HION7.26257444._000068.pool.root.1 |
| data18_hi | DAOD_HION7.26257444._000069.pool.root.1 | 9.455 GB   | b8aba870  | BNL-OSG2_LOCALGROUPDISK: davs://dcgftp.usatlas.bnl.gov:443/pnfs/usatlas.bnl.gov/LOCALGROUPDISK/rucio/data18_hi/a8/69/DAOD_HION7.26257444._000069.pool.root.1 |
| data18_hi | DAOD_HION7.26257444._000070.pool.root.1 | 9.341 GB   | 680b03c8  | BNL-OSG2_LOCALGROUPDISK: davs://dcgftp.usatlas.bnl.gov:443/pnfs/usatlas.bnl.gov/LOCALGROUPDISK/rucio/data18_hi/8a/9d/DAOD_HION7.26257444._000070.pool.root.1 |
| data18_hi | DAOD_HION7.26257444._000071.pool.root.1 | 9.087 GB   | 39aa437f  | BNL-OSG2_LOCALGROUPDISK: davs://dcgftp.usatlas.bnl.gov:443/pnfs/usatlas.bnl.gov/LOCALGROUPDISK/rucio/data18_hi/14/b9/DAOD_HION7.26257444._000071.pool.root.1 |
| data18_hi | DAOD_HION7.26257444._000072.pool.root.1 | 9.123 GB   | 6b9848f4  | BNL-OSG2_LOCALGROUPDISK: davs://dcgftp.usatlas.bnl.gov:443/pnfs/usatlas.bnl.gov/LOCALGROUPDISK/rucio/data18_hi/7d/4d/DAOD_HION7.26257444._000072.pool.root.1 |
| data18_hi | DAOD_HION7.26257444._000073.pool.root.1 | 10.403 GB  | 5d187f18  | BNL-OSG2_LOCALGROUPDISK: davs://dcgftp.usatlas.bnl.gov:443/pnfs/usatlas.bnl.gov/LOCALGROUPDISK/rucio/data18_hi/90/3d/DAOD_HION7.26257444._000073.pool.root.1 |
| data18_hi | DAOD_HION7.26257444._000074.pool.root.1 | 9.171 GB   | b2e2c5de  | BNL-OSG2_LOCALGROUPDISK: davs://dcgftp.usatlas.bnl.gov:443/pnfs/usatlas.bnl.gov/LOCALGROUPDISK/rucio/data18_hi/a0/4d/DAOD_HION7.26257444._000074.pool.root.1 |
| data18_hi | DAOD_HION7.26257444._000075.pool.root.1 | 10.088 GB  | 155d33fb  | BNL-OSG2_LOCALGROUPDISK: davs://dcgftp.usatlas.bnl.gov:443/pnfs/usatlas.bnl.gov/LOCALGROUPDISK/rucio/data18_hi/c0/f2/DAOD_HION7.26257444._000075.pool.root.1 |
| data18_hi | DAOD_HION7.26257444._000076.pool.root.1 | 9.479 GB   | d5428408  | BNL-OSG2_LOCALGROUPDISK: davs://dcgftp.usatlas.bnl.gov:443/pnfs/usatlas.bnl.gov/LOCALGROUPDISK/rucio/data18_hi/ab/b3/DAOD_HION7.26257444._000076.pool.root.1 |
| data18_hi | DAOD_HION7.26257444._000077.pool.root.1 | 9.936 GB   | 6c686445  | BNL-OSG2_LOCALGROUPDISK: davs://dcgftp.usatlas.bnl.gov:443/pnfs/usatlas.bnl.gov/LOCALGROUPDISK/rucio/data18_hi/eb/5b/DAOD_HION7.26257444._000077.pool.root.1 |
| data18_hi | DAOD_HION7.26257444._000078.pool.root.1 | 9.461 GB   | a54966ea  | BNL-OSG2_LOCALGROUPDISK: davs://dcgftp.usatlas.bnl.gov:443/pnfs/usatlas.bnl.gov/LOCALGROUPDISK/rucio/data18_hi/04/32/DAOD_HION7.26257444._000078.pool.root.1 |
| data18_hi | DAOD_HION7.26257444._000079.pool.root.1 | 9.438 GB   | 0849ab7e  | BNL-OSG2_LOCALGROUPDISK: davs://dcgftp.usatlas.bnl.gov:443/pnfs/usatlas.bnl.gov/LOCALGROUPDISK/rucio/data18_hi/5a/53/DAOD_HION7.26257444._000079.pool.root.1 |
| data18_hi | DAOD_HION7.26257444._000080.pool.root.1 | 9.129 GB   | 6fd2f841  | BNL-OSG2_LOCALGROUPDISK: davs://dcgftp.usatlas.bnl.gov:443/pnfs/usatlas.bnl.gov/LOCALGROUPDISK/rucio/data18_hi/6f/88/DAOD_HION7.26257444._000080.pool.root.1 |
| data18_hi | DAOD_HION7.26257444._000081.pool.root.1 | 9.181 GB   | 182246de  | BNL-OSG2_LOCALGROUPDISK: davs://dcgftp.usatlas.bnl.gov:443/pnfs/usatlas.bnl.gov/LOCALGROUPDISK/rucio/data18_hi/60/c9/DAOD_HION7.26257444._000081.pool.root.1 |
| data18_hi | DAOD_HION7.26257444._000082.pool.root.1 | 10.464 GB  | 3fbcac12  | BNL-OSG2_LOCALGROUPDISK: davs://dcgftp.usatlas.bnl.gov:443/pnfs/usatlas.bnl.gov/LOCALGROUPDISK/rucio/data18_hi/93/a1/DAOD_HION7.26257444._000082.pool.root.1 |
| data18_hi | DAOD_HION7.26257444._000083.pool.root.1 | 10.381 GB  | a0bb6f64  | BNL-OSG2_LOCALGROUPDISK: davs://dcgftp.usatlas.bnl.gov:443/pnfs/usatlas.bnl.gov/LOCALGROUPDISK/rucio/data18_hi/3a/62/DAOD_HION7.26257444._000083.pool.root.1 |
| data18_hi | DAOD_HION7.26257444._000084.pool.root.1 | 10.039 GB  | fcde38b9  | BNL-OSG2_LOCALGROUPDISK: davs://dcgftp.usatlas.bnl.gov:443/pnfs/usatlas.bnl.gov/LOCALGROUPDISK/rucio/data18_hi/2d/3f/DAOD_HION7.26257444._000084.pool.root.1 |
| data18_hi | DAOD_HION7.26257444._000085.pool.root.1 | 9.989 GB   | 9c69c13d  | BNL-OSG2_LOCALGROUPDISK: davs://dcgftp.usatlas.bnl.gov:443/pnfs/usatlas.bnl.gov/LOCALGROUPDISK/rucio/data18_hi/74/f5/DAOD_HION7.26257444._000085.pool.root.1 |
| data18_hi | DAOD_HION7.26257444._000086.pool.root.1 | 9.805 GB   | 147e69f1  | BNL-OSG2_LOCALGROUPDISK: davs://dcgftp.usatlas.bnl.gov:443/pnfs/usatlas.bnl.gov/LOCALGROUPDISK/rucio/data18_hi/a2/1b/DAOD_HION7.26257444._000086.pool.root.1 |
| data18_hi | DAOD_HION7.26257444._000087.pool.root.1 | 9.765 GB   | 6f43ce8e  | BNL-OSG2_LOCALGROUPDISK: davs://dcgftp.usatlas.bnl.gov:443/pnfs/usatlas.bnl.gov/LOCALGROUPDISK/rucio/data18_hi/b1/89/DAOD_HION7.26257444._000087.pool.root.1 |
| data18_hi | DAOD_HION7.26257444._000088.pool.root.1 | 9.510 GB   | b4646906  | BNL-OSG2_LOCALGROUPDISK: davs://dcgftp.usatlas.bnl.gov:443/pnfs/usatlas.bnl.gov/LOCALGROUPDISK/rucio/data18_hi/5d/56/DAOD_HION7.26257444._000088.pool.root.1 |
| data18_hi | DAOD_HION7.26257444._000089.pool.root.1 | 9.427 GB   | d23f6f83  | BNL-OSG2_LOCALGROUPDISK: davs://dcgftp.usatlas.bnl.gov:443/pnfs/usatlas.bnl.gov/LOCALGROUPDISK/rucio/data18_hi/e0/0f/DAOD_HION7.26257444._000089.pool.root.1 |
| data18_hi | DAOD_HION7.26257444._000090.pool.root.1 | 9.236 GB   | be846e18  | BNL-OSG2_LOCALGROUPDISK: davs://dcgftp.usatlas.bnl.gov:443/pnfs/usatlas.bnl.gov/LOCALGROUPDISK/rucio/data18_hi/8d/f0/DAOD_HION7.26257444._000090.pool.root.1 |
| data18_hi | DAOD_HION7.26257444._000091.pool.root.1 | 7.915 GB   | c949c1e4  | BNL-OSG2_LOCALGROUPDISK: davs://dcgftp.usatlas.bnl.gov:443/pnfs/usatlas.bnl.gov/LOCALGROUPDISK/rucio/data18_hi/38/f5/DAOD_HION7.26257444._000091.pool.root.1 |
+-----------+-----------------------------------------+------------+-----------+--------------------------------------------------------------------------------------------------------------------------------------------------------------+
