data18_hi.00365502.physics_HardProbes.merge.AOD.f1021_m2037
data18_hi.00365512.physics_HardProbes.merge.AOD.f1021_m2037
data18_hi.00365573.physics_HardProbes.merge.AOD.f1021_m2037
data18_hi.00365602.physics_HardProbes.merge.AOD.f1021_m2037
data18_hi.00365627.physics_HardProbes.merge.AOD.f1021_m2037
data18_hi.00365678.physics_HardProbes.merge.AOD.f1021_m2037
data18_hi.00365681.physics_HardProbes.merge.AOD.f1021_m2037
data18_hi.00365709.physics_HardProbes.merge.AOD.f1021_m2037
data18_hi.00365752.physics_HardProbes.merge.AOD.f1021_m2037
data18_hi.00365834.physics_HardProbes.merge.AOD.f1021_m2037
data18_hi.00365914.physics_HardProbes.merge.AOD.f1027_m2037
data18_hi.00365932.physics_HardProbes.merge.AOD.f1027_m2037
data18_hi.00366011.physics_HardProbes.merge.AOD.f1027_m2037
data18_hi.00366029.physics_HardProbes.merge.AOD.f1027_m2037
data18_hi.00366092.physics_HardProbes.merge.AOD.f1027_m2037
data18_hi.00366142.physics_HardProbes.merge.AOD.f1027_m2037
data18_hi.00366268.physics_HardProbes.merge.AOD.f1027_m2037
data18_hi.00366337.physics_HardProbes.merge.AOD.f1027_m2037
data18_hi.00366383.physics_HardProbes.merge.AOD.f1027_m2037
data18_hi.00366413.physics_HardProbes.merge.AOD.f1027_m2037
data18_hi.00366476.physics_HardProbes.merge.AOD.f1030_m2048
data18_hi.00366526.physics_HardProbes.merge.AOD.f1030_m2048
data18_hi.00366528.physics_HardProbes.merge.AOD.f1030_m2048
data18_hi.00366627.physics_HardProbes.merge.AOD.f1030_m2048
data18_hi.00366691.physics_HardProbes.merge.AOD.f1030_m2048
data18_hi.00366754.physics_HardProbes.merge.AOD.f1030_m2048
data18_hi.00366805.physics_HardProbes.merge.AOD.f1030_m2048
data18_hi.00366860.physics_HardProbes.merge.AOD.f1030_m2048
data18_hi.00366878.physics_HardProbes.merge.AOD.f1030_m2048
data18_hi.00366919.physics_HardProbes.merge.AOD.f1030_m2048
data18_hi.00366931.physics_HardProbes.merge.AOD.f1030_m2048
data18_hi.00366994.physics_HardProbes.merge.AOD.f1030_m2048
data18_hi.00367023.physics_HardProbes.merge.AOD.f1030_m2048
data18_hi.00367099.physics_HardProbes.merge.AOD.f1030_m2048
data18_hi.00367134.physics_HardProbes.merge.AOD.f1030_m2048
data18_hi.00367165.physics_HardProbes.merge.AOD.f1030_m2048
data18_hi.00367170.physics_HardProbes.merge.AOD.f1030_m2048
data18_hi.00367233.physics_HardProbes.merge.AOD.f1030_m2048
data18_hi.00367273.physics_HardProbes.merge.AOD.f1030_m2048
data18_hi.00367318.physics_HardProbes.merge.AOD.f1030_m2048
data18_hi.00367321.physics_HardProbes.merge.AOD.f1030_m2048
data18_hi.00367363.physics_HardProbes.merge.AOD.f1030_m2048
data18_hi.00367364.physics_HardProbes.merge.AOD.f1030_m2048
data18_hi.00367365.physics_HardProbes.merge.AOD.f1030_m2048
data18_hi.00367384.physics_HardProbes.merge.AOD.f1030_m2048
