/pnfs/usatlas.bnl.gov/LOCALGROUPDISK/rucio/data18_hi/96/a8/DAOD_HION7.22700022._000001.pool.root.1
/pnfs/usatlas.bnl.gov/LOCALGROUPDISK/rucio/data18_hi/0a/7e/DAOD_HION7.22700022._000002.pool.root.1
/pnfs/usatlas.bnl.gov/LOCALGROUPDISK/rucio/data18_hi/03/79/DAOD_HION7.22700022._000003.pool.root.1
/pnfs/usatlas.bnl.gov/LOCALGROUPDISK/rucio/data18_hi/99/ca/DAOD_HION7.22700022._000004.pool.root.1
/pnfs/usatlas.bnl.gov/LOCALGROUPDISK/rucio/data18_hi/b1/9e/DAOD_HION7.22700022._000005.pool.root.1
/pnfs/usatlas.bnl.gov/LOCALGROUPDISK/rucio/data18_hi/48/1e/DAOD_HION7.22700022._000006.pool.root.1
/pnfs/usatlas.bnl.gov/LOCALGROUPDISK/rucio/data18_hi/79/61/DAOD_HION7.22700022._000007.pool.root.1
/pnfs/usatlas.bnl.gov/LOCALGROUPDISK/rucio/data18_hi/ef/22/DAOD_HION7.22700022._000008.pool.root.1
/pnfs/usatlas.bnl.gov/LOCALGROUPDISK/rucio/data18_hi/f8/7e/DAOD_HION7.22700022._000009.pool.root.1
/pnfs/usatlas.bnl.gov/LOCALGROUPDISK/rucio/data18_hi/61/40/DAOD_HION7.22700022._000010.pool.root.1
/pnfs/usatlas.bnl.gov/LOCALGROUPDISK/rucio/data18_hi/61/6a/DAOD_HION7.22700022._000011.pool.root.1
/pnfs/usatlas.bnl.gov/LOCALGROUPDISK/rucio/data18_hi/3a/b1/DAOD_HION7.22700022._000012.pool.root.1
/pnfs/usatlas.bnl.gov/LOCALGROUPDISK/rucio/data18_hi/02/c5/DAOD_HION7.22700022._000013.pool.root.1
/pnfs/usatlas.bnl.gov/LOCALGROUPDISK/rucio/data18_hi/65/b0/DAOD_HION7.22700022._000014.pool.root.1
/pnfs/usatlas.bnl.gov/LOCALGROUPDISK/rucio/data18_hi/80/3c/DAOD_HION7.22700022._000015.pool.root.1
/pnfs/usatlas.bnl.gov/LOCALGROUPDISK/rucio/data18_hi/57/0c/DAOD_HION7.22700022._000016.pool.root.1
/pnfs/usatlas.bnl.gov/LOCALGROUPDISK/rucio/data18_hi/d3/72/DAOD_HION7.22700022._000017.pool.root.1
/pnfs/usatlas.bnl.gov/LOCALGROUPDISK/rucio/data18_hi/8a/11/DAOD_HION7.22700022._000018.pool.root.1
/pnfs/usatlas.bnl.gov/LOCALGROUPDISK/rucio/data18_hi/d0/09/DAOD_HION7.22700022._000019.pool.root.1
/pnfs/usatlas.bnl.gov/LOCALGROUPDISK/rucio/data18_hi/8d/0a/DAOD_HION7.22700022._000020.pool.root.1
/pnfs/usatlas.bnl.gov/LOCALGROUPDISK/rucio/data18_hi/66/40/DAOD_HION7.22700022._000021.pool.root.1
/pnfs/usatlas.bnl.gov/LOCALGROUPDISK/rucio/data18_hi/73/b6/DAOD_HION7.22700022._000022.pool.root.1
/pnfs/usatlas.bnl.gov/LOCALGROUPDISK/rucio/data18_hi/55/6f/DAOD_HION7.22700022._000023.pool.root.1
/pnfs/usatlas.bnl.gov/LOCALGROUPDISK/rucio/data18_hi/1a/84/DAOD_HION7.22700022._000024.pool.root.1
/pnfs/usatlas.bnl.gov/LOCALGROUPDISK/rucio/data18_hi/96/a8/DAOD_HION7.22700022._000001.pool.root.1
/pnfs/usatlas.bnl.gov/LOCALGROUPDISK/rucio/data18_hi/0a/7e/DAOD_HION7.22700022._000002.pool.root.1
/pnfs/usatlas.bnl.gov/LOCALGROUPDISK/rucio/data18_hi/03/79/DAOD_HION7.22700022._000003.pool.root.1
/pnfs/usatlas.bnl.gov/LOCALGROUPDISK/rucio/data18_hi/99/ca/DAOD_HION7.22700022._000004.pool.root.1
/pnfs/usatlas.bnl.gov/LOCALGROUPDISK/rucio/data18_hi/b1/9e/DAOD_HION7.22700022._000005.pool.root.1
/pnfs/usatlas.bnl.gov/LOCALGROUPDISK/rucio/data18_hi/48/1e/DAOD_HION7.22700022._000006.pool.root.1
/pnfs/usatlas.bnl.gov/LOCALGROUPDISK/rucio/data18_hi/79/61/DAOD_HION7.22700022._000007.pool.root.1
/pnfs/usatlas.bnl.gov/LOCALGROUPDISK/rucio/data18_hi/ef/22/DAOD_HION7.22700022._000008.pool.root.1
/pnfs/usatlas.bnl.gov/LOCALGROUPDISK/rucio/data18_hi/f8/7e/DAOD_HION7.22700022._000009.pool.root.1
/pnfs/usatlas.bnl.gov/LOCALGROUPDISK/rucio/data18_hi/61/40/DAOD_HION7.22700022._000010.pool.root.1
/pnfs/usatlas.bnl.gov/LOCALGROUPDISK/rucio/data18_hi/61/6a/DAOD_HION7.22700022._000011.pool.root.1
/pnfs/usatlas.bnl.gov/LOCALGROUPDISK/rucio/data18_hi/3a/b1/DAOD_HION7.22700022._000012.pool.root.1
/pnfs/usatlas.bnl.gov/LOCALGROUPDISK/rucio/data18_hi/02/c5/DAOD_HION7.22700022._000013.pool.root.1
/pnfs/usatlas.bnl.gov/LOCALGROUPDISK/rucio/data18_hi/65/b0/DAOD_HION7.22700022._000014.pool.root.1
/pnfs/usatlas.bnl.gov/LOCALGROUPDISK/rucio/data18_hi/80/3c/DAOD_HION7.22700022._000015.pool.root.1
/pnfs/usatlas.bnl.gov/LOCALGROUPDISK/rucio/data18_hi/57/0c/DAOD_HION7.22700022._000016.pool.root.1
/pnfs/usatlas.bnl.gov/LOCALGROUPDISK/rucio/data18_hi/d3/72/DAOD_HION7.22700022._000017.pool.root.1
/pnfs/usatlas.bnl.gov/LOCALGROUPDISK/rucio/data18_hi/8a/11/DAOD_HION7.22700022._000018.pool.root.1
/pnfs/usatlas.bnl.gov/LOCALGROUPDISK/rucio/data18_hi/d0/09/DAOD_HION7.22700022._000019.pool.root.1
/pnfs/usatlas.bnl.gov/LOCALGROUPDISK/rucio/data18_hi/8d/0a/DAOD_HION7.22700022._000020.pool.root.1
/pnfs/usatlas.bnl.gov/LOCALGROUPDISK/rucio/data18_hi/66/40/DAOD_HION7.22700022._000021.pool.root.1
/pnfs/usatlas.bnl.gov/LOCALGROUPDISK/rucio/data18_hi/73/b6/DAOD_HION7.22700022._000022.pool.root.1
/pnfs/usatlas.bnl.gov/LOCALGROUPDISK/rucio/data18_hi/55/6f/DAOD_HION7.22700022._000023.pool.root.1
/pnfs/usatlas.bnl.gov/LOCALGROUPDISK/rucio/data18_hi/1a/84/DAOD_HION7.22700022._000024.pool.root.1
/pnfs/usatlas.bnl.gov/LOCALGROUPDISK/rucio/data18_hi/96/a8/DAOD_HION7.22700022._000001.pool.root.1
/pnfs/usatlas.bnl.gov/LOCALGROUPDISK/rucio/data18_hi/0a/7e/DAOD_HION7.22700022._000002.pool.root.1
/pnfs/usatlas.bnl.gov/LOCALGROUPDISK/rucio/data18_hi/03/79/DAOD_HION7.22700022._000003.pool.root.1
/pnfs/usatlas.bnl.gov/LOCALGROUPDISK/rucio/data18_hi/99/ca/DAOD_HION7.22700022._000004.pool.root.1
/pnfs/usatlas.bnl.gov/LOCALGROUPDISK/rucio/data18_hi/b1/9e/DAOD_HION7.22700022._000005.pool.root.1
/pnfs/usatlas.bnl.gov/LOCALGROUPDISK/rucio/data18_hi/48/1e/DAOD_HION7.22700022._000006.pool.root.1
/pnfs/usatlas.bnl.gov/LOCALGROUPDISK/rucio/data18_hi/79/61/DAOD_HION7.22700022._000007.pool.root.1
/pnfs/usatlas.bnl.gov/LOCALGROUPDISK/rucio/data18_hi/ef/22/DAOD_HION7.22700022._000008.pool.root.1
/pnfs/usatlas.bnl.gov/LOCALGROUPDISK/rucio/data18_hi/f8/7e/DAOD_HION7.22700022._000009.pool.root.1
/pnfs/usatlas.bnl.gov/LOCALGROUPDISK/rucio/data18_hi/61/40/DAOD_HION7.22700022._000010.pool.root.1
/pnfs/usatlas.bnl.gov/LOCALGROUPDISK/rucio/data18_hi/61/6a/DAOD_HION7.22700022._000011.pool.root.1
/pnfs/usatlas.bnl.gov/LOCALGROUPDISK/rucio/data18_hi/3a/b1/DAOD_HION7.22700022._000012.pool.root.1
/pnfs/usatlas.bnl.gov/LOCALGROUPDISK/rucio/data18_hi/02/c5/DAOD_HION7.22700022._000013.pool.root.1
/pnfs/usatlas.bnl.gov/LOCALGROUPDISK/rucio/data18_hi/65/b0/DAOD_HION7.22700022._000014.pool.root.1
/pnfs/usatlas.bnl.gov/LOCALGROUPDISK/rucio/data18_hi/80/3c/DAOD_HION7.22700022._000015.pool.root.1
/pnfs/usatlas.bnl.gov/LOCALGROUPDISK/rucio/data18_hi/57/0c/DAOD_HION7.22700022._000016.pool.root.1
/pnfs/usatlas.bnl.gov/LOCALGROUPDISK/rucio/data18_hi/d3/72/DAOD_HION7.22700022._000017.pool.root.1
/pnfs/usatlas.bnl.gov/LOCALGROUPDISK/rucio/data18_hi/8a/11/DAOD_HION7.22700022._000018.pool.root.1
/pnfs/usatlas.bnl.gov/LOCALGROUPDISK/rucio/data18_hi/d0/09/DAOD_HION7.22700022._000019.pool.root.1
/pnfs/usatlas.bnl.gov/LOCALGROUPDISK/rucio/data18_hi/8d/0a/DAOD_HION7.22700022._000020.pool.root.1
/pnfs/usatlas.bnl.gov/LOCALGROUPDISK/rucio/data18_hi/66/40/DAOD_HION7.22700022._000021.pool.root.1
/pnfs/usatlas.bnl.gov/LOCALGROUPDISK/rucio/data18_hi/73/b6/DAOD_HION7.22700022._000022.pool.root.1
/pnfs/usatlas.bnl.gov/LOCALGROUPDISK/rucio/data18_hi/55/6f/DAOD_HION7.22700022._000023.pool.root.1
/pnfs/usatlas.bnl.gov/LOCALGROUPDISK/rucio/data18_hi/1a/84/DAOD_HION7.22700022._000024.pool.root.1
