+-----------+-----------------------------------------+------------+-----------+--------------------------------------------------------------------------------------------------------------------------------------------------------------+
| SCOPE     | NAME                                    | FILESIZE   | ADLER32   | RSE: REPLICA                                                                                                                                                 |
|-----------+-----------------------------------------+------------+-----------+--------------------------------------------------------------------------------------------------------------------------------------------------------------|
| data18_hi | DAOD_HION7.26257499._000001.pool.root.1 | 6.743 GB   | bfce3a94  | BNL-OSG2_LOCALGROUPDISK: davs://dcgftp.usatlas.bnl.gov:443/pnfs/usatlas.bnl.gov/LOCALGROUPDISK/rucio/data18_hi/98/7e/DAOD_HION7.26257499._000001.pool.root.1 |
| data18_hi | DAOD_HION7.26257499._000002.pool.root.1 | 7.137 GB   | f6c2b762  | BNL-OSG2_LOCALGROUPDISK: davs://dcgftp.usatlas.bnl.gov:443/pnfs/usatlas.bnl.gov/LOCALGROUPDISK/rucio/data18_hi/82/2e/DAOD_HION7.26257499._000002.pool.root.1 |
| data18_hi | DAOD_HION7.26257499._000003.pool.root.1 | 7.113 GB   | d42a0e2e  | BNL-OSG2_LOCALGROUPDISK: davs://dcgftp.usatlas.bnl.gov:443/pnfs/usatlas.bnl.gov/LOCALGROUPDISK/rucio/data18_hi/01/f1/DAOD_HION7.26257499._000003.pool.root.1 |
| data18_hi | DAOD_HION7.26257499._000004.pool.root.1 | 6.466 GB   | 49e0d8c8  | BNL-OSG2_LOCALGROUPDISK: davs://dcgftp.usatlas.bnl.gov:443/pnfs/usatlas.bnl.gov/LOCALGROUPDISK/rucio/data18_hi/a3/44/DAOD_HION7.26257499._000004.pool.root.1 |
| data18_hi | DAOD_HION7.26257499._000005.pool.root.1 | 6.885 GB   | 5168d879  | BNL-OSG2_LOCALGROUPDISK: davs://dcgftp.usatlas.bnl.gov:443/pnfs/usatlas.bnl.gov/LOCALGROUPDISK/rucio/data18_hi/88/4b/DAOD_HION7.26257499._000005.pool.root.1 |
| data18_hi | DAOD_HION7.26257499._000006.pool.root.1 | 6.861 GB   | ca597644  | BNL-OSG2_LOCALGROUPDISK: davs://dcgftp.usatlas.bnl.gov:443/pnfs/usatlas.bnl.gov/LOCALGROUPDISK/rucio/data18_hi/58/96/DAOD_HION7.26257499._000006.pool.root.1 |
| data18_hi | DAOD_HION7.26257499._000007.pool.root.1 | 6.353 GB   | 40600787  | BNL-OSG2_LOCALGROUPDISK: davs://dcgftp.usatlas.bnl.gov:443/pnfs/usatlas.bnl.gov/LOCALGROUPDISK/rucio/data18_hi/0c/3f/DAOD_HION7.26257499._000007.pool.root.1 |
| data18_hi | DAOD_HION7.26257499._000008.pool.root.1 | 6.984 GB   | 78491eff  | BNL-OSG2_LOCALGROUPDISK: davs://dcgftp.usatlas.bnl.gov:443/pnfs/usatlas.bnl.gov/LOCALGROUPDISK/rucio/data18_hi/83/87/DAOD_HION7.26257499._000008.pool.root.1 |
| data18_hi | DAOD_HION7.26257499._000009.pool.root.1 | 7.099 GB   | e61f4963  | BNL-OSG2_LOCALGROUPDISK: davs://dcgftp.usatlas.bnl.gov:443/pnfs/usatlas.bnl.gov/LOCALGROUPDISK/rucio/data18_hi/6e/55/DAOD_HION7.26257499._000009.pool.root.1 |
| data18_hi | DAOD_HION7.26257499._000010.pool.root.1 | 6.550 GB   | c5e0a652  | BNL-OSG2_LOCALGROUPDISK: davs://dcgftp.usatlas.bnl.gov:443/pnfs/usatlas.bnl.gov/LOCALGROUPDISK/rucio/data18_hi/1d/6e/DAOD_HION7.26257499._000010.pool.root.1 |
| data18_hi | DAOD_HION7.26257499._000011.pool.root.1 | 10.233 GB  | 078d5fd6  | BNL-OSG2_LOCALGROUPDISK: davs://dcgftp.usatlas.bnl.gov:443/pnfs/usatlas.bnl.gov/LOCALGROUPDISK/rucio/data18_hi/16/db/DAOD_HION7.26257499._000011.pool.root.1 |
| data18_hi | DAOD_HION7.26257499._000012.pool.root.1 | 10.491 GB  | e25e30a4  | BNL-OSG2_LOCALGROUPDISK: davs://dcgftp.usatlas.bnl.gov:443/pnfs/usatlas.bnl.gov/LOCALGROUPDISK/rucio/data18_hi/e8/06/DAOD_HION7.26257499._000012.pool.root.1 |
| data18_hi | DAOD_HION7.26257499._000013.pool.root.1 | 9.752 GB   | 25e1b6b9  | BNL-OSG2_LOCALGROUPDISK: davs://dcgftp.usatlas.bnl.gov:443/pnfs/usatlas.bnl.gov/LOCALGROUPDISK/rucio/data18_hi/a4/d5/DAOD_HION7.26257499._000013.pool.root.1 |
| data18_hi | DAOD_HION7.26257499._000014.pool.root.1 | 10.110 GB  | b88a299b  | BNL-OSG2_LOCALGROUPDISK: davs://dcgftp.usatlas.bnl.gov:443/pnfs/usatlas.bnl.gov/LOCALGROUPDISK/rucio/data18_hi/c4/fd/DAOD_HION7.26257499._000014.pool.root.1 |
| data18_hi | DAOD_HION7.26257499._000015.pool.root.1 | 9.849 GB   | 342b0665  | BNL-OSG2_LOCALGROUPDISK: davs://dcgftp.usatlas.bnl.gov:443/pnfs/usatlas.bnl.gov/LOCALGROUPDISK/rucio/data18_hi/42/90/DAOD_HION7.26257499._000015.pool.root.1 |
| data18_hi | DAOD_HION7.26257499._000016.pool.root.1 | 9.787 GB   | c81d7dad  | BNL-OSG2_LOCALGROUPDISK: davs://dcgftp.usatlas.bnl.gov:443/pnfs/usatlas.bnl.gov/LOCALGROUPDISK/rucio/data18_hi/4a/27/DAOD_HION7.26257499._000016.pool.root.1 |
| data18_hi | DAOD_HION7.26257499._000017.pool.root.1 | 10.011 GB  | 3b514d80  | BNL-OSG2_LOCALGROUPDISK: davs://dcgftp.usatlas.bnl.gov:443/pnfs/usatlas.bnl.gov/LOCALGROUPDISK/rucio/data18_hi/7b/33/DAOD_HION7.26257499._000017.pool.root.1 |
| data18_hi | DAOD_HION7.26257499._000018.pool.root.1 | 10.028 GB  | b6d732fe  | BNL-OSG2_LOCALGROUPDISK: davs://dcgftp.usatlas.bnl.gov:443/pnfs/usatlas.bnl.gov/LOCALGROUPDISK/rucio/data18_hi/f1/9d/DAOD_HION7.26257499._000018.pool.root.1 |
| data18_hi | DAOD_HION7.26257499._000019.pool.root.1 | 9.744 GB   | 9dab0c65  | BNL-OSG2_LOCALGROUPDISK: davs://dcgftp.usatlas.bnl.gov:443/pnfs/usatlas.bnl.gov/LOCALGROUPDISK/rucio/data18_hi/2e/e0/DAOD_HION7.26257499._000019.pool.root.1 |
| data18_hi | DAOD_HION7.26257499._000020.pool.root.1 | 9.467 GB   | 227c68e8  | BNL-OSG2_LOCALGROUPDISK: davs://dcgftp.usatlas.bnl.gov:443/pnfs/usatlas.bnl.gov/LOCALGROUPDISK/rucio/data18_hi/36/f1/DAOD_HION7.26257499._000020.pool.root.1 |
| data18_hi | DAOD_HION7.26257499._000021.pool.root.1 | 9.358 GB   | 08ee3410  | BNL-OSG2_LOCALGROUPDISK: davs://dcgftp.usatlas.bnl.gov:443/pnfs/usatlas.bnl.gov/LOCALGROUPDISK/rucio/data18_hi/f3/c3/DAOD_HION7.26257499._000021.pool.root.1 |
| data18_hi | DAOD_HION7.26257499._000022.pool.root.1 | 9.073 GB   | 56a4c131  | BNL-OSG2_LOCALGROUPDISK: davs://dcgftp.usatlas.bnl.gov:443/pnfs/usatlas.bnl.gov/LOCALGROUPDISK/rucio/data18_hi/58/89/DAOD_HION7.26257499._000022.pool.root.1 |
| data18_hi | DAOD_HION7.26257499._000026.pool.root.1 | 9.740 GB   | a1d6e809  | BNL-OSG2_LOCALGROUPDISK: davs://dcgftp.usatlas.bnl.gov:443/pnfs/usatlas.bnl.gov/LOCALGROUPDISK/rucio/data18_hi/90/0b/DAOD_HION7.26257499._000026.pool.root.1 |
| data18_hi | DAOD_HION7.26257499._000027.pool.root.1 | 9.755 GB   | 4412f56a  | BNL-OSG2_LOCALGROUPDISK: davs://dcgftp.usatlas.bnl.gov:443/pnfs/usatlas.bnl.gov/LOCALGROUPDISK/rucio/data18_hi/6c/b9/DAOD_HION7.26257499._000027.pool.root.1 |
| data18_hi | DAOD_HION7.26257499._000028.pool.root.1 | 1.220 GB   | 1ab44da0  | BNL-OSG2_LOCALGROUPDISK: davs://dcgftp.usatlas.bnl.gov:443/pnfs/usatlas.bnl.gov/LOCALGROUPDISK/rucio/data18_hi/28/f4/DAOD_HION7.26257499._000028.pool.root.1 |
| data18_hi | DAOD_HION7.26257499._000029.pool.root.1 | 10.319 GB  | 58972239  | BNL-OSG2_LOCALGROUPDISK: davs://dcgftp.usatlas.bnl.gov:443/pnfs/usatlas.bnl.gov/LOCALGROUPDISK/rucio/data18_hi/0f/ca/DAOD_HION7.26257499._000029.pool.root.1 |
| data18_hi | DAOD_HION7.26257499._000030.pool.root.1 | 10.194 GB  | 90e2f18a  | BNL-OSG2_LOCALGROUPDISK: davs://dcgftp.usatlas.bnl.gov:443/pnfs/usatlas.bnl.gov/LOCALGROUPDISK/rucio/data18_hi/16/c0/DAOD_HION7.26257499._000030.pool.root.1 |
| data18_hi | DAOD_HION7.26257499._000031.pool.root.1 | 9.917 GB   | 92ffe57e  | BNL-OSG2_LOCALGROUPDISK: davs://dcgftp.usatlas.bnl.gov:443/pnfs/usatlas.bnl.gov/LOCALGROUPDISK/rucio/data18_hi/78/8c/DAOD_HION7.26257499._000031.pool.root.1 |
+-----------+-----------------------------------------+------------+-----------+--------------------------------------------------------------------------------------------------------------------------------------------------------------+
