+-----------+-----------------------------------------+------------+-----------+--------------------------------------------------------------------------------------------------------------------------------------------------------------+
| SCOPE     | NAME                                    | FILESIZE   | ADLER32   | RSE: REPLICA                                                                                                                                                 |
|-----------+-----------------------------------------+------------+-----------+--------------------------------------------------------------------------------------------------------------------------------------------------------------|
| data18_hi | DAOD_HION7.26257446._000001.pool.root.1 | 6.067 GB   | a2cf16e9  | BNL-OSG2_LOCALGROUPDISK: davs://dcgftp.usatlas.bnl.gov:443/pnfs/usatlas.bnl.gov/LOCALGROUPDISK/rucio/data18_hi/e4/2f/DAOD_HION7.26257446._000001.pool.root.1 |
| data18_hi | DAOD_HION7.26257446._000002.pool.root.1 | 6.419 GB   | 32c2d90a  | BNL-OSG2_LOCALGROUPDISK: davs://dcgftp.usatlas.bnl.gov:443/pnfs/usatlas.bnl.gov/LOCALGROUPDISK/rucio/data18_hi/b6/f7/DAOD_HION7.26257446._000002.pool.root.1 |
| data18_hi | DAOD_HION7.26257446._000003.pool.root.1 | 6.542 GB   | 100204cb  | BNL-OSG2_LOCALGROUPDISK: davs://dcgftp.usatlas.bnl.gov:443/pnfs/usatlas.bnl.gov/LOCALGROUPDISK/rucio/data18_hi/b6/24/DAOD_HION7.26257446._000003.pool.root.1 |
| data18_hi | DAOD_HION7.26257446._000004.pool.root.1 | 6.554 GB   | 39316bcd  | BNL-OSG2_LOCALGROUPDISK: davs://dcgftp.usatlas.bnl.gov:443/pnfs/usatlas.bnl.gov/LOCALGROUPDISK/rucio/data18_hi/75/a1/DAOD_HION7.26257446._000004.pool.root.1 |
| data18_hi | DAOD_HION7.26257446._000005.pool.root.1 | 6.538 GB   | e86f68fa  | BNL-OSG2_LOCALGROUPDISK: davs://dcgftp.usatlas.bnl.gov:443/pnfs/usatlas.bnl.gov/LOCALGROUPDISK/rucio/data18_hi/de/30/DAOD_HION7.26257446._000005.pool.root.1 |
| data18_hi | DAOD_HION7.26257446._000006.pool.root.1 | 6.600 GB   | 2133ab53  | BNL-OSG2_LOCALGROUPDISK: davs://dcgftp.usatlas.bnl.gov:443/pnfs/usatlas.bnl.gov/LOCALGROUPDISK/rucio/data18_hi/2d/0b/DAOD_HION7.26257446._000006.pool.root.1 |
| data18_hi | DAOD_HION7.26257446._000007.pool.root.1 | 6.584 GB   | 0a5d6234  | BNL-OSG2_LOCALGROUPDISK: davs://dcgftp.usatlas.bnl.gov:443/pnfs/usatlas.bnl.gov/LOCALGROUPDISK/rucio/data18_hi/95/cd/DAOD_HION7.26257446._000007.pool.root.1 |
| data18_hi | DAOD_HION7.26257446._000008.pool.root.1 | 6.608 GB   | c65a6d45  | BNL-OSG2_LOCALGROUPDISK: davs://dcgftp.usatlas.bnl.gov:443/pnfs/usatlas.bnl.gov/LOCALGROUPDISK/rucio/data18_hi/b1/5c/DAOD_HION7.26257446._000008.pool.root.1 |
| data18_hi | DAOD_HION7.26257446._000009.pool.root.1 | 5.931 GB   | b44042a3  | BNL-OSG2_LOCALGROUPDISK: davs://dcgftp.usatlas.bnl.gov:443/pnfs/usatlas.bnl.gov/LOCALGROUPDISK/rucio/data18_hi/11/92/DAOD_HION7.26257446._000009.pool.root.1 |
| data18_hi | DAOD_HION7.26257446._000010.pool.root.1 | 6.658 GB   | 938d04e0  | BNL-OSG2_LOCALGROUPDISK: davs://dcgftp.usatlas.bnl.gov:443/pnfs/usatlas.bnl.gov/LOCALGROUPDISK/rucio/data18_hi/13/87/DAOD_HION7.26257446._000010.pool.root.1 |
| data18_hi | DAOD_HION7.26257446._000011.pool.root.1 | 10.302 GB  | 259c0923  | BNL-OSG2_LOCALGROUPDISK: davs://dcgftp.usatlas.bnl.gov:443/pnfs/usatlas.bnl.gov/LOCALGROUPDISK/rucio/data18_hi/3e/25/DAOD_HION7.26257446._000011.pool.root.1 |
| data18_hi | DAOD_HION7.26257446._000012.pool.root.1 | 10.272 GB  | 5d6a560e  | BNL-OSG2_LOCALGROUPDISK: davs://dcgftp.usatlas.bnl.gov:443/pnfs/usatlas.bnl.gov/LOCALGROUPDISK/rucio/data18_hi/eb/88/DAOD_HION7.26257446._000012.pool.root.1 |
| data18_hi | DAOD_HION7.26257446._000013.pool.root.1 | 10.236 GB  | dcdced9a  | BNL-OSG2_LOCALGROUPDISK: davs://dcgftp.usatlas.bnl.gov:443/pnfs/usatlas.bnl.gov/LOCALGROUPDISK/rucio/data18_hi/c2/f2/DAOD_HION7.26257446._000013.pool.root.1 |
| data18_hi | DAOD_HION7.26257446._000014.pool.root.1 | 10.149 GB  | 9178d4b6  | BNL-OSG2_LOCALGROUPDISK: davs://dcgftp.usatlas.bnl.gov:443/pnfs/usatlas.bnl.gov/LOCALGROUPDISK/rucio/data18_hi/01/3b/DAOD_HION7.26257446._000014.pool.root.1 |
| data18_hi | DAOD_HION7.26257446._000015.pool.root.1 | 10.222 GB  | 97ada0aa  | BNL-OSG2_LOCALGROUPDISK: davs://dcgftp.usatlas.bnl.gov:443/pnfs/usatlas.bnl.gov/LOCALGROUPDISK/rucio/data18_hi/e1/af/DAOD_HION7.26257446._000015.pool.root.1 |
| data18_hi | DAOD_HION7.26257446._000016.pool.root.1 | 9.831 GB   | 047b5f25  | BNL-OSG2_LOCALGROUPDISK: davs://dcgftp.usatlas.bnl.gov:443/pnfs/usatlas.bnl.gov/LOCALGROUPDISK/rucio/data18_hi/45/9d/DAOD_HION7.26257446._000016.pool.root.1 |
| data18_hi | DAOD_HION7.26257446._000017.pool.root.1 | 9.610 GB   | 841c7e57  | BNL-OSG2_LOCALGROUPDISK: davs://dcgftp.usatlas.bnl.gov:443/pnfs/usatlas.bnl.gov/LOCALGROUPDISK/rucio/data18_hi/ce/ff/DAOD_HION7.26257446._000017.pool.root.1 |
| data18_hi | DAOD_HION7.26257446._000018.pool.root.1 | 10.183 GB  | 21a6517c  | BNL-OSG2_LOCALGROUPDISK: davs://dcgftp.usatlas.bnl.gov:443/pnfs/usatlas.bnl.gov/LOCALGROUPDISK/rucio/data18_hi/54/c3/DAOD_HION7.26257446._000018.pool.root.1 |
| data18_hi | DAOD_HION7.26257446._000019.pool.root.1 | 9.026 GB   | 6addd518  | BNL-OSG2_LOCALGROUPDISK: davs://dcgftp.usatlas.bnl.gov:443/pnfs/usatlas.bnl.gov/LOCALGROUPDISK/rucio/data18_hi/67/57/DAOD_HION7.26257446._000019.pool.root.1 |
| data18_hi | DAOD_HION7.26257446._000020.pool.root.1 | 10.150 GB  | aab868ac  | BNL-OSG2_LOCALGROUPDISK: davs://dcgftp.usatlas.bnl.gov:443/pnfs/usatlas.bnl.gov/LOCALGROUPDISK/rucio/data18_hi/b3/38/DAOD_HION7.26257446._000020.pool.root.1 |
| data18_hi | DAOD_HION7.26257446._000021.pool.root.1 | 9.175 GB   | 39ed1aef  | BNL-OSG2_LOCALGROUPDISK: davs://dcgftp.usatlas.bnl.gov:443/pnfs/usatlas.bnl.gov/LOCALGROUPDISK/rucio/data18_hi/51/13/DAOD_HION7.26257446._000021.pool.root.1 |
| data18_hi | DAOD_HION7.26257446._000022.pool.root.1 | 9.946 GB   | 5587d6a4  | BNL-OSG2_LOCALGROUPDISK: davs://dcgftp.usatlas.bnl.gov:443/pnfs/usatlas.bnl.gov/LOCALGROUPDISK/rucio/data18_hi/3e/a6/DAOD_HION7.26257446._000022.pool.root.1 |
| data18_hi | DAOD_HION7.26257446._000023.pool.root.1 | 9.711 GB   | cc629bc6  | BNL-OSG2_LOCALGROUPDISK: davs://dcgftp.usatlas.bnl.gov:443/pnfs/usatlas.bnl.gov/LOCALGROUPDISK/rucio/data18_hi/0b/50/DAOD_HION7.26257446._000023.pool.root.1 |
| data18_hi | DAOD_HION7.26257446._000024.pool.root.1 | 9.459 GB   | d8408803  | BNL-OSG2_LOCALGROUPDISK: davs://dcgftp.usatlas.bnl.gov:443/pnfs/usatlas.bnl.gov/LOCALGROUPDISK/rucio/data18_hi/c5/09/DAOD_HION7.26257446._000024.pool.root.1 |
| data18_hi | DAOD_HION7.26257446._000025.pool.root.1 | 9.273 GB   | b455d42a  | BNL-OSG2_LOCALGROUPDISK: davs://dcgftp.usatlas.bnl.gov:443/pnfs/usatlas.bnl.gov/LOCALGROUPDISK/rucio/data18_hi/63/91/DAOD_HION7.26257446._000025.pool.root.1 |
| data18_hi | DAOD_HION7.26257446._000026.pool.root.1 | 10.378 GB  | f9da0cea  | BNL-OSG2_LOCALGROUPDISK: davs://dcgftp.usatlas.bnl.gov:443/pnfs/usatlas.bnl.gov/LOCALGROUPDISK/rucio/data18_hi/95/60/DAOD_HION7.26257446._000026.pool.root.1 |
| data18_hi | DAOD_HION7.26257446._000027.pool.root.1 | 10.031 GB  | 6e5cc889  | BNL-OSG2_LOCALGROUPDISK: davs://dcgftp.usatlas.bnl.gov:443/pnfs/usatlas.bnl.gov/LOCALGROUPDISK/rucio/data18_hi/c9/ce/DAOD_HION7.26257446._000027.pool.root.1 |
| data18_hi | DAOD_HION7.26257446._000028.pool.root.1 | 9.983 GB   | fd735511  | BNL-OSG2_LOCALGROUPDISK: davs://dcgftp.usatlas.bnl.gov:443/pnfs/usatlas.bnl.gov/LOCALGROUPDISK/rucio/data18_hi/5b/01/DAOD_HION7.26257446._000028.pool.root.1 |
| data18_hi | DAOD_HION7.26257446._000029.pool.root.1 | 9.568 GB   | 466f0e3e  | BNL-OSG2_LOCALGROUPDISK: davs://dcgftp.usatlas.bnl.gov:443/pnfs/usatlas.bnl.gov/LOCALGROUPDISK/rucio/data18_hi/f2/58/DAOD_HION7.26257446._000029.pool.root.1 |
| data18_hi | DAOD_HION7.26257446._000030.pool.root.1 | 9.332 GB   | 7539e950  | BNL-OSG2_LOCALGROUPDISK: davs://dcgftp.usatlas.bnl.gov:443/pnfs/usatlas.bnl.gov/LOCALGROUPDISK/rucio/data18_hi/24/34/DAOD_HION7.26257446._000030.pool.root.1 |
| data18_hi | DAOD_HION7.26257446._000031.pool.root.1 | 9.291 GB   | e1ab03f1  | BNL-OSG2_LOCALGROUPDISK: davs://dcgftp.usatlas.bnl.gov:443/pnfs/usatlas.bnl.gov/LOCALGROUPDISK/rucio/data18_hi/60/ce/DAOD_HION7.26257446._000031.pool.root.1 |
| data18_hi | DAOD_HION7.26257446._000032.pool.root.1 | 10.525 GB  | 3a7cb411  | BNL-OSG2_LOCALGROUPDISK: davs://dcgftp.usatlas.bnl.gov:443/pnfs/usatlas.bnl.gov/LOCALGROUPDISK/rucio/data18_hi/46/6c/DAOD_HION7.26257446._000032.pool.root.1 |
| data18_hi | DAOD_HION7.26257446._000033.pool.root.1 | 9.357 GB   | 43c7625b  | BNL-OSG2_LOCALGROUPDISK: davs://dcgftp.usatlas.bnl.gov:443/pnfs/usatlas.bnl.gov/LOCALGROUPDISK/rucio/data18_hi/ca/7c/DAOD_HION7.26257446._000033.pool.root.1 |
| data18_hi | DAOD_HION7.26257446._000034.pool.root.1 | 10.135 GB  | e666932e  | BNL-OSG2_LOCALGROUPDISK: davs://dcgftp.usatlas.bnl.gov:443/pnfs/usatlas.bnl.gov/LOCALGROUPDISK/rucio/data18_hi/40/cd/DAOD_HION7.26257446._000034.pool.root.1 |
| data18_hi | DAOD_HION7.26257446._000035.pool.root.1 | 9.682 GB   | 385abc50  | BNL-OSG2_LOCALGROUPDISK: davs://dcgftp.usatlas.bnl.gov:443/pnfs/usatlas.bnl.gov/LOCALGROUPDISK/rucio/data18_hi/77/df/DAOD_HION7.26257446._000035.pool.root.1 |
| data18_hi | DAOD_HION7.26257446._000036.pool.root.1 | 9.428 GB   | a4e10d6e  | BNL-OSG2_LOCALGROUPDISK: davs://dcgftp.usatlas.bnl.gov:443/pnfs/usatlas.bnl.gov/LOCALGROUPDISK/rucio/data18_hi/21/ac/DAOD_HION7.26257446._000036.pool.root.1 |
| data18_hi | DAOD_HION7.26257446._000037.pool.root.1 | 10.397 GB  | d63c1e2e  | BNL-OSG2_LOCALGROUPDISK: davs://dcgftp.usatlas.bnl.gov:443/pnfs/usatlas.bnl.gov/LOCALGROUPDISK/rucio/data18_hi/3e/9f/DAOD_HION7.26257446._000037.pool.root.1 |
| data18_hi | DAOD_HION7.26257446._000038.pool.root.1 | 9.765 GB   | 1942e9c2  | BNL-OSG2_LOCALGROUPDISK: davs://dcgftp.usatlas.bnl.gov:443/pnfs/usatlas.bnl.gov/LOCALGROUPDISK/rucio/data18_hi/d1/c0/DAOD_HION7.26257446._000038.pool.root.1 |
| data18_hi | DAOD_HION7.26257446._000039.pool.root.1 | 9.605 GB   | 685a724e  | BNL-OSG2_LOCALGROUPDISK: davs://dcgftp.usatlas.bnl.gov:443/pnfs/usatlas.bnl.gov/LOCALGROUPDISK/rucio/data18_hi/e9/2d/DAOD_HION7.26257446._000039.pool.root.1 |
| data18_hi | DAOD_HION7.26257446._000040.pool.root.1 | 9.431 GB   | e9d1025c  | BNL-OSG2_LOCALGROUPDISK: davs://dcgftp.usatlas.bnl.gov:443/pnfs/usatlas.bnl.gov/LOCALGROUPDISK/rucio/data18_hi/06/97/DAOD_HION7.26257446._000040.pool.root.1 |
| data18_hi | DAOD_HION7.26257446._000041.pool.root.1 | 9.179 GB   | dc92f06f  | BNL-OSG2_LOCALGROUPDISK: davs://dcgftp.usatlas.bnl.gov:443/pnfs/usatlas.bnl.gov/LOCALGROUPDISK/rucio/data18_hi/7a/eb/DAOD_HION7.26257446._000041.pool.root.1 |
| data18_hi | DAOD_HION7.26257446._000042.pool.root.1 | 10.521 GB  | 1c924d0a  | BNL-OSG2_LOCALGROUPDISK: davs://dcgftp.usatlas.bnl.gov:443/pnfs/usatlas.bnl.gov/LOCALGROUPDISK/rucio/data18_hi/53/94/DAOD_HION7.26257446._000042.pool.root.1 |
| data18_hi | DAOD_HION7.26257446._000043.pool.root.1 | 10.189 GB  | 179631ea  | BNL-OSG2_LOCALGROUPDISK: davs://dcgftp.usatlas.bnl.gov:443/pnfs/usatlas.bnl.gov/LOCALGROUPDISK/rucio/data18_hi/86/84/DAOD_HION7.26257446._000043.pool.root.1 |
| data18_hi | DAOD_HION7.26257446._000044.pool.root.1 | 10.020 GB  | 4303396b  | BNL-OSG2_LOCALGROUPDISK: davs://dcgftp.usatlas.bnl.gov:443/pnfs/usatlas.bnl.gov/LOCALGROUPDISK/rucio/data18_hi/24/28/DAOD_HION7.26257446._000044.pool.root.1 |
| data18_hi | DAOD_HION7.26257446._000045.pool.root.1 | 9.864 GB   | 943bbb7e  | BNL-OSG2_LOCALGROUPDISK: davs://dcgftp.usatlas.bnl.gov:443/pnfs/usatlas.bnl.gov/LOCALGROUPDISK/rucio/data18_hi/07/54/DAOD_HION7.26257446._000045.pool.root.1 |
| data18_hi | DAOD_HION7.26257446._000046.pool.root.1 | 9.293 GB   | bbd8d4bd  | BNL-OSG2_LOCALGROUPDISK: davs://dcgftp.usatlas.bnl.gov:443/pnfs/usatlas.bnl.gov/LOCALGROUPDISK/rucio/data18_hi/43/54/DAOD_HION7.26257446._000046.pool.root.1 |
| data18_hi | DAOD_HION7.26257446._000047.pool.root.1 | 9.902 GB   | 687245e2  | BNL-OSG2_LOCALGROUPDISK: davs://dcgftp.usatlas.bnl.gov:443/pnfs/usatlas.bnl.gov/LOCALGROUPDISK/rucio/data18_hi/de/7d/DAOD_HION7.26257446._000047.pool.root.1 |
| data18_hi | DAOD_HION7.26257446._000048.pool.root.1 | 9.829 GB   | 78da2f8b  | BNL-OSG2_LOCALGROUPDISK: davs://dcgftp.usatlas.bnl.gov:443/pnfs/usatlas.bnl.gov/LOCALGROUPDISK/rucio/data18_hi/9a/ea/DAOD_HION7.26257446._000048.pool.root.1 |
| data18_hi | DAOD_HION7.26257446._000049.pool.root.1 | 9.653 GB   | 293fd49d  | BNL-OSG2_LOCALGROUPDISK: davs://dcgftp.usatlas.bnl.gov:443/pnfs/usatlas.bnl.gov/LOCALGROUPDISK/rucio/data18_hi/27/b7/DAOD_HION7.26257446._000049.pool.root.1 |
| data18_hi | DAOD_HION7.26257446._000050.pool.root.1 | 9.426 GB   | 9a3db69a  | BNL-OSG2_LOCALGROUPDISK: davs://dcgftp.usatlas.bnl.gov:443/pnfs/usatlas.bnl.gov/LOCALGROUPDISK/rucio/data18_hi/02/56/DAOD_HION7.26257446._000050.pool.root.1 |
| data18_hi | DAOD_HION7.26257446._000051.pool.root.1 | 9.246 GB   | 62c402b8  | BNL-OSG2_LOCALGROUPDISK: davs://dcgftp.usatlas.bnl.gov:443/pnfs/usatlas.bnl.gov/LOCALGROUPDISK/rucio/data18_hi/bd/aa/DAOD_HION7.26257446._000051.pool.root.1 |
| data18_hi | DAOD_HION7.26257446._000053.pool.root.1 | 9.939 GB   | 7ccd503a  | BNL-OSG2_LOCALGROUPDISK: davs://dcgftp.usatlas.bnl.gov:443/pnfs/usatlas.bnl.gov/LOCALGROUPDISK/rucio/data18_hi/84/2d/DAOD_HION7.26257446._000053.pool.root.1 |
| data18_hi | DAOD_HION7.26257446._000054.pool.root.1 | 9.657 GB   | 5ed2c07b  | BNL-OSG2_LOCALGROUPDISK: davs://dcgftp.usatlas.bnl.gov:443/pnfs/usatlas.bnl.gov/LOCALGROUPDISK/rucio/data18_hi/dc/6d/DAOD_HION7.26257446._000054.pool.root.1 |
| data18_hi | DAOD_HION7.26257446._000055.pool.root.1 | 9.620 GB   | 843b602c  | BNL-OSG2_LOCALGROUPDISK: davs://dcgftp.usatlas.bnl.gov:443/pnfs/usatlas.bnl.gov/LOCALGROUPDISK/rucio/data18_hi/c4/20/DAOD_HION7.26257446._000055.pool.root.1 |
| data18_hi | DAOD_HION7.26257446._000056.pool.root.1 | 9.406 GB   | fdb10422  | BNL-OSG2_LOCALGROUPDISK: davs://dcgftp.usatlas.bnl.gov:443/pnfs/usatlas.bnl.gov/LOCALGROUPDISK/rucio/data18_hi/dc/37/DAOD_HION7.26257446._000056.pool.root.1 |
| data18_hi | DAOD_HION7.26257446._000057.pool.root.1 | 9.286 GB   | 63552ea9  | BNL-OSG2_LOCALGROUPDISK: davs://dcgftp.usatlas.bnl.gov:443/pnfs/usatlas.bnl.gov/LOCALGROUPDISK/rucio/data18_hi/5e/c0/DAOD_HION7.26257446._000057.pool.root.1 |
| data18_hi | DAOD_HION7.26257446._000058.pool.root.1 | 10.324 GB  | 0be8a7c9  | BNL-OSG2_LOCALGROUPDISK: davs://dcgftp.usatlas.bnl.gov:443/pnfs/usatlas.bnl.gov/LOCALGROUPDISK/rucio/data18_hi/02/99/DAOD_HION7.26257446._000058.pool.root.1 |
| data18_hi | DAOD_HION7.26257446._000059.pool.root.1 | 9.762 GB   | 3c3c34d6  | BNL-OSG2_LOCALGROUPDISK: davs://dcgftp.usatlas.bnl.gov:443/pnfs/usatlas.bnl.gov/LOCALGROUPDISK/rucio/data18_hi/35/b4/DAOD_HION7.26257446._000059.pool.root.1 |
| data18_hi | DAOD_HION7.26257446._000060.pool.root.1 | 9.640 GB   | ac3c9da5  | BNL-OSG2_LOCALGROUPDISK: davs://dcgftp.usatlas.bnl.gov:443/pnfs/usatlas.bnl.gov/LOCALGROUPDISK/rucio/data18_hi/d2/75/DAOD_HION7.26257446._000060.pool.root.1 |
| data18_hi | DAOD_HION7.26257446._000061.pool.root.1 | 9.478 GB   | 62fa9406  | BNL-OSG2_LOCALGROUPDISK: davs://dcgftp.usatlas.bnl.gov:443/pnfs/usatlas.bnl.gov/LOCALGROUPDISK/rucio/data18_hi/4e/ec/DAOD_HION7.26257446._000061.pool.root.1 |
| data18_hi | DAOD_HION7.26257446._000062.pool.root.1 | 10.318 GB  | 36513982  | BNL-OSG2_LOCALGROUPDISK: davs://dcgftp.usatlas.bnl.gov:443/pnfs/usatlas.bnl.gov/LOCALGROUPDISK/rucio/data18_hi/ff/e5/DAOD_HION7.26257446._000062.pool.root.1 |
| data18_hi | DAOD_HION7.26257446._000063.pool.root.1 | 9.176 GB   | 9d21b163  | BNL-OSG2_LOCALGROUPDISK: davs://dcgftp.usatlas.bnl.gov:443/pnfs/usatlas.bnl.gov/LOCALGROUPDISK/rucio/data18_hi/aa/a6/DAOD_HION7.26257446._000063.pool.root.1 |
| data18_hi | DAOD_HION7.26257446._000064.pool.root.1 | 10.520 GB  | ea4d6391  | BNL-OSG2_LOCALGROUPDISK: davs://dcgftp.usatlas.bnl.gov:443/pnfs/usatlas.bnl.gov/LOCALGROUPDISK/rucio/data18_hi/19/65/DAOD_HION7.26257446._000064.pool.root.1 |
| data18_hi | DAOD_HION7.26257446._000065.pool.root.1 | 9.629 GB   | 243d091d  | BNL-OSG2_LOCALGROUPDISK: davs://dcgftp.usatlas.bnl.gov:443/pnfs/usatlas.bnl.gov/LOCALGROUPDISK/rucio/data18_hi/3d/58/DAOD_HION7.26257446._000065.pool.root.1 |
| data18_hi | DAOD_HION7.26257446._000066.pool.root.1 | 10.284 GB  | 5922af5d  | BNL-OSG2_LOCALGROUPDISK: davs://dcgftp.usatlas.bnl.gov:443/pnfs/usatlas.bnl.gov/LOCALGROUPDISK/rucio/data18_hi/8c/ba/DAOD_HION7.26257446._000066.pool.root.1 |
| data18_hi | DAOD_HION7.26257446._000067.pool.root.1 | 10.144 GB  | c139a000  | BNL-OSG2_LOCALGROUPDISK: davs://dcgftp.usatlas.bnl.gov:443/pnfs/usatlas.bnl.gov/LOCALGROUPDISK/rucio/data18_hi/ed/a3/DAOD_HION7.26257446._000067.pool.root.1 |
| data18_hi | DAOD_HION7.26257446._000068.pool.root.1 | 9.937 GB   | b416fb5b  | BNL-OSG2_LOCALGROUPDISK: davs://dcgftp.usatlas.bnl.gov:443/pnfs/usatlas.bnl.gov/LOCALGROUPDISK/rucio/data18_hi/0c/88/DAOD_HION7.26257446._000068.pool.root.1 |
| data18_hi | DAOD_HION7.26257446._000069.pool.root.1 | 9.751 GB   | 223ad143  | BNL-OSG2_LOCALGROUPDISK: davs://dcgftp.usatlas.bnl.gov:443/pnfs/usatlas.bnl.gov/LOCALGROUPDISK/rucio/data18_hi/22/8f/DAOD_HION7.26257446._000069.pool.root.1 |
| data18_hi | DAOD_HION7.26257446._000070.pool.root.1 | 10.399 GB  | c3ca8188  | BNL-OSG2_LOCALGROUPDISK: davs://dcgftp.usatlas.bnl.gov:443/pnfs/usatlas.bnl.gov/LOCALGROUPDISK/rucio/data18_hi/11/45/DAOD_HION7.26257446._000070.pool.root.1 |
| data18_hi | DAOD_HION7.26257446._000071.pool.root.1 | 10.384 GB  | 548d889e  | BNL-OSG2_LOCALGROUPDISK: davs://dcgftp.usatlas.bnl.gov:443/pnfs/usatlas.bnl.gov/LOCALGROUPDISK/rucio/data18_hi/54/11/DAOD_HION7.26257446._000071.pool.root.1 |
| data18_hi | DAOD_HION7.26257446._000072.pool.root.1 | 10.084 GB  | a258cc11  | BNL-OSG2_LOCALGROUPDISK: davs://dcgftp.usatlas.bnl.gov:443/pnfs/usatlas.bnl.gov/LOCALGROUPDISK/rucio/data18_hi/48/72/DAOD_HION7.26257446._000072.pool.root.1 |
| data18_hi | DAOD_HION7.26257446._000073.pool.root.1 | 10.285 GB  | a729cac2  | BNL-OSG2_LOCALGROUPDISK: davs://dcgftp.usatlas.bnl.gov:443/pnfs/usatlas.bnl.gov/LOCALGROUPDISK/rucio/data18_hi/7e/06/DAOD_HION7.26257446._000073.pool.root.1 |
| data18_hi | DAOD_HION7.26257446._000074.pool.root.1 | 10.025 GB  | 2e89fc43  | BNL-OSG2_LOCALGROUPDISK: davs://dcgftp.usatlas.bnl.gov:443/pnfs/usatlas.bnl.gov/LOCALGROUPDISK/rucio/data18_hi/6e/7b/DAOD_HION7.26257446._000074.pool.root.1 |
| data18_hi | DAOD_HION7.26257446._000075.pool.root.1 | 9.693 GB   | 1181d1d0  | BNL-OSG2_LOCALGROUPDISK: davs://dcgftp.usatlas.bnl.gov:443/pnfs/usatlas.bnl.gov/LOCALGROUPDISK/rucio/data18_hi/fa/89/DAOD_HION7.26257446._000075.pool.root.1 |
| data18_hi | DAOD_HION7.26257446._000076.pool.root.1 | 10.434 GB  | bfdd6a3b  | BNL-OSG2_LOCALGROUPDISK: davs://dcgftp.usatlas.bnl.gov:443/pnfs/usatlas.bnl.gov/LOCALGROUPDISK/rucio/data18_hi/0c/ac/DAOD_HION7.26257446._000076.pool.root.1 |
| data18_hi | DAOD_HION7.26257446._000077.pool.root.1 | 10.281 GB  | 9be091c1  | BNL-OSG2_LOCALGROUPDISK: davs://dcgftp.usatlas.bnl.gov:443/pnfs/usatlas.bnl.gov/LOCALGROUPDISK/rucio/data18_hi/c2/f9/DAOD_HION7.26257446._000077.pool.root.1 |
| data18_hi | DAOD_HION7.26257446._000078.pool.root.1 | 10.088 GB  | 1cfb6fad  | BNL-OSG2_LOCALGROUPDISK: davs://dcgftp.usatlas.bnl.gov:443/pnfs/usatlas.bnl.gov/LOCALGROUPDISK/rucio/data18_hi/9d/2b/DAOD_HION7.26257446._000078.pool.root.1 |
| data18_hi | DAOD_HION7.26257446._000079.pool.root.1 | 4.311 GB   | 4c8c7a93  | BNL-OSG2_LOCALGROUPDISK: davs://dcgftp.usatlas.bnl.gov:443/pnfs/usatlas.bnl.gov/LOCALGROUPDISK/rucio/data18_hi/ff/85/DAOD_HION7.26257446._000079.pool.root.1 |
| data18_hi | DAOD_HION7.26257446._000080.pool.root.1 | 9.142 GB   | 2449ab97  | BNL-OSG2_LOCALGROUPDISK: davs://dcgftp.usatlas.bnl.gov:443/pnfs/usatlas.bnl.gov/LOCALGROUPDISK/rucio/data18_hi/10/26/DAOD_HION7.26257446._000080.pool.root.1 |
+-----------+-----------------------------------------+------------+-----------+--------------------------------------------------------------------------------------------------------------------------------------------------------------+
